Place,Sex,Name,CyrillicName,BodyweightKg,Squat1Kg,Squat2Kg,Squat3Kg,Best3SquatKg,Squat4Kg,Bench1Kg,Bench2Kg,Bench3Kg,Best3BenchKg,Bench4Kg,Deadlift1Kg,Deadlift2Kg,Deadlift3Kg,Best3DeadliftKg,Deadlift4Kg,TotalKg,WeightClassKg,Event,Equipment,Tested,Division,Age,BirthDate
1,F,Aurika Gavrilova,,47.9,110,-120,-120,110,,62.5,67.5,-70,67.5,,120,130,135,135,,312.5,48,SBD,Raw,Yes,Open,31,1988-06-21
1,F,Mariya Bandur,Мария Бандур,50.8,70,75,80,80,,47.5,50,,50,,100,-105,105,105,,235,52,SBD,Raw,Yes,Open,25,1994-02-09
1,F,Tatyana Slizh,Татьяна Слиж,53.45,70,-85,85,85,,40,47.5,50,50,,80,95,-102.5,95,,230,56,SBD,Raw,Yes,Open,30,1988-07-03
2,F,Anna Ivanova #2,Анна Иванов,55.9,80,-82.5,82.5,82.5,,-42.5,42.5,-45,42.5,,90,-95,-95,90,,215,56,SBD,Raw,Yes,Open,29,1990-06-19
1,F,Mariya Kozlova,Мария Козлова,56.45,100,-105,-105,100,,70,-75,-75,70,,110,125,130,130,,300,60,SBD,Raw,Yes,Open,35,1984-06-29
DQ,F,Svetlana Zolotova,Светлана Золотова,58.6,-75,-77.5,-77.5,,,,,,,,,,,,,,60,SBD,Raw,Yes,Open,29,1990-02-02
1,F,Viktoriya Bryakkieva,Виктория Бряккиева,63.6,110,120,-125,120,,70,-75,-75,70,,125,135,140,140,,330,67.5,SBD,Raw,Yes,Open,37,1981-07-26
2,F,Ekaterina Serebrovskaya,Екатерина Серебровская,65.5,-100,100,-107.5,100,,57.5,-60,-60,57.5,,100,-110,-110,100,,257.5,67.5,SBD,Raw,Yes,Open,32,1987-01-23
3,F,Evgeniya Knyazeva,Евгения Князева,63.75,80,90,-95,90,,50,55,-60,55,,100,-110,-110,100,,245,67.5,SBD,Raw,Yes,Open,24,1995-03-24
1,F,Elena Nefedova,Елена Нефедова,67.4,95,102.5,-107.5,102.5,,70,-72.5,-72.5,70,,135,142.5,,142.5,,315,67.5,SBD,Raw,Yes,Masters 45-49,47,1972-05-04
2,F,Natalya Knyazeva,Наталья Князева,67.45,85,-100,-100,85,,55,-60,-60,55,,130,140,,140,,280,67.5,SBD,Raw,Yes,Masters 45-49,48,1970-07-16
1,M,Elbrus Dzhatiev,Эльбрус Джатиев,51.35,100,105,110,110,,60,62.5,65,65,,95,102.5,105,105,,280,52,SBD,Raw,Yes,Youth,12,2006-07-17
1,M,Ilya Tereshchenko,Илья Терещенко,72.3,120,125,-130,125,,77.5,82.5,-85,82.5,,145,155,-160,155,,362.5,75,SBD,Raw,Yes,Teen 16-17,16,2003-02-06
1,M,Sergey Timoshchuk,Сергей Тимощук,72.7,105,115,127.5,127.5,,80,87.5,-92.5,87.5,,130,145,155,155,,370,75,SBD,Raw,Yes,Juniors 20-23,20,1998-12-11
1,M,Sergey Levdanskiy,Сергей Левданский,73.3,175,185,200,200,,130,-137.5,-137.5,130,,190,-200,200,200,,530,75,SBD,Raw,Yes,Open,27,1992-05-26
2,M,Mikhail Kuzmin,Михаил Кузьмин,71.8,160,175,185,185,,100,105,-112.5,105,,180,190,200,200,,490,75,SBD,Raw,Yes,Open,27,1991-10-31
1,M,Eduard Markov,Эдуард Марков,82.3,190,-205,-205,190,,120,127.5,-132.5,127.5,,215,230,237.5,237.5,,555,82.5,SBD,Raw,Yes,Juniors 20-23,21,1998-03-17
2,M,Nikita Klevin,Никита Клевин,81.3,155,162.5,167.5,167.5,,122.5,127.5,-132.5,127.5,,190,200,205,205,,500,82.5,SBD,Raw,Yes,Juniors 20-23,23,1995-11-27
1,M,Artur Mkhitaryan,Артур Мхитарян,80.45,200,-210,,200,,120,127.5,-132.5,127.5,,230,245,-260,245,,572.5,82.5,SBD,Raw,Yes,Open,25,1994-02-12
2,M,Maksim Kalachev,Максим Калачев,81.15,155,165,,165,,135,140,,140,,170,180,190,190,,495,82.5,SBD,Raw,Yes,Open,36,1982-11-04
DQ,M,Ivan Tulaev,Иван Тулаев,81.1,130,140,,140,,-120,120,-125,120,,-135,-135,,,,,82.5,SBD,Raw,Yes,Open,31,1988-03-16
1,M,Valeriy Bukanov,Валерий Буканов,82.15,165,175,177.5,177.5,,107.5,112.5,117.5,117.5,,180,190,200,200,,495,82.5,SBD,Raw,Yes,Masters 60-64,63,1956-01-01
DQ,M,Ilya Zaznobkin,Илья Зазнобкин,88.55,-200,-200,-200,,,,,,,,,,,,,,90,SBD,Raw,Yes,Teen 16-17,17,2001-12-17
1,M,Kirill Bakhov,Кирилл Бахов,87.3,200,210,215,215,,100,110,120,120,,200,220,227.5,227.5,,562.5,90,SBD,Raw,Yes,Teen 18-19,19,1999-08-05
1,M,Aleksey Shlychkov,Алексей Шлычков,89.9,-182.5,182.5,-187.5,182.5,,120,127.5,-132.5,127.5,,232.5,242.5,-247.5,242.5,,552.5,90,SBD,Raw,Yes,Juniors 20-23,23,1996-05-16
1,M,Andrey Yuroev,Андрей Юроев,89.8,200,210,220,220,,150,-162.5,,150,,225,237.5,-242.5,237.5,,607.5,90,SBD,Raw,Yes,Open,38,1980-10-30
2,M,Evgeniy Sokolov,Евгений Соколов,84,162.5,175,185,185,,130,-137.5,-137.5,130,,210,-225,230,230,,545,90,SBD,Raw,Yes,Open,35,1984-05-14
3,M,Dmitriy Shershavkin,Дмитрий Шершавкин,87.7,160,165,-170,165,,150,-155,-155,150,,180,200,210,210,,525,90,SBD,Raw,Yes,Open,29,1990-05-10
4,M,Anton Kucherovets,Антон Кучеровец,88.1,150,160,165,165,,115,120,125,125,,190,200,210,210,,500,90,SBD,Raw,Yes,Open,26,1992-09-02
1,M,Vladimir Karandashev,Владимир Карандашев,88.65,160,170,180,180,,140,147.5,152.5,152.5,,190,200,205,205,,537.5,90,SBD,Raw,Yes,Masters 45-49,47,1972-03-12
1,M,Pavel Filimonov,Павел Филимонов,98.7,150,180,-190,180,,100,107.5,115,115,-120,165,195,205,205,215,500,100,SBD,Raw,Yes,Teen 18-19,19,1999-09-09
1,M,Anton Govorov,Антон Говоров,97.9,-150,155,162.5,162.5,,90,-100,-100,90,,-170,180,190,190,,442.5,100,SBD,Raw,Yes,Juniors 20-23,20,1999-05-07
1,M,Vladimir Naumov,Владимир Наумов,97.3,210,-212.5,215,215,,140,145,-150,145,,260,270,275,275,,635,100,SBD,Raw,Yes,Open,38,1980-10-30
2,M,Aleksandr Odinaev,Александр Одинаев,98.2,200,210,215,215,,155,165,170,170,,245,-260,-260,245,,630,100,SBD,Raw,Yes,Open,36,1982-09-11
3,M,Sergey Tikhomirov,Сергей Тихомиров,99,190,202.5,212.5,212.5,,130,137.5,-142.5,137.5,,207.5,217.5,220,220,,570,100,SBD,Raw,Yes,Open,35,1984-03-12
4,M,Vasiliy Belov,Василий Белов,99.2,145,155,160,160,,112.5,117.5,120,120,,190,200,210,210,,490,100,SBD,Raw,Yes,Open,32,1987-05-05
1,M,Konstantin Seregin,Константин Серегин,103.2,200,210,215,215,,125,130,135,135,,240,250,260,260,,610,110,SBD,Raw,Yes,Open,41,1978-01-19
2,M,Timofey Ivanov,Тимофей Иванов,107.55,200,212.5,,212.5,,150,155,157.5,157.5,,210,-222.5,222.5,222.5,,592.5,110,SBD,Raw,Yes,Open,33,1985-09-20
3,M,Aleksey Shilyaev,Алексей Шиляев,107.6,115,125,135,135,,100,107.5,112.5,112.5,,135,-145,145,145,,392.5,110,SBD,Raw,Yes,Open,23,1995-07-07
1,M,Konstantin Seregin,Константин Серегин,103.2,200,210,215,215,,125,130,135,135,,240,250,260,260,,610,110,SBD,Raw,Yes,Masters 40-44,41,1978-01-19
1,M,Anton Bukhman,Антон Бухман,119,260,277.5,290,290,,180,197.5,210,210,211,270,290,300,300,-301,800,125,SBD,Raw,Yes,Open,30,1988-08-22
1,M,Pavel Artemev,Павел Артемьев,126.1,210,220,,220,,160,170,180,180,,230,250,270,270,,670,140,SBD,Raw,Yes,Open,34,1984-07-14
1,F,Yuliya Zhuk,Юлия Жук,45.7,57.5,60,62.5,62.5,,27.5,30,-32.5,30,,80,87.5,-95,87.5,,180,48,SBD,Raw,No,Open,33,1986-04-01
1,F,Yuliya Abramova,Юлия Абрамова,55.5,107.5,117.5,122.5,122.5,,57.5,62.5,-65,62.5,,142.5,152.5,160,160,164,345,56,SBD,Raw,No,Open,37,1982-06-29
1,F,Elena Bondarchuk,Елена Бондарчук,57.4,-110,110,-115,110,,67.5,72.5,-75,72.5,,130,140,147.5,147.5,153,330,60,SBD,Raw,No,Open,39,1980-06-18
2,F,Marina Benisovich,Марина Бенисович,58.5,50,-52.5,-55,50,,27.5,30,32.5,32.5,,65,67.5,70,70,,152.5,60,SBD,Raw,No,Open,33,1986-04-18
1,F,Antonina Sboynova,Антонина Сбойнова,66.8,92.5,95,100,100,,50,55,60,60,,125,137.5,-145,137.5,,297.5,67.5,SBD,Raw,No,Open,44,1974-08-01
1,F,Viktoriya Doga,Виктория Дога,79.1,140,150,160,160,,105,110,112.5,112.5,115,170,185,195,195,,467.5,82.5,SBD,Raw,No,Open,36,1982-09-04
1,M,Andrey Sokolov,Андрей Соколов,61.3,125,140,,140,,115,-120,120,120,,190,-200,,190,,450,67.5,SBD,Raw,No,Open,25,1994-02-20
1,M,Denis Koltsov,Денис Кольцов,73.2,170,175,180,180,,90,95,-102.5,95,,150,160,-165,160,,435,75,SBD,Raw,No,Open,17,2002-02-23
1,M,Aleksandr Talerov,Александр Талеров,81.9,212.5,225,237.5,237.5,,125,135,140,140,,-235,250,265,265,,642.5,82.5,SBD,Raw,No,Open,36,1983-06-08
2,M,Evgeniy Khlyzov,Евгений Хлызов,81.4,-200,200,-210,200,,-160,160,-170,160,,280,-290,-290,280,,640,82.5,SBD,Raw,No,Open,29,1989-07-01
DQ,M,Sergey Kuznetsov #25,Сергей Кузнецов,81.1,-140,-150,-150,,,,,,,,,,,,,,82.5,SBD,Raw,No,Open,24,1995-01-23
1,M,Nikolay Ryakhin,Николай Ряхин,86.9,170,180,185,185,,120,125,-130,125,,210,217.5,225,225,,535,90,SBD,Raw,No,Open,54,1965-01-25
1,M,Nikolay Ryakhin,Николай Ряхин,86.9,170,180,185,185,,120,125,-130,125,,210,217.5,225,225,,535,90,SBD,Raw,No,Masters 50-54,54,1965-01-25
1,M,Dmitriy Mukhin,Дмитрий Мухин,98.35,220,230,-240,230,,165,172.5,175,175,,260,270,-280,270,,675,100,SBD,Raw,No,Open,36,1983-05-15
1,M,Roman Shcherbakov,Роман Щербаков,97.85,200,210,215,215,,130,-140,-145,130,,220,230,240,240,,585,100,SBD,Raw,No,Masters 45-49,48,1970-12-19
1,M,Andrey Paskal,Андрей Паскал,105.8,230,-240,245,245,,175,185,-192.5,185,,260,270,280,280,,710,110,SBD,Raw,No,Open,28,1990-10-30
2,M,Denis Karpov,Денис Карпов,107.6,-220,220,230,230,,165,172.5,-177.5,172.5,,240,250,260,260,,662.5,110,SBD,Raw,No,Open,38,1981-02-21
1,M,Roman Demin,Роман Демин,116.1,260,270,290,290,,185,195,-205,195,,-330,330,345,345,,830,125,SBD,Raw,No,Open,39,1980-04-24
DQ,M,Nikolay Minin,Николай Минин,118.6,240,250,265,265,,220,-225,225,225,,-310,-310,-310,,,,125,SBD,Raw,No,Open,29,1989-07-03
DQ,M,Anton Kostelov,Антон Костелов,114.2,-205,,,,,,,,,,,,,,,,125,SBD,Raw,No,Masters 45-49,48,1971-03-07
1,M,Maksim Bezinskikh,Максим Безинских,128.2,242.5,257.5,-265,257.5,,185,195,,195,,245,260,267.5,267.5,,720,140,SBD,Raw,No,Open,33,1986-05-18
1,F,Darya Fatykhova,Дарья Фатыхова,59.2,115,120,-125,120,,57.5,60,-62.5,60,,115,120,125,125,,305,60,SBD,Wraps,Yes,Open,25,1994-06-07
1,F,Elena Vasileva,Елена Васильева,66.85,-100,102.5,105,105,,60,62.5,65,65,,100,112.5,-120,112.5,,282.5,67.5,SBD,Wraps,Yes,Open,31,1987-07-05
1,F,Maiju Hilander,,75,100,-112.5,112.5,112.5,-120,60,67.5,72.5,72.5,,150,160,167.5,167.5,,352.5,75,SBD,Wraps,Yes,Open,61,1957-07-22
1,F,Maiju Hilander,,75,100,-112.5,112.5,112.5,-120,60,67.5,72.5,72.5,,150,160,167.5,167.5,,352.5,75,SBD,Wraps,Yes,Masters 60-64,61,1957-07-22
1,M,Artem Abdulbarov,Артем Абдулбаров,82.2,175,187.5,192.5,192.5,,135,-140,-142.5,135,,180,190,200,200,,527.5,82.5,SBD,Wraps,Yes,Open,35,1983-09-30
2,M,Artem Porubaev,Артем Порубаев,79.25,160,175,-190,175,,-100,100,110,110,,180,190,200,200,,485,82.5,SBD,Wraps,Yes,Open,24,1994-09-22
1,M,Samvel Danielyan,Самвел Даниелян,89.3,200,210,230,230,,140,150,-155,150,,220,-240,-240,220,,600,90,SBD,Wraps,Yes,Open,28,1991-04-17
DQ,M,Dmitriy Zabokritskiy,Дмитрий Забокрицкий,99.7,-190,-190,-190,,,,,,,,,,,,,,100,SBD,Wraps,Yes,Juniors 20-23,21,1997-12-12
1,M,Dmitriy Mikhaylov,Дмитрий Михайлов,97.1,250,-260,260,260,,145,150,-152.5,150,,260,-265,-265,260,,670,100,SBD,Wraps,Yes,Open,35,1984-05-23
2,M,Ilya Melnichenko,Илья Мельниченко,98.3,185,195,205,205,,155,-162.5,162.5,162.5,,200,210,220,220,,587.5,100,SBD,Wraps,Yes,Open,28,1990-09-12
1,M,Austin Hickey,,104,230,250,265,265,,175,180,-185,180,,230,-250,,230,,675,110,SBD,Wraps,Yes,Open,39,1980-05-13
2,M,Valeriy Veselov,Валерий Веселов,107.8,200,215,-220,215,,140,150,157.5,157.5,,215,237.5,250,250,,622.5,110,SBD,Wraps,Yes,Open,36,1983-06-15
1,M,Valdivieso Angulo,,55.45,-127.5,127.5,-132.5,127.5,,-67.5,67.5,72.5,72.5,,145,150,155,155,,355,56,SBD,Wraps,No,Open,45,1974-01-18
1,M,Valdivieso Angulo,,55.45,-127.5,127.5,-132.5,127.5,,-67.5,67.5,72.5,72.5,,145,150,155,155,,355,56,SBD,Wraps,No,Masters 45-49,45,1974-01-18
1,F,Anna Khudayarov,,78.35,180,200,-210,200,,135,145,-150,145,,200,220,230,230,,575,82.5,SBD,Wraps,No,Open,31,1988-01-24
1,M,Maksim Kalinin,Максим Калинин,81.4,-220,225,235,235,,142.5,-147.5,-147.5,142.5,,230,237.5,242.5,242.5,,620,82.5,SBD,Wraps,No,Open,32,1987-03-29
2,M,Mudit Sharma,,77.6,140,145,150,150,,110,-120,-120,110,,160,180,-200,180,,440,82.5,SBD,Wraps,No,Open,33,1985-08-10
1,M,Parvinder Singh,,80,140,160,170,170,,100,105,-110,105,,170,180,210,210,,485,82.5,SBD,Wraps,No,Masters 40-44,42,1976-12-06
1,M,Vladimir Dzhatiev,Владимир Джатиев,89.4,190,-200,-200,190,,120,130,-135,130,,190,-200,200,200,,520,90,SBD,Wraps,No,Open,38,1981-02-25
1,M,Andrey Ulashchik,Андрей Улащик,96.75,-295,305,-312.5,305,,190,-200,200,200,,335,350,-360,350,,855,100,SBD,Wraps,No,Open,35,1983-07-20
2,M,Aleksandr Spitsin,Александр Спицин,99,-270,280,-300,280,,170,180,-185,180,,290,310,-330,310,,770,100,SBD,Wraps,No,Open,30,1988-09-10
3,M,Ilya Ershov,Илья Ершов,99.2,230,245,-255,245,,165,175,182.5,182.5,,235,247.5,-252.5,247.5,,675,100,SBD,Wraps,No,Open,30,1988-10-20
4,M,Jam Toohidi,,93.4,160,-180,-190,160,,125,140,150,150,,170,180,190,190,,500,100,SBD,Wraps,No,Open,35,1984-04-14
1,M,Rustam Basirov,Рустам Басиров,102.45,310,-330,330,330,,200,210,215,215,,310,322.5,330,330,,875,110,SBD,Wraps,No,Open,29,1989-07-31
2,M,Rustam Ramazanov,Рустам Рамазанов,102.3,280,295,-302.5,295,,170,-177.5,177.5,177.5,,260,275,-285,275,,747.5,110,SBD,Wraps,No,Open,35,1983-09-20
3,M,Igor Chayka,Игорь Чайка,108.4,260,280,290,290,,140,150,155,155,,270,280,-300,280,,725,110,SBD,Wraps,No,Open,25,1994-06-09
1,M,Aleksandr Komkov,Александр Комков,121.9,325,-335,340,340,,205,-215,-215,205,,285,-295,295,295,,840,125,SBD,Wraps,No,Open,35,1983-11-26
2,M,Aleksandr Klychev,Александр Клычев,122.2,310,-330,-330,310,,200,-210,,200,,280,300,,300,,810,125,SBD,Wraps,No,Open,33,1986-06-25
3,M,Valeriy Kurkov,Валерий Курков,123.1,240,255,260,260,,200,212.5,220,220,,205,222.5,240,240,,720,125,SBD,Wraps,No,Open,26,1992-07-07
1,M,Mohamed Bouafia,,132.65,380,400,426,426,,-200,200,210,210,,320,-340,340,340,,976,140,SBD,Wraps,No,Open,42,1976-12-15
1,M,Mohamed Bouafia,,132.65,380,400,426,426,,-200,200,210,210,,320,-340,340,340,,976,140,SBD,Wraps,No,Masters 40-44,42,1976-12-15
1,M,Kazemi Hossain,,144.45,140,180,200,200,,135,150,157.5,157.5,,130,170,180,180,,537.5,140+,SBD,Wraps,No,Masters 50-54,50,1969-04-24
1,F,Anna Mamont,Анна Мамонт,49.6,,,,,,55,57.5,-60,57.5,,115,-122.5,-122.5,115,,172.5,52,BD,Raw,Yes,Open,26,1993-06-11
1,F,Ella Kutsenko,Элла Куценко,55.8,,,,,,50,52.5,-55,52.5,,120,130,,130,,182.5,56,BD,Raw,Yes,Open,31,1988-04-14
1,F,Anna Kremleva,Анна Кремлева,59,,,,,,-45,45,-47.5,45,,95,100,105,105,,150,60,BD,Raw,Yes,Open,29,1990-06-22
1,F,Lidiya Surkina,Лидия Суркина,58.3,,,,,,50,55,-57.5,55,,95,105,112.5,112.5,,167.5,60,BD,Raw,Yes,Masters 45-49,47,1972-06-06
1,F,Maiju Hilander,,75,,,,,,60,67.5,72.5,72.5,,150,160,167.5,167.5,,240,75,BD,Raw,Yes,Open,61,1957-07-22
2,F,Maiju Hilander,,75,,,,,,60,67.5,72.5,72.5,,150,160,167.5,167.5,,240,75,BD,Raw,Yes,Masters 60-64,61,1957-07-22
1,M,Denis Ryabchikov,Денис Рябчиков,67.2,,,,,,112.5,117.5,120.5,120.5,-121.5,175,195,-200,195,,315.5,67.5,BD,Raw,Yes,Masters 40-44,42,1976-07-29
1,M,Vladimir Chernov,Владимир Чернов,79.6,,,,,,120,-125,125,125,,140,150,160,160,,285,82.5,BD,Raw,Yes,Open,36,1982-12-27
1,M,Ivan Krasnikov,Иван Красников,88.55,,,,,,135,142.5,-150,142.5,,190,207.5,-210,207.5,,350,90,BD,Raw,Yes,Open,28,1990-07-03
2,M,Aleksandr Dreyzin,Александр Дрейзин,89.3,,,,,,130,135,-140,135,,185,195,200,200,,335,90,BD,Raw,Yes,Open,36,1983-04-17
1,M,Anatoliy Savchenko,Анатолий Савченко,84.5,,,,,,100,-105,-107.5,100,,150,162.5,170,170,,270,90,BD,Raw,Yes,Masters 40-44,40,1978-11-04
1,M,Ilya Lapotko,Илья Лапотько,109.1,,,,,,-165,167.5,-170,167.5,,220,232.5,260,260,,427.5,110,BD,Raw,Yes,Open,45,1974-04-12
2,M,Austin Hickey,,104,,,,,,175,180,-185,180,,230,-250,,230,,410,110,BD,Raw,Yes,Open,39,1980-05-13
DQ,M,Viktor Efipov,Виктор Ефипов,103.4,,,,,,-137.5,-137.5,-137.5,,,,,,,,,110,BD,Raw,Yes,Masters 60-64,63,1956-01-19
1,F,Anna Khudayarov,,78.35,,,,,,135,145,-150,145,,200,220,230,230,,375,82.5,BD,Raw,No,Open,31,1988-01-24
1,F,Virpi Knuutila,,87,,,,,,122.5,132.5,-141,132.5,,200,,,200,,332.5,90,BD,Raw,No,Open,51,1967-10-11
1,F,Virpi Knuutila,,87,,,,,,122.5,132.5,-141,132.5,,200,,,200,,332.5,90,BD,Raw,No,Masters 50-54,51,1967-10-11
1,M,Denis Ryabchikov,Денис Рябчиков,67.2,,,,,,112.5,117.5,120.5,120.5,-121.5,175,195,-200,195,,315.5,67.5,BD,Raw,No,Masters 40-44,42,1976-07-29
1,M,Sergey Kuznetsov #25,Сергей Кузнецов,81.1,,,,,,125,135,-140,135,,170,190,-210,190,,325,82.5,BD,Raw,No,Open,24,1995-01-23
1,M,Parvinder Singh,,80,,,,,,100,105,-110,105,,170,180,210,210,,315,82.5,BD,Raw,No,Masters 40-44,42,1976-12-06
1,M,Pavel Kobelev,Павел Кобелев,87.5,,,,,,170,175,-182.5,175,,-320,-320,320,320,,495,90,BD,Raw,No,Open,29,1989-08-04
1,M,Igor Malakhov,Игорь Малахов,99.2,,,,,,160,167.5,170,170,,250,255,,255,,425,100,BD,Raw,No,Open,36,1982-07-11
1,M,Mohamed Bouafia,,132.65,,,,,,-200,200,210,210,,320,-340,340,340,,550,140,BD,Raw,No,Open,42,1976-12-15
1,M,Mohamed Bouafia,,132.65,,,,,,-200,200,210,210,,320,-340,340,340,,550,140,BD,Raw,No,Masters 40-44,42,1976-12-15
1,F,Regina Vasilyuk,Регина Василюк,59.6,100,-105,105,105,,,,,,,,,,,,105,60,S,Raw,Yes,Juniors 20-23,23,1995-08-03
1,M,Maksim Gordeev,Максим Гордеев,82.2,150,160,170,170,,,,,,,,,,,,170,82.5,S,Raw,No,Open,30,1988-07-10
2,M,Mudit Sharma,,77.6,140,145,150,150,,,,,,,,,,,,150,82.5,S,Raw,No,Open,33,1985-08-10
1,M,Sergey Surikov,Сергей Суриков,82,120,135,-150,135,,,,,,,,,,,,135,82.5,S,Wraps,Yes,Open,34,1985-03-30
1,M,Parvinder Singh,,80,140,160,170,170,,,,,,,,,,,,170,82.5,S,Wraps,No,Masters 40-44,42,1976-12-06
1,M,Aleksandr Mikhaylov,Александр Михайлов,87,110,-120,125,125,,,,,,,,,,,,125,90,S,Wraps,No,Masters 60-64,60,1958-12-09
1,M,Rustam Basirov,Рустам Басиров,102.45,310,-330,330,330,,,,,,,,,,,,330,110,S,Wraps,No,Open,29,1989-07-31
1,M,Mohamed Bouafia,,132.65,380,400,426,426,,,,,,,,,,,,426,140,S,Wraps,No,Open,42,1976-12-15
1,M,Mohamed Bouafia,,132.65,380,400,426,426,,,,,,,,,,,,426,140,S,Wraps,No,Masters 40-44,42,1976-12-15
1,F,Mariya Denisova,Мария Денисова,47.7,,,,,,52.5,-57.5,57.5,57.5,,,,,,,57.5,48,B,Raw,Yes,Masters 45-49,48,1971-06-09
1,F,Darya Fatykhova,Дарья Фатыхова,59.2,,,,,,57.5,60,-62.5,60,,,,,,,60,60,B,Raw,Yes,Open,25,1994-06-07
2,F,Olga Gurevich,Ольга Гуревич,59.7,,,,,,-57.5,57.5,-60,57.5,,,,,,,57.5,60,B,Raw,Yes,Open,34,1985-02-21
3,F,Mariya Polukhina,Мария Полухина,58,,,,,,45,50,-52.5,50,,,,,,,50,60,B,Raw,Yes,Open,28,1990-12-08
DQ,F,Yuliya Tarasova,Юлия Тарасова,59,,,,,,-62.5,-62.5,-62.5,,,,,,,,,60,B,Raw,Yes,Open,28,1990-10-03
DQ,F,Evgeniya Gureva,Евгения Гурьева,59.9,,,,,,-50,-50,-50,,,,,,,,,60,B,Raw,Yes,Open,24,1995-05-05
1,F,Olga Andriyanova,Ольга Андриянова,59.1,,,,,,47.5,-50,-50,47.5,,,,,,,47.5,60,B,Raw,Yes,Masters 45-49,47,1972-02-09
1,F,Tatyana Bodylevskaya,Татьяна Бодылевская,66.2,,,,,,50,55,-57.5,55,,,,,,,55,67.5,B,Raw,Yes,Open,39,1980-06-27
2,F,Elena Safonova,Елена Сафонова,63.4,,,,,,45,47.5,-52.5,47.5,,,,,,,47.5,67.5,B,Raw,Yes,Open,37,1981-09-08
1,F,Elena Dmitrieva,Елена Дмитриева,69.7,,,,,,55,60,-65,60,,,,,,,60,75,B,Raw,Yes,Masters 40-44,44,1974-11-03
1,F,Anastasiya Lisenkova,Анастасия Лисенкова,76,,,,,,60,65,-70,65,,,,,,,65,82.5,B,Raw,Yes,Teen 16-17,17,2002-05-15
1,M,Maksim Solomov,Максим Соломов,67.4,,,,,,-100,100,-107.5,100,,,,,,,100,67.5,B,Raw,Yes,Teen 13-15,15,2003-07-21
1,M,Dmitriy Mordvinov,Дмитрий Мордвинов,66.5,,,,,,117.5,122.5,125,125,,,,,,,125,67.5,B,Raw,Yes,Juniors 20-23,20,1998-12-10
2,M,Aleksey Korneychuk,Алексей Корнейчук,66.9,,,,,,115,-125,-125,115,,,,,,,115,67.5,B,Raw,Yes,Juniors 20-23,23,1996-05-13
1,M,Viktor Kibenko,Виктор Кибенко,63.5,,,,,,55,60,70,70,,,,,,,70,67.5,B,Raw,Yes,Open,32,1987-05-17
DQ,M,Viktor Zheludko,Виктор Желудко,62.3,,,,,,-107.5,-107.5,-107.5,,,,,,,,,67.5,B,Raw,Yes,Open,29,1990-05-05
1,M,Denis Ryabchikov,Денис Рябчиков,67.2,,,,,,112.5,117.5,120.5,120.5,-121.5,,,,,,120,67.5,B,Raw,Yes,Masters 40-44,42,1976-07-29
1,M,Aleksey Garbuz,Алексей Гарбуз,69.1,,,,,,-95,100,-105,100,,,,,,,100,75,B,Raw,Yes,Juniors 20-23,22,1996-09-30
1,M,Vladislav Bolshakov,Владислав Большаков,70.8,,,,,,175,180,-186,180,,,,,,,180,75,B,Raw,Yes,Open,29,1990-05-21
2,M,Vasiliy Ivanov,Василий Иванов,73.5,,,,,,-127.5,127.5,-132.5,127.5,,,,,,,127.5,75,B,Raw,Yes,Open,30,1988-12-22
3,M,Artyom Bornyakov,Артём Борняков,74.1,,,,,,125,-130,-130,125,,,,,,,125,75,B,Raw,Yes,Open,29,1989-10-18
4,M,Aleksandr Sevastov,Александр Севастов,72.9,,,,,,110,117.5,120,120,,,,,,,120,75,B,Raw,Yes,Open,30,1989-06-28
5,M,Aleksandr Khatanzeyskiy,Александр Хатанзейский,73.9,,,,,,95,105,117.5,117.5,,,,,,,117.5,75,B,Raw,Yes,Open,27,1991-09-16
1,M,Rais Yakhin,Раис Яхин,72.8,,,,,,125,127.5,-130,127.5,,,,,,,127.5,75,B,Raw,Yes,Masters 50-54,52,1967-04-22
2,M,Sergey Toming,Сергей Томинг,74,,,,,,-125,-125,125,125,,,,,,,125,75,B,Raw,Yes,Masters 50-54,50,1968-12-09
1,M,Boris Laishin,,68.1,,,,,,-105,105,-107.5,105,,,,,,,105,75,B,Raw,Yes,Masters 65-69,68,1950-08-06
1,M,Ilya Pichikov,Илья Пичиков,81.6,,,,,,140,150,155,155,,,,,,,155,82.5,B,Raw,Yes,Teen 16-17,17,2001-08-18
1,M,Yuriy Smagin,Юрий Смагин,81.5,,,,,,120,-125,-125,120,,,,,,,120,82.5,B,Raw,Yes,Juniors 20-23,20,1998-10-12
1,M,Aleksandr Vladimirov,Александр Владимиров,76.5,,,,,,170,180,-182.5,180,,,,,,,180,82.5,B,Raw,Yes,Open,37,1982-02-06
2,M,Aleksandr Khachatryan,Александр Хачатрян,81.3,,,,,,140,145,150,150,,,,,,,150,82.5,B,Raw,Yes,Open,32,1986-10-24
3,M,Aleksey Semenyuk,Алексей Семенюк,77.4,,,,,,-127.5,127.5,145,145,,,,,,,145,82.5,B,Raw,Yes,Open,34,1984-09-23
4,M,Viktor Maksimovich,Виктор Максимович,79.8,,,,,,130,145,-155,145,,,,,,,145,82.5,B,Raw,Yes,Open,33,1985-07-10
5,M,Tumennasan Batsukh,,82.3,,,,,,127.5,130,-132.5,130,,,,,,,130,82.5,B,Raw,Yes,Open,25,1994-04-01
6,M,Maksim Kostitsyn,Максим Костицын,82.4,,,,,,120,-125,125,125,,,,,,,125,82.5,B,Raw,Yes,Open,28,1991-06-07
DQ,M,Ruslan Stepanov,Руслан Степанов,81.85,,,,,,-135,-135,-135,,,,,,,,,82.5,B,Raw,Yes,Masters 40-44,41,1978-04-06
1,M,Sergey Batrakov,Сергей Батраков,82.1,,,,,,-85,-85,85,85,,,,,,,85,82.5,B,Raw,Yes,Masters 60-64,62,1956-07-06
1,M,Aleksandr Petrov,Александр Петров,89.2,,,,,,165,170,175,175,,,,,,,175,90,B,Raw,Yes,Open,35,1984-03-03
2,M,Aleksandr Lebedev,Александр Лебедев,85.4,,,,,,145,152.5,162.5,162.5,,,,,,,162.5,90,B,Raw,Yes,Open,40,1978-12-31
3,M,Andrey Ansimov,Андрей Ансимов,89.1,,,,,,155,160,162.5,162.5,,,,,,,162.5,90,B,Raw,Yes,Open,31,1987-12-22
4,M,Mirzaga Abasov,Мирзага Абасов,88.85,,,,,,137.5,147.5,152.5,152.5,,,,,,,152.5,90,B,Raw,Yes,Open,29,1990-05-23
5,M,Pavel Mishchenko,Павел Мищенко,86.25,,,,,,132.5,-137.5,-137.5,132.5,,,,,,,132.5,90,B,Raw,Yes,Open,24,1995-04-05
DQ,M,Aleksey Vikulov,Алексей Викулов,88.8,,,,,,-160,-160,-160,,,,,,,,,90,B,Raw,Yes,Open,37,1982-05-05
1,M,Igor Ermolaev,Игорь Ермолаев,86.5,,,,,,160,165,-170,165,,,,,,,165,90,B,Raw,Yes,Masters 45-49,45,1974-03-15
2,M,Shamil Petushkov,Шамиль Петушков,89.2,,,,,,142.5,-147.5,147.5,147.5,,,,,,,147.5,90,B,Raw,Yes,Masters 40-44,43,1975-10-16
1,M,Konstantin Panshin,Константин Паншин,88.1,,,,,,150,-155,-157.5,150,,,,,,,150,90,B,Raw,Yes,Masters 55-59,59,1960-01-22
1,M,Aleksey Maksimov,Алексей Максимов,98.1,,,,,,180,185,-192.5,185,,,,,,,185,100,B,Raw,Yes,Open,32,1986-09-11
2,M,Ilya Melnichenko,Илья Мельниченко,98.3,,,,,,155,-162.5,162.5,162.5,,,,,,,162.5,100,B,Raw,Yes,Open,28,1990-09-12
3,M,Oleg Gunchenkov,Олег Гунченков,96.7,,,,,,145,150,152.5,152.5,,,,,,,152.5,100,B,Raw,Yes,Open,27,1991-09-19
4,M,Mikhail Mosyakov,Михаил Мосяков,99.3,,,,,,-140,145,150,150,,,,,,,150,100,B,Raw,Yes,Open,31,1988-05-31
5,M,Dmitriy Ezhov,Дмитрий Ежов,93.1,,,,,,130,140,-152.5,140,,,,,,,140,100,B,Raw,Yes,Open,32,1986-07-08
DQ,M,Viktor Smyshlyaev,Виктор Смышляев,97.9,,,,,,-205,,,,,,,,,,,100,B,Raw,Yes,Open,57,1962-05-20
1,M,Aleksandr Syropyatov,Александр Сыропятов,92.5,,,,,,135,140,145,145,,,,,,,145,100,B,Raw,Yes,Masters 45-49,46,1973-04-29
1,M,Nikolay Beloded,Николай Белодед,107.7,,,,,,170,180,190,190,,,,,,,190,110,B,Raw,Yes,Open,28,1990-07-27
2,M,Austin Hickey,,104,,,,,,175,180,-185,180,,,,,,,180,110,B,Raw,Yes,Open,39,1980-05-13
3,M,Dmitriy Gorbachkov,Дмитрий Горбачков,104.9,,,,,,160,167.5,-170,167.5,,,,,,,167.5,110,B,Raw,Yes,Open,26,1993-06-24
4,M,Aleksey Zateev,Алексей Затеев,103.3,,,,,,125,130,135,135,,,,,,,135,110,B,Raw,Yes,Open,29,1990-04-03
DQ,M,Aleksandr Kuznetsov #30,Александр Кузнецов,107.3,,,,,,-142.5,,,,,,,,,,,110,B,Raw,Yes,Open,31,1988-06-03
1,M,Aleksey Saitov,Алексей Саитов,108.3,,,,,,170,175,180,180,,,,,,,180,110,B,Raw,Yes,Masters 45-49,45,1973-09-05
1,M,Vasiliy Franchuk,Василий Франчук,103.5,,,,,,130,140,147.5,147.5,,,,,,,147.5,110,B,Raw,Yes,Masters 60-64,63,1955-08-27
1,M,Andrey Osetrov,Андрей Осетров,116.7,,,,,,180,-200,212.5,212.5,,,,,,,212.5,125,B,Raw,Yes,Open,39,1979-12-19
2,M,Anton Bukhman,Антон Бухман,119,,,,,,180,197.5,210,210,211,,,,,,210,125,B,Raw,Yes,Open,30,1988-08-22
1,M,Sergey Matveev #1,Сергей Матвеев,130.3,,,,,,185,200,-205,200,,,,,,,200,140,B,Raw,Yes,Open,27,1991-10-28
1,F,Olga Lazurenko,Ольга Лазуренко,64.4,,,,,,115,120,125,125,,,,,,,125,67.5,B,Raw,No,Open,47,1971-09-05
1,F,Nadezhda Vlasova,Надежда Власова,68.7,,,,,,110,-115,117.5,117.5,,,,,,,117.5,75,B,Raw,No,Open,37,1982-01-24
1,F,Anna Khudayarov,,78.35,,,,,,135,145,-150,145,,,,,,,145,82.5,B,Raw,No,Open,31,1988-01-24
1,F,Virpi Knuutila,,87,,,,,,122.5,132.5,-141,132.5,,,,,,,132.5,90,B,Raw,No,Open,51,1967-10-11
1,F,Virpi Knuutila,,87,,,,,,122.5,132.5,-141,132.5,,,,,,,132.5,90,B,Raw,No,Masters 50-54,51,1967-10-11
1,M,Denis Ryabchikov,Денис Рябчиков,67.2,,,,,,112.5,117.5,120.5,120.5,-121.5,,,,,,120,67.5,B,Raw,No,Masters 40-44,42,1976-07-29
1,M,Denis Kuklin,Денис Куклин,75,,,,,,145,155,,155,,,,,,,155,75,B,Raw,No,Open,29,1989-09-06
2,M,Timofey Lazu,Тимофей Лазу,73.9,,,,,,-135,135,142.5,142.5,,,,,,,142.5,75,B,Raw,No,Open,37,1982-01-13
3,M,Dmitriy Struve,Дмитрий Струве,74,,,,,,140,-147.5,-155,140,,,,,,,140,75,B,Raw,No,Open,31,1987-10-18
1,M,Roman Vasilev,Роман Васильев,73.6,,,,,,130,140,,140,,,,,,,140,75,B,Raw,No,Masters 45-49,46,1973-02-10
1,M,Artem Ogolev,Артем Оголев,78.2,,,,,,140,-150,150,150,,,,,,,150,82.5,B,Raw,No,Juniors 20-23,23,1996-04-08
1,M,Aleksandr Ironov,Александр Иронов,81.7,,,,,,165,-175,-175,165,,,,,,,165,82.5,B,Raw,No,Open,32,1987-02-17
2,M,Artem Ilyazov,Артем Ильязов,81.9,,,,,,132.5,137.5,140,140,,,,,,,140,82.5,B,Raw,No,Open,28,1990-08-22
3,M,Mudit Sharma,,77.6,,,,,,110,-120,-120,110,,,,,,,110,82.5,B,Raw,No,Open,33,1985-08-10
1,M,Parvinder Singh,,80,,,,,,100,105,-110,105,,,,,,,105,82.5,B,Raw,No,Masters 40-44,42,1976-12-06
1,M,Igor Popov,Игорь Попов,79.4,,,,,,115,120,122.5,122.5,,,,,,,122.5,82.5,B,Raw,No,Masters 60-64,62,1957-04-11
1,M,Nikita Kulpin,Никита Кульпин,89.5,,,,,,162.5,-170,-170,162.5,,,,,,,162.5,90,B,Raw,No,Open,25,1993-10-11
1,M,Eduard Pushkarev,Эдуард Пушкарев,89.3,,,,,,167.5,175,180,180,,,,,,,180,90,B,Raw,No,Masters 50-54,50,1968-12-08
1,M,Mikhail Komisarov,Михаил Комисаров,93.9,,,,,,155,-160,160,160,,,,,,,160,100,B,Raw,No,Juniors 20-23,23,1995-08-23
1,M,Maksut Davletkaliyev,Максут Давлеткалиев,98.7,,,,,,237.5,245,250,250,,,,,,,250,100,B,Raw,No,Open,34,1984-12-21
2,M,Dmitriy Polunin,Дмитрий Полунин,99.3,,,,,,210,215,-220,215,,,,,,,215,100,B,Raw,No,Open,27,1991-10-12
3,M,Roman Tukhvatullin,Роман Тухватуллин,95.9,,,,,,190,200,-205,200,,,,,,,200,100,B,Raw,No,Open,24,1995-03-16
4,M,Ivan Solntsev,Иван Солнцев,98.4,,,,,,190,200,,200,,,,,,,200,100,B,Raw,No,Open,45,1974-03-25
5,M,Kirill Linnikov,Кирилл Линников,99,,,,,,180,190,197.5,197.5,,,,,,,197.5,100,B,Raw,No,Open,37,1981-11-02
6,M,Mikhail Krivobokov,Михаил Кривобоков,99.3,,,,,,177.5,185,192.5,192.5,,,,,,,192.5,100,B,Raw,No,Open,35,1983-07-18
7,M,Evgeniy Gontsov,Евгений Гонцов,99.5,,,,,,-180,180,-185,180,,,,,,,180,100,B,Raw,No,Open,30,1989-06-23
8,M,Vyacheslav Biryukov,Вячеслав Бирюков,93.7,,,,,,160,170,175,175,,,,,,,175,100,B,Raw,No,Open,36,1982-08-07
9,M,Beybala Magomedov,Бейбала Магомедов,98.7,,,,,,170,172.5,-175,172.5,,,,,,,172.5,100,B,Raw,No,Open,30,1988-11-22
10,M,Andrey Zuev,Андрей Зуев,97.3,,,,,,165,-175,-175,165,,,,,,,165,100,B,Raw,No,Open,29,1989-10-29
11,M,Jam Toohidi,,93.4,,,,,,125,140,150,150,,,,,,,150,100,B,Raw,No,Open,35,1984-04-14
DQ,M,Maksim Muravev,Максим Муравьев,97.2,,,,,,-150,-150,,,,,,,,,,100,B,Raw,No,Open,30,1988-12-06
1,M,Vitaliy Agafonov,Виталий Агафонов,99,,,,,,200,205,-210,205,,,,,,,205,100,B,Raw,No,Masters 40-44,42,1976-10-23
2,M,Ivan Solntsev,Иван Солнцев,98.4,,,,,,190,200,,200,,,,,,,200,100,B,Raw,No,Masters 45-49,45,1974-03-25
3,M,Anton Doroshenkov,Антон Дорошенков,99.55,,,,,,185,192.5,-200,192.5,,,,,,,192.5,100,B,Raw,No,Masters 40-44,40,1979-04-22
4,M,Boldaji Hatami,,99.4,,,,,,115,125,-130,125,,,,,,,125,100,B,Raw,No,Masters 45-49,45,1974-04-22
5,M,Hojjatallah Karami,,98.3,,,,,,80,90,-95,90,,,,,,,90,100,B,Raw,No,Masters 40-44,42,1977-06-25
1,M,Damir Kuzeev,Дамир Кузеев,98.1,,,,,,-162.5,162.5,-165,162.5,,,,,,,162.5,100,B,Raw,No,Masters 65-69,67,1952-05-14
1,M,Vasiliy Markitantov,Василий Маркитантов,107.1,,,,,,215,222.5,-227.5,222.5,,,,,,,222.5,110,B,Raw,No,Open,39,1980-02-21
2,M,Ivan Filimonov,Иван Филимонов,108.7,,,,,,200,205,212.5,212.5,,,,,,,212.5,110,B,Raw,No,Open,31,1987-11-24
3,M,Stanislav Menshchikov,Станислав Меньщиков,107.8,,,,,,192.5,200,-205,200,,,,,,,200,110,B,Raw,No,Open,30,1989-03-31
4,M,Khoshoui Rahimi,,100.1,,,,,,120,130,140,140,,,,,,,140,110,B,Raw,No,Open,28,1991-05-23
1,M,Karchegani Soleimani,,102.55,,,,,,-120,120,140,140,,,,,,,140,110,B,Raw,No,Masters 40-44,41,1977-12-06
1,M,Dmitriy Zhemarkin,Дмитрий Жемаркин,123,,,,,,200,,,200,,,,,,,200,125,B,Raw,No,Juniors 20-23,22,1997-01-29
1,M,Aleksey Mikhaylov,Алексей Михайлов,117.5,,,,,,220,232.5,-235,232.5,,,,,,,232.5,125,B,Raw,No,Open,32,1986-07-23
2,M,Valentin Cherepnin,Валентин Черепнин,118.8,,,,,,205,215,222.5,222.5,,,,,,,222.5,125,B,Raw,No,Open,42,1976-12-08
3,M,Yan Timofeev,Ян Тимофеев,116.3,,,,,,190,200,205,205,,,,,,,205,125,B,Raw,No,Open,27,1992-02-14
1,M,Valentin Cherepnin,Валентин Черепнин,118.8,,,,,,205,215,222.5,222.5,,,,,,,222.5,125,B,Raw,No,Masters 40-44,42,1976-12-08
2,M,Mario Rumrich,,110.65,,,,,,170,185,-195,185,,,,,,,185,125,B,Raw,No,Masters 40-44,40,1978-12-11
1,M,Aleksandr Efimenkov,Александр Ефименков,113.15,,,,,,175,190,-200,190,,,,,,,190,125,B,Raw,No,Masters 60-64,60,1958-09-09
1,M,Mohamed Bouafia,,132.65,,,,,,-200,200,210,210,,,,,,,210,140,B,Raw,No,Open,42,1976-12-15
1,M,Mohamed Bouafia,,132.65,,,,,,-200,200,210,210,,,,,,,210,140,B,Raw,No,Masters 40-44,42,1976-12-15
2,M,Oleg Krylov,Олег Крылов,133.6,,,,,,190,200,-205,200,,,,,,,200,140,B,Raw,No,Masters 45-49,45,1973-11-04
1,M,Andrey Peshkov,Андрей Пешков,128.4,,,,,,200,205,212.5,212.5,,,,,,,212.5,140,B,Raw,No,Masters 55-59,55,1963-11-05
1,M,Kazemi Hossain,,144.45,,,,,,135,150,157.5,157.5,,,,,,,157.5,140+,B,Raw,No,Open,50,1969-04-24
1,M,Kazemi Hossain,,144.45,,,,,,135,150,157.5,157.5,,,,,,,157.5,140+,B,Raw,No,Masters 50-54,50,1969-04-24
1,M,Dmitriy Patyupin,Дмитрий Патюпин,101.3,,,,,,245,260,-270,260,,,,,,,260,110,B,Single-ply,Yes,Open,27,1991-11-28
1,M,Ivan Solntsev,Иван Солнцев,98.4,,,,,,250,-260,-260,250,,,,,,,250,100,B,Single-ply,No,Open,45,1974-03-25
2,M,Sergey Belikov,Сергей Беликов,98.7,,,,,,250,-255,-257.5,250,,,,,,,250,100,B,Single-ply,No,Open,54,1964-09-30
1,M,Ivan Solntsev,Иван Солнцев,98.4,,,,,,250,-260,-260,250,,,,,,,250,100,B,Single-ply,No,Masters 45-49,45,1974-03-25
1,M,Aleksandr Ivanov,Александр Иванов,118.4,,,,,,230,247.5,,247.5,,,,,,,247.5,125,B,Single-ply,No,Open,46,1973-01-10
2,M,Samed Ghoreishi,,123,,,,,,-230,240,-255,240,,,,,,,240,125,B,Single-ply,No,Open,36,1982-08-22
1,M,Aleksandr Ivanov,Александр Иванов,118.4,,,,,,230,247.5,,247.5,,,,,,,247.5,125,B,Single-ply,No,Masters 45-49,46,1973-01-10
1,M,Kseniya Grishko,Ксения Гришко,49.75,,,,,,,,,,,95,102.5,,102.5,,102.5,52,D,Raw,Yes,Juniors 20-23,23,1995-12-23
1,F,Ekaterina Mikhaylova,Екатерина Михайлова,51.5,,,,,,,,,,,-100,102.5,-110,102.5,,102.5,52,D,Raw,Yes,Open,39,1979-08-18
1,F,Aleksandra Osipenko,Александра Осипенко,63.6,,,,,,,,,,,90,-100,-100,90,,90,67.5,D,Raw,Yes,Open,25,1993-10-01
2,F,Elena Odinaeva,Елена Одинаева,64.4,,,,,,,,,,,70,80,90,90,,90,67.5,D,Raw,Yes,Open,33,1986-03-09
1,F,Dinara Musaeva,Динара Мусаева,73,,,,,,,,,,,130,140,-145,140,,140,75,D,Raw,Yes,Open,38,1980-07-20
1,M,Daniil Butin,Даниил Бутин,55.7,,,,,,,,,,,100,107.5,-117.5,107.5,,107.5,56,D,Raw,Yes,Teen 16-17,16,2002-11-07
1,M,Visal Seidov,Висал Сеидов,64.6,,,,,,,,,,,155,-165,-165,155,,155,67.5,D,Raw,Yes,Teen 13-15,15,2003-09-09
1,M,Viktor Kibenko,Виктор Кибенко,63.5,,,,,,,,,,,140,145,150,150,,150,67.5,D,Raw,Yes,Open,32,1987-05-17
2,M,Dmitriy Tsvetkov,Дмитрий Цветков,66.3,,,,,,,,,,,120,127.5,132.5,132.5,,132.5,67.5,D,Raw,Yes,Open,34,1984-07-28
1,M,Denis Ryabchikov,Денис Рябчиков,67.2,,,,,,,,,,,175,195,-200,195,,195,67.5,D,Raw,Yes,Masters 40-44,42,1976-07-29
1,M,Artyom Kozikhin,Артём Козихин,71.2,,,,,,,,,,,182.5,190,207.5,207.5,,207.5,75,D,Raw,Yes,Teen 16-17,17,2001-08-19
1,M,Albert Sagidullin,Альберт Сагидуллин,69.7,,,,,,,,,,,170,182.5,190,190,,190,75,D,Raw,Yes,Juniors 20-23,21,1997-12-03
1,M,Igor Olar,Игорь Оларь,75,,,,,,,,,,,-182.5,182.5,192.5,192.5,,192.5,75,D,Raw,Yes,Open,26,1993-02-25
2,M,Aleksandr Vasilev,Александр Васильев,70.5,,,,,,,,,,,-182.5,182.5,-187.5,182.5,,182.5,75,D,Raw,Yes,Open,31,1988-01-08
3,M,Kirill Posadskov,Кирилл Посадсков,73.8,,,,,,,,,,,150,160,165,165,,165,75,D,Raw,Yes,Open,27,1991-07-20
1,M,Evgeniy Lukashevich,Евгений Лукашевич,79.9,,,,,,,,,,,270,282.5,-302.5,282.5,,282.5,82.5,D,Raw,Yes,Open,25,1994-01-03
2,M,Ruslan Tavtilov,Руслан Тавтилов,82.5,,,,,,,,,,,230,250,-260,250,,250,82.5,D,Raw,Yes,Open,39,1980-02-26
1,M,Dmitriy Chernyshev,Дмитрий Чернышев,88.7,,,,,,,,,,,297.5,307.5,312.5,312.5,,312.5,90,D,Raw,Yes,Open,45,1974-01-22
2,M,Aleksey Krylov,Алексей Крылов,88.7,,,,,,,,,,,267.5,282.5,-295,282.5,,282.5,90,D,Raw,Yes,Open,31,1988-02-21
1,M,Eduard Marchenko,Эдуард Марченко,90.5,,,,,,,,,,,280,300,-305,300,,300,100,D,Raw,Yes,Open,27,1992-03-17
2,M,Zaur Matiev,Заур Матиев,94.5,,,,,,,,,,,300,-305,-305,300,,300,100,D,Raw,Yes,Open,32,1986-11-26
3,M,Vladimir Naumov,Владимир Наумов,97.3,,,,,,,,,,,260,270,275,275,,275,100,D,Raw,Yes,Open,38,1980-10-30
1,M,Vasiliy Nedyalkov,Василий Недялков,109.9,,,,,,,,,,,200,215,220,220,,220,110,D,Raw,Yes,Open,28,1990-06-30
1,M,Viktor Efipov,Виктор Ефипов,103.4,,,,,,,,,,,170,-177.5,180,180,,180,110,D,Raw,Yes,Masters 60-64,63,1956-01-19
1,M,Anton Bukhman,Антон Бухман,119,,,,,,,,,,,270,290,300,300,-301,300,125,D,Raw,Yes,Open,30,1988-08-22
1,F,Anna Khudayarov,,78.35,,,,,,,,,,,200,220,230,230,,230,82.5,D,Raw,No,Open,31,1988-01-24
1,F,Virpi Knuutila,,87,,,,,,,,,,,200,,,200,,200,90,D,Raw,No,Open,51,1967-10-11
1,F,Virpi Knuutila,,87,,,,,,,,,,,200,,,200,,200,90,D,Raw,No,Masters 50-54,51,1967-10-11
1,M,Mirko Calisai,,59.15,,,,,,,,,,,202.5,215,-222.5,215,,215,60,D,Raw,No,Open,39,1980-03-17
2,M,Andrey Belyakov,Андрей Беляков,59.4,,,,,,,,,,,200,-215,-215,200,,200,60,D,Raw,No,Open,26,1993-05-10
1,M,Denis Ryabchikov,Денис Рябчиков,67.2,,,,,,,,,,,175,195,-200,195,,195,67.5,D,Raw,No,Masters 40-44,42,1976-07-29
1,M,Ernest Ruzin,,61.6,,,,,,,,,,,145,155,-160,155,,155,67.5,D,Raw,No,Masters 80+,82,1937-06-20
1,M,Leonid Sedlyar,Леонид Седляр,71.5,,,,,,,,,,,230,245,255,255,,255,75,D,Raw,No,Masters 45-49,46,1973-01-31
1,M,Evgeniy Khlyzov,Евгений Хлызов,81.4,,,,,,,,,,,280,-290,-290,280,,280,82.5,D,Raw,No,Open,29,1989-07-01
2,M,Porto Lo,,79.65,,,,,,,,,,,260,270,-280,270,,270,82.5,D,Raw,No,Open,38,1980-11-20
3,M,Mudit Sharma,,77.6,,,,,,,,,,,160,180,-200,180,,180,82.5,D,Raw,No,Open,33,1985-08-10
1,M,Parvinder Singh,,80,,,,,,,,,,,170,180,210,210,,210,82.5,D,Raw,No,Masters 40-44,42,1976-12-06
1,M,Pavel Kobelev,Павел Кобелев,87.5,,,,,,,,,,,-320,-320,320,320,,320,90,D,Raw,No,Open,29,1989-08-04
2,M,Ivan Dmitriev,Иван Дмитриев,88.2,,,,,,,,,,,270,290,307.5,307.5,,307.5,90,D,Raw,No,Open,49,1970-06-11
3,M,Dmitriy Dubkov,Дмитрий Дубков,87.2,,,,,,,,,,,270,280,-287.5,280,,280,90,D,Raw,No,Open,39,1980-01-29
1,M,Ivan Dmitriev,Иван Дмитриев,88.2,,,,,,,,,,,270,290,307.5,307.5,,307.5,90,D,Raw,No,Masters 45-49,49,1970-06-11
1,M,Andrey Ulashchik,Андрей Улащик,96.75,,,,,,,,,,,335,350,-360,350,,350,100,D,Raw,No,Open,35,1983-07-20
2,M,Timur Klimenko,Тимур Клименко,98.5,,,,,,,,,,,272.5,-280,-280,272.5,,272.5,100,D,Raw,No,Open,31,1988-01-15
3,M,Aleksandr Emelyanov,Александр Емельянов,96.7,,,,,,,,,,,240,255,-272.5,255,,255,100,D,Raw,No,Open,26,1993-05-03
4,M,Vladimir Belyaev,Владимир Беляев,95.8,,,,,,,,,,,230,240,-245,240,,240,100,D,Raw,No,Open,37,1981-10-31
5,M,Jam Toohidi,,93.4,,,,,,,,,,,170,180,190,190,,190,100,D,Raw,No,Open,35,1984-04-14
1,M,Aleksandr Malikov,Александр Маликов,99.6,,,,,,,,,,,-270,275,285,285,,285,100,D,Raw,No,Masters 45-49,46,1972-12-21
2,M,Hojjatallah Karami,,98.3,,,,,,,,,,,120,150,180,180,,180,100,D,Raw,No,Masters 40-44,42,1977-06-25
3,M,Boldaji Hatami,,99.4,,,,,,,,,,,110,130,-175,130,,130,100,D,Raw,No,Masters 45-49,45,1974-04-22
1,M,Alexandr Kodis,Александр Кодис,106.4,,,,,,,,,,,367.5,-372.5,-372.5,367.5,,367.5,110,D,Raw,No,Open,31,1987-08-16
2,M,Rustam Basirov,Рустам Басиров,102.45,,,,,,,,,,,310,322.5,330,330,,330,110,D,Raw,No,Open,29,1989-07-31
3,M,Sergey Gusev,Сергей Гусев,109.3,,,,,,,,,,,270,290,-302.5,290,,290,110,D,Raw,No,Open,32,1987-03-18
4,M,Khoshoui Rahimi,,100.1,,,,,,,,,,,150,170,185,185,,185,110,D,Raw,No,Open,28,1991-05-23
1,M,Reza Zamani,,108.2,,,,,,,,,,,240,-260,260,260,,260,110,D,Raw,No,Masters 40-44,42,1977-04-21
1,M,Aleksey Moskvichyov,Алексей Москвичёв,114.1,,,,,,,,,,,380,-395,-395,380,,380,125,D,Raw,No,Open,37,1982-03-02
1,M,Mohamed Bouafia,,132.65,,,,,,,,,,,320,-340,340,340,,340,140,D,Raw,No,Open,42,1976-12-15
1,M,Mohamed Bouafia,,132.65,,,,,,,,,,,320,-340,340,340,,340,140,D,Raw,No,Masters 40-44,42,1976-12-15
1,M,Mirko Calisai,,59.1,,,,,,,,,,,200,220,-225,220,,220,60,D,Raw,No,Open,39,1980-03-17
1,M,Heidari Hamid,,74.9,,,,,,,,,,,270,290,-300,290,,290,75,D,Raw,No,Open,29,1990-03-26
1,M,Sergey Koryakin,Сергей Корякин,82.15,,,,,,,,,,,275,-285,-285,275,,275,82.5,D,Raw,No,Masters 40-44,42,1976-07-01
