Name,Sex,Division,Equipment,BodyweightKg,WeightClassKg,Age,Squat1Kg,Squat2Kg,Squat3Kg,Best3SquatKg,Bench1Kg,Bench2Kg,Bench3Kg,Best3BenchKg,Deadlift1Kg,Deadlift2Kg,Deadlift3Kg,Best3DeadliftKg,TotalKg,Event,Place
John Rivers,M,Masters 3,Single-ply,90.26,93,61,-150,-160,160,160,120,125,,125,175,-190,190,190,475,SBD,1
Jared Beckett,M,Open,Single-ply,94.7,105,30,280,300,-310,300,187.5,195,202.5,202.5,250,265,-275,265,767.5,SBD,1
Russell Malcolm,M,Masters 2,Raw,97.44,105,54,117.5,125,-135,125,-80,80,-90,80,145,155,-165,155,360,SBD,1
Mark Fields,M,Masters 2,Raw,118.26,120,53,-205,-210,210,210,130,-135,-135,130,180,190,200,200,540,SBD,1
Ian Dennis,M,Masters 1,Raw,113.12,120,42,-225,-235,-240,,150,155,,155,220,-235,,220,,SBD,DQ
Ryan MacDonald,M,Masters 1,Raw,169,120+,41,180,190,202.5,202.5,90,100,107.5,107.5,180,200,210,210,520,SBD,1
Trevor Walker,M,Masters 1,Raw,129.98,120+,47,-225,-235,-250,,140,-145,-150,140,,,,,,SBD,DQ
Aaron Yang,M,Open,Raw,78.9,83,25,160,170,180,180,107.5,115,120,120,175,192.5,205,205,505,SBD,1
Jose Dognini,M,Open,Raw,80.74,83,29,155,160,170,170,105,115,120,120,165,170,175,175,465,SBD,2
Petar Vrecic,M,Open,Raw,80.92,83,25,137.5,145,152.5,152.5,95,105,107.5,107.5,162.5,170,177.5,177.5,437.5,SBD,3
Jesse Laughton,M,Open,Raw,91.16,93,24,150,-165,172.5,172.5,90,105,-112.5,105,180,200,-207.5,200,477.5,SBD,1
Tim Gray,M,Open,Raw,88.52,93,27,-150,155,165,165,75,85,-90,85,175,190,-205,190,440,SBD,2
Kirk Mayo,M,Open,Raw,88,93,39,-120,-140,-140,,-120,-120,-120,,140,150,170,170,,SBD,DQ
Simon Crossan,M,Open,Raw,83.04,93,31,-170,-170,-170,,110,120,-122.5,120,180,200,220,220,,SBD,DQ
James Merito,M,Open,Raw,103.06,105,24,170,190,205,205,125,132.5,-137.5,132.5,180,210,220,220,557.5,SBD,1
Richard Munro,M,Open,Raw,98.48,105,30,190,200,-210,200,120,130,-135,130,190,205,220,220,550,SBD,2
Thomas Hemmings,M,Open,Raw,103.74,105,26,190,-205,-220,190,105,112.5,-120,112.5,205,220,235,235,537.5,SBD,3
Jeremy Hill,M,Open,Raw,102.3,105,26,140,,,140,135,145,-150,145,240,-260,,240,525,SBD,4
Valery Drozdov,M,Open,Raw,104.02,105,24,-150,160,165,165,92.5,-102.5,-102.5,92.5,150,170,185,185,442.5,SBD,5
Josh Campbell,M,Open,Raw,109.96,120,30,190,210,225,225,135,147.5,-152.5,147.5,230,250,257.5,257.5,630,SBD,1
Kurt Docherty,M,Open,Raw,105.7,120,24,170,185,-190,185,132.5,140,142.5,142.5,245,265,270,270,597.5,SBD,2
Jason Anderson,M,Open,Raw,117.2,120,36,180,190,-200,190,120,125,-130,125,210,230,-240,230,545,SBD,3
Constantinos Alexopoulos,M,Open,Raw,135.12,120+,41,230,245,-252.5,245,-160,160,-165,160,260,-275,275,275,680,SBD,1
Turanga Rongo,M,Open,Raw,133.54,120+,28,230,245,255,255,150,165,-172.5,165,230,250,-265,250,670,SBD,2
Wil Collins,M,Open,Raw,125.2,120+,39,-140,-140,180,180,140,180,-210,180,140,220,-260,220,580,SBD,3
Harris Butt,M,Juniors,Raw,82.54,83,20,180,190,200,200,110,115,-125,115,200,220,-240,220,535,SBD,1
Sarkes Warda,M,Juniors,Raw,80.88,83,22,170,-180,180,180,115,-125,-125,115,190,-200,-200,190,485,SBD,2
Taylor Hamling,M,Juniors,Raw,81.58,83,22,150,165,170,170,105,110,-115,110,170,182.5,190,190,470,SBD,3
Rodney Snell,M,Juniors,Raw,81.9,83,21,140,145,-150,145,105,110,115,115,170,180,190,190,450,SBD,4
Rene Buxton,M,Juniors,Raw,80.6,83,22,125,-137.5,137.5,137.5,75,85,90,90,140,155,162.5,162.5,390,SBD,5
Rory Leonard,M,Juniors,Raw,81.54,83,22,132.5,137.5,140,140,90,95,-100,95,145,150,155,155,390,SBD,6
Dhamesh Patel,M,Juniors,Raw,82.56,83,23,-180,-180,-180,,122.5,127.5,-132.5,127.5,-195,205,220,220,,SBD,DQ
Ben Hanara,M,Juniors,Raw,90.14,93,20,220,230,-240,230,150,155,160,160,235,250,260,260,650,SBD,1
James Owen,M,Juniors,Raw,89.78,93,23,210,-220,220,220,120,125,130,130,225,240,250,250,600,SBD,2
Michael Brew,M,Juniors,Raw,90.62,93,21,127.5,140,-147.5,140,82.5,-87.5,-90,82.5,170,-185,-192.5,170,392.5,SBD,3
Wade Phillips,M,Juniors,Raw,100.44,105,20,210,220,230,230,130,135,140,140,210,230,240,240,610,SBD,1
Junior Vaikai,M,Juniors,Raw,104.84,105,23,195,-205,205,205,125,132.5,-137.5,132.5,235,252.5,-272.5,252.5,590,SBD,2
Jacob MacKinnon,M,Sub-Juniors,Raw,91.92,93,18,205,217.5,227.5,227.5,107.5,-115,115,115,205,222.5,230,230,572.5,SBD,1
Travis Wainwright,M,Sub-Juniors,Raw,87.9,93,18,160,167.5,175,175,110,120,125,125,205,215,-220,215,515,SBD,2
Nacey Haimona,M,Sub-Juniors,Raw,113.82,120,17,160,175,185,185,120,130,-142.5,130,180,200,220,220,535,SBD,1
Meinrad Fitisemanu,M,Sub-Juniors,Raw,115.66,120,16,160,170,185,185,120,130,-140,130,180,200,-220,200,515,SBD,2
Luke Sowerby,M,Open,Raw,83,83,,,,,,125,127.5,130,130,,,,,130,B,1
Verena Tilson-Scoble,F,Open,Single-ply,71.76,72,38,110,-115,115,115,60,-62.5,62.5,62.5,110,117.5,125,125,302.5,SBD,1
Tasha Williams,F,Open,Single-ply,80.2,84,42,195,-215,-215,195,125,-135,-135,125,200,215,225,225,545,SBD,1
Melissa Seiuli,F,Masters 1,Single-ply,71.58,72,46,-95,100,-110,100,60,62.5,65,65,120,125,130,130,295,SBD,1
Mendrado Catoto,M,Open,Single-ply,73.18,74,24,160,170,-180,170,135,140,-145,140,180,190,-200,190,500,SBD,1
Serena Perry,F,Masters 2,Raw,71.84,72,49,92.5,-100,100,100,62.5,67.5,72.5,72.5,110,120,127.5,127.5,300,SBD,1
Robyn Mackie,F,Masters 1,Raw,68.22,72,46,50,57.5,-65,57.5,35,42.5,-45,42.5,70,80,-90,80,180,SBD,1
Leigh Matheson,F,Masters 1,Raw,76.08,84,41,110,115,117.5,117.5,70,72.5,-75,72.5,140,147.5,152.5,152.5,342.5,SBD,1
Elizabeth Pereira,F,Masters 1,Raw,75.64,84,43,65,75,80,80,45,55,-57.5,55,100,-115,-115,100,235,SBD,2
Joanne Henry,F,Masters 1,Raw,112.2,84+,45,-75,-80,80,80,-57.5,-57.5,-57.5,,120,125,-130,125,,SBD,DQ
Amanda Foulkes,F,Open,Raw,56.18,57,27,90,-95,95,95,47.5,52.5,-55,52.5,110,117.5,122.5,122.5,270,SBD,1
Kayla Fenrick,F,Open,Raw,68.2,72,27,117.5,122.5,127.5,127.5,70,75,-77.5,75,155,165,175,175,377.5,SBD,1
Jasmin Stevenson,F,Open,Raw,64.24,72,27,110,-115,115,115,70,72.5,-75,72.5,140,-150,150,150,337.5,SBD,2
Lea Attenborough,F,Open,Raw,68.7,72,39,115,125,-127.5,125,60,62.5,-65,62.5,130,140,150,150,337.5,SBD,3
Rosalie Watson,F,Open,Raw,67.34,72,25,115,-125,-125,115,75,80,-82.5,80,120,130,140,140,335,SBD,4
Jenna Beaumont,F,Open,Raw,69.76,72,30,80,87.5,-92.5,87.5,52.5,57.5,-60,57.5,105,115,120,120,265,SBD,5
Sarah Chapman,F,Open,Raw,69.4,72,25,60,70,-75,70,-35,42.5,-47.5,42.5,80,90,-100,90,202.5,SBD,6
Rachel Ingram,F,Open,Raw,82.2,84,24,147.5,157.5,-165,157.5,75,80,82.5,82.5,180,-190,-190,180,420,SBD,1
Nicola Saggers-Duncan,F,Open,Raw,74.66,84,38,80,-90,95,95,-57.5,62.5,65,65,110,125,-130,125,285,SBD,2
Joanne Smith,F,Open,Raw,79.1,84,36,-75,-77.5,80,80,45,50,-55,50,90,100,107.5,107.5,237.5,SBD,3
Riria Ropata,F,Open,Raw,112.4,84+,25,137.5,147.5,152.5,152.5,70,77.5,-80,77.5,150,170,182.5,182.5,412.5,SBD,1
Brydie Anderson,F,Open,Raw,109.12,84+,30,125,135,137.5,137.5,62.5,67.5,-72.5,67.5,165,175,-180,175,380,SBD,2
Laura Stillwell,F,Open,Raw,108.36,84+,30,120,130,140,140,52.5,-57.5,-57.5,52.5,135,-150,-155,135,327.5,SBD,3
Rebecca Blowes,F,Open,Raw,99.96,84+,36,90,-100,-105,90,37.5,40,45,45,105,115,125,125,260,SBD,4
Lu Lu,F,Juniors,Raw,62.98,63,22,110,122.5,-132.5,122.5,50,55,-60,55,120,-132.5,132.5,132.5,310,SBD,1
Nesi Laukau,F,Juniors,Raw,67.36,72,21,100,110,115,115,60,65,-70,65,120,130,135,135,315,SBD,1
Victoria Cave-Higgins,F,Sub-Juniors,Raw,55.58,57,18,80,-87.5,-87.5,80,45,50,-52.5,50,85,90,97.5,97.5,227.5,SBD,1
Kevin Bredican,M,Masters 2,Raw,98.18,105,52,130,140,150,150,100,-110,-110,100,140,150,-160,150,400,SBD,1
John Edwards,M,Open,Raw,69.02,74,33,130,140,-150,140,60,70,-77.5,70,160,170,180,180,390,SBD,1
Jeewan Kumar,M,Open,Raw,66.16,74,28,115,120,-125,120,105,-107.5,-107.5,105,150,160,-165,160,385,SBD,2
Nicholas Fyfe,M,Open,Raw,69.8,74,30,80,92.5,102.5,102.5,65,70,75,75,130,145,155,155,332.5,SBD,3
Dion Warren,M,Juniors,Raw,73.92,74,22,160,167.5,-175,167.5,100,-105,105,105,210,227.5,-240,227.5,500,SBD,1
Jason Tan,M,Juniors,Raw,73.56,74,23,145,-160,162.5,162.5,95,102.5,-107.5,102.5,155,180,190,190,455,SBD,2
Ravneel Lal,M,Juniors,Raw,73.96,74,20,140,142.5,147.5,147.5,105,110,112.5,112.5,165,170,172.5,172.5,432.5,SBD,3
Hugh Day,M,Juniors,Raw,73.74,74,22,100,110,-120,110,60,65,-70,65,140,-150,-150,140,315,SBD,4
Vincent Capes,M,Sub-Juniors,Raw,73.98,74,17,167.5,175.5,180,180,100,105,-110,105,200,210,-217.5,210,495,SBD,1
Harrison Pollard,M,Sub-Juniors,Raw,72,74,16,170,-180,-180,170,85,95,-100,95,165,175,182.5,182.5,447.5,SBD,2
