Division,WeightClassKg,Place,Name,Team,BodyweightKg,Best3SquatKg,Best3BenchKg,Best3DeadliftKg,TotalKg,Equipment,Event,Sex
Boys,51.71,1,Arnold Pena,Benavides,51.71,149.69,86.18,174.63,410.5,Single-ply,SBD,M
Boys,51.71,2,Miguel Gonzalez,Alice,46.08,129.27,54.43,127.01,310.71,Single-ply,SBD,M
Boys,51.71,3,Austin Mendez,San Diego,51.44,113.4,63.5,120.2,297.1,Single-ply,SBD,M
Boys,51.71,4,Zackary Palomo,Laredo Martin,50.44,83.91,40.82,88.45,213.19,Single-ply,SBD,M
Boys,51.71,DQ,Christian Pena,Benavides,51.71,,,,,Single-ply,SBD,M
Boys,55.79,1,Adrian Campos,Freer,55.34,188.24,111.13,179.17,478.54,Single-ply,SBD,M
Boys,55.79,2,Niko Munoz,Falfurrias,55.79,183.7,108.86,174.63,467.2,Single-ply,SBD,M
Boys,55.79,3,Arnold Perez,Ben Bolt-Palito Blanco,55.52,174.63,108.86,176.9,460.4,Single-ply,SBD,M
Boys,55.79,4,Tristan Perez,Benavides,54.79,156.49,74.84,172.37,403.7,Single-ply,SBD,M
Boys,55.79,5,Austin Lopez,Hebbronville,55.34,158.76,88.45,149.69,396.89,Single-ply,SBD,M
Boys,55.79,6,J. Cantu,San Diego,55.25,138.35,70.31,158.76,367.41,Single-ply,SBD,M
Boys,55.79,DQ,Danny Ruiz,Zapata,55.79,,,,,Single-ply,SBD,M
Boys,59.87,1,Ryan Saenz,Hebbronville,59.42,181.44,97.52,183.7,462.66,Single-ply,SBD,M
Boys,59.87,2,Rolando Aguilar,Laredo United,59.06,179.17,79.38,183.7,442.25,Single-ply,SBD,M
Boys,59.87,3,Jose Hernandez #13,Corpus Christi West Oso,59.33,165.56,81.65,179.17,426.38,Single-ply,SBD,M
Boys,59.87,4,Elijah Ybarra,Mathis,59.6,124.74,83.91,149.69,358.34,Single-ply,SBD,M
Boys,59.87,5,Tony De La Rosa,Santa Gertrudis Academy,59.6,120.2,74.84,145.15,340.19,Single-ply,SBD,M
Boys,59.87,DQ,Jonathan Diaz,Laredo Martin,59.6,,,,,Single-ply,SBD,M
Boys,59.87,DQ,Christopher Trevino,San Diego,58.79,104.33,58.97,,,Single-ply,SBD,M
Boys,59.87,DQ,Damian Diaz,Hebbronville,56.06,,,,,Single-ply,SBD,M
Boys,67.13,1,Brandon Carballo,Hebbronville,65.95,226.8,117.93,217.72,562.45,Single-ply,SBD,M
Boys,67.13,2,Alex Ramirez,Falfurrias,63.96,172.37,106.59,199.58,478.54,Single-ply,SBD,M
Boys,67.13,3,Cesar Uribe,Zapata,65.14,172.37,106.59,195.04,474,Single-ply,SBD,M
Boys,67.13,4,Jonathon Penaa,Banquete,65.86,151.95,122.47,181.44,455.86,Single-ply,SBD,M
Boys,67.13,5,Joe Chick,Zapata,67.13,161.03,86.18,188.24,435.45,Single-ply,SBD,M
Boys,67.13,6,Jonathon Gonzales,Hebbronville,65.59,151.95,81.65,145.15,378.75,Single-ply,SBD,M
Boys,67.13,7,Chico Sanchez,Falfurrias,64.32,142.88,79.38,142.88,365.14,Single-ply,SBD,M
Boys,67.13,8,Austin Serna,Alice,65.14,133.81,68.04,136.08,337.93,Single-ply,SBD,M
Boys,67.13,DQ,Byron Perez,Ben Bolt-Palito Blanco,66.59,,,,,Single-ply,SBD,M
Boys,67.13,DQ,Aaron Champion,Mathis,62.78,140.61,90.72,,,Single-ply,SBD,M
Boys,67.13,DQ,Ramiro DeLeon,Mathis,66.5,165.56,,,,Single-ply,SBD,M
Boys,67.13,DQ,Jose Saenz,San Diego,62.41,140.61,,,,Single-ply,SBD,M
Boys,74.84,1,Ramiro Gonzalez,Falfurrias,74.3,256.28,138.35,254.01,648.64,Single-ply,SBD,M
Boys,74.84,2,Seth Meza-Briones,Santa Gertrudis Academy,70.67,174.63,136.08,190.51,501.22,Single-ply,SBD,M
Boys,74.84,3,Jonavenn Gonzales,Hebbronville,73.12,213.19,104.33,176.9,494.42,Single-ply,SBD,M
Boys,74.84,4,Nico Perez,Benavides,70.22,195.04,106.59,183.7,485.34,Single-ply,SBD,M
Boys,74.84,5,Roel Gomez,Zapata,74.57,176.9,117.93,190.51,485.34,Single-ply,SBD,M
Boys,74.84,6,Dale Baez,Hebbronville,74.48,190.51,104.33,185.97,480.81,Single-ply,SBD,M
Boys,74.84,7,Carlos Gonzales,Mathis,73.03,158.76,104.33,158.76,421.84,Single-ply,SBD,M
Boys,74.84,8,Robert Lerma,Banquete,73.66,156.49,90.72,174.63,421.84,Single-ply,SBD,M
Boys,82.1,1,Joshua Olivarez,Falfurrias,82.1,265.35,138.35,242.67,646.37,Single-ply,SBD,M
Boys,82.1,2,John Martinez,Falfurrias,79.65,240.4,138.35,192.78,571.53,Single-ply,SBD,M
Boys,82.1,3,Oscar Perez,Ben Bolt-Palito Blanco,77.75,219.99,136.08,210.92,566.99,Single-ply,SBD,M
Boys,82.1,4,Demetri Sanchez,Corpus Christi London,81.47,179.17,97.52,215.46,492.15,Single-ply,SBD,M
Boys,82.1,5,Matthew Garza,Corpus Christi West Oso,78.93,190.51,106.59,181.44,478.54,Single-ply,SBD,M
Boys,82.1,6,Josh Hernandez,Banquete,75.11,151.95,95.25,149.69,396.89,Single-ply,SBD,M
Boys,82.1,7,Christian Rosas,Falfurrias,76.66,136.08,79.38,142.88,358.34,Single-ply,SBD,M
Boys,82.1,DQ,Marcus Zavala,Laredo Martin,79.02,149.69,70.31,,,Single-ply,SBD,M
Boys,82.1,DQ,Pete Garcia,San Diego,82.1,176.9,115.67,,,Single-ply,SBD,M
Boys,82.1,DQ,David Saldana,Zapata,80.74,185.97,,,,Single-ply,SBD,M
Boys,89.81,1,Joseph Araujo,San Diego,85,233.6,136.08,229.06,598.74,Single-ply,SBD,M
Boys,89.81,2,Michael Baraajas,Mathis,88.81,204.12,108.86,181.44,494.42,Single-ply,SBD,M
Boys,89.81,3,Rene Garcia,Zapata,88.54,192.78,122.47,170.1,485.34,Single-ply,SBD,M
Boys,89.81,4,Grayson May,Santa Gertrudis Academy,83.28,154.22,104.33,161.03,419.57,Single-ply,SBD,M
Boys,89.81,5,Mateo Rios,Banquete,85.46,122.47,68.04,154.22,344.73,Single-ply,SBD,M
Boys,89.81,6,Daniel Naveraz,Falfurrias,84.46,102.06,72.57,145.15,319.78,Single-ply,SBD,M
Boys,89.81,DQ,Nicolas Gutierrez,Mathis,89.63,,,,,Single-ply,SBD,M
Boys,99.79,1,Elias Cantu,Hebbronville,99.43,240.4,181.44,229.06,650.91,Single-ply,SBD,M
Boys,99.79,2,Vicente Zavala,Santa Gertrudis Academy,96.52,181.44,95.25,149.69,426.38,Single-ply,SBD,M
Boys,99.79,3,Joshua Quintania,Banquete,91.26,156.49,79.38,161.03,396.89,Single-ply,SBD,M
Boys,99.79,4,Gus Rodriguez,Banquete,91.99,142.88,86.18,167.83,396.89,Single-ply,SBD,M
Boys,99.79,DQ,Ithel Carrillo,Hebbronville,89.99,263.08,151.95,,,Single-ply,SBD,M
Boys,109.77,1,Franco Arce,Zapata,102.06,306.17,145.15,235.87,687.19,Single-ply,SBD,M
Boys,109.77,2,Michael Salaiz,San Diego,107.23,260.82,165.56,254.01,680.39,Single-ply,SBD,M
Boys,109.77,3,Joey Garza,Falfurrias,107.86,260.82,136.08,249.48,646.37,Single-ply,SBD,M
Boys,109.77,4,Robert de la Cruz,Corpus Christi London,102.24,192.78,129.27,226.8,548.85,Single-ply,SBD,M
Boys,109.77,DQ,James Gomez,Banquete,103.33,,,,,Single-ply,SBD,M
Boys,109.77,DQ,Zavier Cabello,Banquete,101.6,122.47,,,,Single-ply,SBD,M
Boys,109.77,DQ,Javier Amador,Laredo Martin,107.5,,,,,Single-ply,SBD,M
Boys,124.74,1,Cameron Roulston,Corpus Christi London,119.11,238.14,106.59,238.14,582.87,Single-ply,SBD,M
Boys,124.74,2,Nick Medina,Mathis,120.29,238.14,136.08,158.76,532.97,Single-ply,SBD,M
Boys,124.74,3,Juan Valadez,Laredo Martin,121.74,210.92,99.79,179.17,489.88,Single-ply,SBD,M
Boys,124.74,4,Marcus Vara,Laredo Martin,116.48,179.17,88.45,174.63,442.25,Single-ply,SBD,M
Boys,124.74,5,Matthew Torres,Santa Gertrudis Academy,117.21,102.06,61.23,127.01,290.3,Single-ply,SBD,M
Boys,124.74,DQ,Carlos Silva,Laredo Martin,117.39,,,,,Single-ply,SBD,M
Boys,124.74+,1,Mike Moreno,Zapata,133.08,249.48,172.37,215.46,637.3,Single-ply,SBD,M
Boys,124.74+,2,Aaron Flores #2,Santa Gertrudis Academy,145.42,217.72,90.72,213.19,521.63,Single-ply,SBD,M
Boys,124.74+,3,Daniel Garza,Falfurrias,131.63,176.9,97.52,176.9,451.32,Single-ply,SBD,M
Boys,124.74+,DQ,Austin Trevino,Laredo Martin,136.17,,,,,Single-ply,SBD,M
