Division,WeightClassKg,Place,Name,Team,BodyweightKg,Best3SquatKg,Best3BenchKg,Best3DeadliftKg,TotalKg,Equipment,Event,Sex
Junior Varsity,51.71,1,Lucas Glew,Beeville Jones,51.53,136.08,65.77,113.4,315.25,Single-ply,SBD,M
Junior Varsity,51.71,DQ,Eric Durio,Beaumont Ozen,49.53,,,,,Single-ply,SBD,M
Junior Varsity,51.71,DQ,Robert Ramos,Corpus Christi Tuloso-Midway,47.63,90.72,,,,Single-ply,SBD,M
Junior Varsity,55.79,1,Ryan Johnson,Port Lavaca Calhoun,55.34,113.4,63.5,106.59,283.5,Single-ply,SBD,M
Junior Varsity,55.79,2,Ben Heard,Corpus Christi Calallen,53.52,99.79,61.23,115.67,276.69,Single-ply,SBD,M
Junior Varsity,55.79,3,Brian Ruiz,Corpus Christi Calallen,54.98,81.65,47.63,104.33,233.6,Single-ply,SBD,M
Junior Varsity,55.79,4,Bryon Davidson,Corpus Christi Calallen,52.53,77.11,43.09,108.86,229.06,Single-ply,SBD,M
Junior Varsity,55.79,DQ,Derek Sowa,Port Lavaca Calhoun,54.88,151.95,,,,Single-ply,SBD,M
Junior Varsity,55.79,DQ,Blake McCain,Corpus Christi Calallen,52.16,,,,,Single-ply,SBD,M
Junior Varsity,59.87,1,Matt Buentello,Corpus Christi Tuloso-Midway,58.79,108.86,61.23,147.42,317.51,Single-ply,SBD,M
Junior Varsity,67.13,1,Steven Leal,Corpus Christi Tuloso-Midway,66.86,181.44,92.99,174.63,449.06,Single-ply,SBD,M
Junior Varsity,67.13,2,Jared Reilly,Corpus Christi Calallen,65.23,154.22,83.91,170.1,408.23,Single-ply,SBD,M
Junior Varsity,67.13,3,Josh Munoz,Beeville Jones,66.68,147.42,102.06,154.22,403.7,Single-ply,SBD,M
Junior Varsity,67.13,4,Martin Armenta,Victoria Memorial,65.32,129.27,88.45,149.69,367.41,Single-ply,SBD,M
Junior Varsity,67.13,5,Dillon Torres,Beeville Jones,64.32,117.93,88.45,156.49,362.87,Single-ply,SBD,M
Junior Varsity,67.13,6,Jeremy Sauceda,Corpus Christi Tuloso-Midway,66.86,111.13,90.72,151.95,353.8,Single-ply,SBD,M
Junior Varsity,67.13,7,Drew Ortiz,Port Lavaca Calhoun,67.13,138.35,63.5,127.01,328.85,Single-ply,SBD,M
Junior Varsity,67.13,8,Austin Castillo,Corpus Christi Calallen,66.68,102.06,68.04,145.15,315.25,Single-ply,SBD,M
Junior Varsity,67.13,9,Rex Marin,Victoria Memorial,64.77,92.99,68.04,138.35,299.37,Single-ply,SBD,M
Junior Varsity,67.13,10,Kalvin Ross,Victoria Memorial,64.59,92.99,63.5,108.86,265.35,Single-ply,SBD,M
Junior Varsity,67.13,11,Joe Alvarado,Victoria Memorial,61.33,83.91,70.31,108.86,263.08,Single-ply,SBD,M
Junior Varsity,67.13,12,Daniel Delegarza,Victoria Memorial,61.69,79.38,65.77,102.06,247.21,Single-ply,SBD,M
Junior Varsity,74.84,1,Andy Mohl,Corpus Christi Tuloso-Midway,72.3,181.44,120.2,174.63,476.27,Single-ply,SBD,M
Junior Varsity,74.84,2,Adam Guerrero #1,George West,69.76,165.56,104.33,183.7,453.59,Single-ply,SBD,M
Junior Varsity,82.1,3,Eric Sibley,Corpus Christi Calallen,75.02,165.56,106.59,181.44,453.59,Single-ply,SBD,M
Junior Varsity,74.84,4,Robert Leal,Corpus Christi Tuloso-Midway,73.75,170.1,99.79,172.37,442.25,Single-ply,SBD,M
Junior Varsity,74.84,5,Nathan Hawthorne,Port Lavaca Calhoun,69.4,172.37,106.59,161.03,439.98,Single-ply,SBD,M
Junior Varsity,74.84,6,Phillip Alvarez,George West,70.76,140.61,97.52,176.9,415.04,Single-ply,SBD,M
Junior Varsity,74.84,7,Christian Stiles,Corpus Christi Calallen,68.86,136.08,92.99,176.9,405.97,Single-ply,SBD,M
Junior Varsity,74.84,8,Joey Jasso,Rockport-Fulton,68.76,163.29,79.38,158.76,401.43,Single-ply,SBD,M
Junior Varsity,74.84,9,Benji Gomez,Beeville Jones,67.68,158.76,83.91,142.88,385.55,Single-ply,SBD,M
Junior Varsity,74.84,10,Nic Wallace,Victoria Memorial,71.49,142.88,90.72,142.88,376.48,Single-ply,SBD,M
Junior Varsity,74.84,11,Austin Lofthouse,Corpus Christi Tuloso-Midway,70.85,129.27,74.84,165.56,369.68,Single-ply,SBD,M
Junior Varsity,74.84,12,Raymond Gonzales #3,Beeville Jones,71.49,145.15,61.23,163.29,369.68,Single-ply,SBD,M
Junior Varsity,74.84,13,Terry Ramey,Victoria Memorial,74.39,142.88,83.91,142.88,369.68,Single-ply,SBD,M
Junior Varsity,74.84,14,Dustin Snider,Port Lavaca Calhoun,72.57,147.42,77.11,142.88,367.41,Single-ply,SBD,M
Junior Varsity,74.84,15,Victor Ta,Port Lavaca Calhoun,74.39,136.08,68.04,136.08,340.19,Single-ply,SBD,M
Junior Varsity,74.84,16,Keilan Jones,Beaumont Ozen,69.49,81.65,68.04,113.4,263.08,Single-ply,SBD,M
Junior Varsity,74.84,17,Taylor Schwartz,Corpus Christi Calallen,73.21,79.38,56.7,99.79,235.87,Single-ply,SBD,M
Junior Varsity,74.84,DQ,Jarvis Grant,Beaumont Ozen,72.39,65.77,,,,Single-ply,SBD,M
Junior Varsity,74.84,DQ,Robert Ruledge,George West,68.13,124.74,,,,Single-ply,SBD,M
Junior Varsity,82.1,1,Enrique Olachia,Port Lavaca Calhoun,82.1,213.19,117.93,204.12,535.24,Single-ply,SBD,M
Junior Varsity,82.1,2,Andrew Benevides,Corpus Christi Tuloso-Midway,76.75,185.97,122.47,190.51,498.95,Single-ply,SBD,M
Junior Varsity,82.1,3,Kameron Handy,Corpus Christi Tuloso-Midway,80.2,181.44,113.4,185.97,480.81,Single-ply,SBD,M
Junior Varsity,82.1,4,Andrew Reyes,Rockport-Fulton,80.1,154.22,95.25,158.76,408.23,Single-ply,SBD,M
Junior Varsity,82.1,5,Matt Hartman #3,Victoria Memorial,81.65,111.13,79.38,151.95,342.46,Single-ply,SBD,M
Junior Varsity,89.81,1,Jose Sauceda,Port Lavaca Calhoun,86.64,217.72,142.88,197.31,557.92,Single-ply,SBD,M
Junior Varsity,89.81,2,Chris Castillo,Corpus Christi Tuloso-Midway,89.63,174.63,102.06,190.51,467.2,Single-ply,SBD,M
Junior Varsity,89.81,3,Alex Tanguma,Corpus Christi Calallen,83.55,158.76,120.2,174.63,453.59,Single-ply,SBD,M
Junior Varsity,89.81,4,Aric Gamez,Beeville Jones,83.82,174.63,97.52,158.76,430.91,Single-ply,SBD,M
Junior Varsity,89.81,5,Weston Carroll,Beeville Jones,85.46,133.81,86.18,129.27,349.27,Single-ply,SBD,M
Junior Varsity,89.81,DQ,Daniel Zubieta,Victoria Memorial,86.64,,,,,Single-ply,SBD,M
Junior Varsity,89.81,DQ,Jonathan Chavana,Port Lavaca Calhoun,86.18,151.95,81.65,,,Single-ply,SBD,M
Junior Varsity,99.79,DQ,Javier Reynaga,Corpus Christi Calallen,89.99,,,,,Single-ply,SBD,M
Junior Varsity,99.79,1,Joseph Moore,George West,92.71,156.49,113.4,158.76,428.64,Single-ply,SBD,M
Junior Varsity,99.79,2,Michael Wiser,Corpus Christi Calallen,96.52,149.69,99.79,179.17,428.64,Single-ply,SBD,M
Junior Varsity,99.79,3,Bryan Clesser,George West,92.99,136.08,92.99,142.88,371.95,Single-ply,SBD,M
Junior Varsity,109.77,4,Donald Chapman,Rockport-Fulton,99.88,113.4,86.18,127.01,326.59,Single-ply,SBD,M
Junior Varsity,99.79,5,Rudy Lassaint,Beaumont Ozen,95.89,61.23,61.23,102.06,224.53,Single-ply,SBD,M
Junior Varsity,99.79,DQ,Anderson Daniels,George West,99.79,,,,,Single-ply,SBD,M
Junior Varsity,99.79,DQ,Truman Jenkins,Rockport-Fulton,95.07,136.08,,,,Single-ply,SBD,M
Junior Varsity,109.77,1,Robert Botello,Corpus Christi Calallen,105.32,163.29,92.99,181.44,437.72,Single-ply,SBD,M
Junior Varsity,109.77,2,Matt Watson #4,Corpus Christi Tuloso-Midway,107.59,136.08,102.06,145.15,383.29,Single-ply,SBD,M
Junior Varsity,109.77,DQ,Danny Ovalle,Port Lavaca Calhoun,105.23,192.78,,,,Single-ply,SBD,M
Junior Varsity,124.74,1,Manuel Vilallobos,Corpus Christi Calallen,120.84,204.12,138.35,183.7,526.17,Single-ply,SBD,M
Junior Varsity,124.74,DQ,Eric Soliz,Rockport-Fulton,114.03,127.01,,,,Single-ply,SBD,M
Junior Varsity,124.74+,1,Adam Aleman,Beeville Jones,145.15,226.8,117.93,179.17,523.9,Single-ply,SBD,M
Junior Varsity,124.74+,2,Victor Quiroga,Beeville Jones,153.04,229.06,97.52,142.88,469.47,Single-ply,SBD,M
Junior Varsity,124.74+,3,Ryan Gutierrez,Rockport-Fulton,132.18,165.56,106.59,158.76,430.91,Single-ply,SBD,M
Junior Varsity,124.74+,4,Sergio Garcia,Corpus Christi Calallen,130.82,181.44,81.65,136.08,399.16,Single-ply,SBD,M
Varsity,51.71,1,Frankie Garza,Port Lavaca Calhoun,51.71,192.78,90.72,172.37,455.86,Single-ply,SBD,M
Varsity,51.71,2,Thomas Soto,Corpus Christi Calallen,48.99,113.4,61.23,145.15,319.78,Single-ply,SBD,M
Varsity,51.71,3,Brandon Nguyen,Palacios,50.35,65.77,47.63,92.99,206.38,Single-ply,SBD,M
Varsity,55.79,1,Robert Seward,Corpus Christi Calallen,54.43,108.86,68.04,129.27,306.17,Single-ply,SBD,M
Varsity,55.79,2,Vuong Nguyen,Palacios,54.79,90.72,56.7,115.67,263.08,Single-ply,SBD,M
Varsity,59.87,1,Given McClure,Corpus Christi Calallen,58.88,154.22,99.79,174.63,428.64,Single-ply,SBD,M
Varsity,59.87,2,David Fercado,Palacios,58.51,120.2,81.65,142.88,344.73,Single-ply,SBD,M
Varsity,67.13,1,Josh Leal,Port Lavaca Calhoun,67.13,188.24,117.93,235.87,542.04,Single-ply,SBD,M
Varsity,67.13,2,Phong Tran,Rockport-Fulton,66.86,183.7,106.59,192.78,483.08,Single-ply,SBD,M
Varsity,67.13,3,Ryan Gomez,Corpus Christi Calallen,63.05,176.9,115.67,188.24,480.81,Single-ply,SBD,M
Varsity,67.13,4,Dalton Torres,Beeville Jones,64.14,190.51,102.06,188.24,480.81,Single-ply,SBD,M
Varsity,67.13,5,Bryan Pham,Palacios,64.77,158.76,90.72,188.24,437.72,Single-ply,SBD,M
Varsity,67.13,6,Chris Huffman,Palacios,66.04,127.01,79.38,165.56,371.95,Single-ply,SBD,M
Varsity,67.13,7,Dwayne Colone,Beaumont Ozen,63.87,102.06,79.38,156.49,337.93,Single-ply,SBD,M
Varsity,67.13,DQ,Joshua Collins,Beaumont Ozen,64.14,124.74,,,,Single-ply,SBD,M
Varsity,67.13,DQ,Jacob Romero,Rockport-Fulton,64.41,165.56,92.99,,,Single-ply,SBD,M
Varsity,74.84,1,Zach Garza,Corpus Christi Calallen,74.39,249.48,136.08,249.48,635.03,Single-ply,SBD,M
Varsity,74.84,2,Michael Mullins,Port Lavaca Calhoun,69.85,210.92,136.08,204.12,551.11,Single-ply,SBD,M
Varsity,74.84,3,Joey Calzada,Port Lavaca Calhoun,70.76,210.92,111.13,226.8,548.85,Single-ply,SBD,M
Varsity,74.84,4,Brandon Castillo,Corpus Christi Calallen,72.67,195.04,115.67,222.26,532.97,Single-ply,SBD,M
Varsity,74.84,5,Jermiah Puentes,Beeville Jones,71.21,183.7,106.59,190.51,480.81,Single-ply,SBD,M
Varsity,74.84,6,Nick Fisher #2,Rockport-Fulton,71.3,158.76,97.52,176.9,433.18,Single-ply,SBD,M
Varsity,74.84,7,Christian Andrews,Beaumont Ozen,72.48,136.08,113.4,181.44,430.91,Single-ply,SBD,M
Varsity,74.84,8,Greg Sexton,Palacios,74.75,151.95,97.52,181.44,430.91,Single-ply,SBD,M
Varsity,74.84,9,Juan Lopez,Palacios,73.94,133.81,92.99,183.7,410.5,Single-ply,SBD,M
Varsity,74.84,10,Matthew Nguyen,Palacios,68.13,147.42,81.65,172.37,401.43,Single-ply,SBD,M
Varsity,82.1,1,Genaro Trevino,Beeville Jones,82.1,226.8,149.69,208.65,585.13,Single-ply,SBD,M
Varsity,82.1,2,Chris Garcia #12,Palacios,80.47,136.08,129.27,170.1,435.45,Single-ply,SBD,M
Varsity,89.81,1,Brandon Griffith,Port Lavaca Calhoun,87.09,226.8,149.69,249.48,625.96,Single-ply,SBD,M
Varsity,89.81,2,Gabriel Longoria,Corpus Christi Calallen,83.46,249.48,145.15,229.06,623.69,Single-ply,SBD,M
Varsity,89.81,3,David Leal,Corpus Christi Calallen,83.28,204.12,140.61,226.8,571.53,Single-ply,SBD,M
Varsity,89.81,4,Lazaro Smith,Beeville Jones,88.54,215.46,124.74,224.53,564.72,Single-ply,SBD,M
Varsity,89.81,5,Marcus Ferree,Palacios,88.9,192.78,142.88,222.26,557.92,Single-ply,SBD,M
Varsity,89.81,6,Colton Williams,Port Lavaca Calhoun,88,231.33,122.47,197.31,551.11,Single-ply,SBD,M
Varsity,89.81,7,Josh Davis,Rockport-Fulton,86.18,163.29,104.33,195.04,462.66,Single-ply,SBD,M
Varsity,89.81,8,Anthony Breed,Beaumont Ozen,84.46,158.76,113.4,181.44,453.59,Single-ply,SBD,M
Varsity,89.81,9,Tervares Murray,Beaumont Ozen,83.73,142.88,102.06,145.15,390.09,Single-ply,SBD,M
Varsity,99.79,1,Tim Hicks,Port Lavaca Calhoun,99.34,226.8,149.69,215.46,591.94,Single-ply,SBD,M
Varsity,99.79,2,Ben Bomer,Port Lavaca Calhoun,95.25,226.8,133.81,206.38,566.99,Single-ply,SBD,M
Varsity,99.79,3,Andres Castellanos,Corpus Christi Tuloso-Midway,96.52,231.33,120.2,210.92,562.45,Single-ply,SBD,M
Varsity,99.79,4,Eric Carroll,Rockport-Fulton,96.98,183.7,120.2,183.7,487.61,Single-ply,SBD,M
Varsity,99.79,DQ,Angus Castellanos,Corpus Christi Tuloso-Midway,99.79,,,,,Single-ply,SBD,M
Varsity,99.79,DQ,Steven Cantu,Rockport-Fulton,91.35,,,,,Single-ply,SBD,M
Varsity,99.79,DQ,Cody Morris #3,Corpus Christi Calallen,98.97,204.12,,,,Single-ply,SBD,M
Varsity,109.77,1,Lupe Briseno,Port Lavaca Calhoun,107.95,272.16,145.15,235.87,653.17,Single-ply,SBD,M
Varsity,109.77,2,Kohlton Tegeler,Victoria Memorial,108.5,226.8,165.56,208.65,601.01,Single-ply,SBD,M
Varsity,109.77,3,Adam Aucoin,Palacios,103.87,226.8,131.54,208.65,566.99,Single-ply,SBD,M
Varsity,109.77,4,Chris Flores,Port Lavaca Calhoun,109.32,235.87,117.93,185.97,539.77,Single-ply,SBD,M
Varsity,109.77,5,Josh Morgan,Victoria Memorial,107.95,185.97,124.74,188.24,498.95,Single-ply,SBD,M
Varsity,124.74,1,Preston Turner,Victoria Memorial,112.22,278.96,195.04,251.74,725.75,Single-ply,SBD,M
Varsity,124.74,2,Albert Ureste,Port Lavaca Calhoun,120.2,249.48,142.88,238.14,630.49,Single-ply,SBD,M
Varsity,124.74,3,Cody Lee,Port Lavaca Calhoun,120.2,226.8,122.47,204.12,553.38,Single-ply,SBD,M
Varsity,124.74,4,Damain Barfield,Victoria Memorial,112.94,170.1,122.47,192.78,485.34,Single-ply,SBD,M
Varsity,124.74,5,Joseph Solis,Rockport-Fulton,112.04,183.7,102.06,183.7,469.47,Single-ply,SBD,M
Varsity,124.74+,1,Miguel Estrada,Rockport-Fulton,131.36,240.4,158.76,204.12,603.28,Single-ply,SBD,M
Varsity,124.74+,2,Dylan Strickland,Corpus Christi Calallen,134.72,229.06,122.47,181.44,532.97,Single-ply,SBD,M
Varsity,124.74+,3,Andrew Williams #6,Rockport-Fulton,149.69,231.33,136.08,165.56,532.97,Single-ply,SBD,M
Varsity,124.74+,4,Steven Rodriguez,Corpus Christi Calallen,135.35,217.72,117.93,165.56,501.22,Single-ply,SBD,M
Varsity,124.74+,5,Kenneth White,Beaumont Ozen,134.72,204.12,142.88,145.15,492.15,Single-ply,SBD,M
Varsity,124.74+,DQ,Joseph Hinton,Beeville Jones,127.01,,,,,Single-ply,SBD,M
Varsity,124.74+,DQ,Treyvon Walker,Beaumont Ozen,171,188.24,102.06,,,Single-ply,SBD,M
