Division,WeightClassKg,Place,Name,Team,BodyweightKg,Best3SquatKg,Best3BenchKg,Best3DeadliftKg,TotalKg,Equipment,Event,Sex
Boys,51.71,1,Marshall Chappell,Seminole,48.63,142.88,83.91,136.08,362.87,Single-ply,SBD,M
Boys,51.71,2,Nicholas Lopez,Abernathy,50.94,129.27,79.38,145.15,353.8,Single-ply,SBD,M
Boys,51.71,3,Jonathon Valderas,Levelland,51.71,122.47,74.84,136.08,333.39,Single-ply,SBD,M
Boys,55.79,4,Shimar Jennings,Plainview,51.94,124.74,68.04,136.08,328.85,Single-ply,SBD,M
Boys,51.71,5,Zackary Sherrod,Anton,47.85,102.06,68.04,115.67,285.76,Single-ply,SBD,M
Boys,51.71,6,Gene Williams,Slaton,45.81,117.93,45.36,113.4,276.69,Single-ply,SBD,M
Boys,51.71,7,Ivan Antuna,Plainview,45.4,92.99,52.16,108.86,254.01,Single-ply,SBD,M
Boys,55.79,8,Shane Gentry,Crosbyton,51.75,83.91,45.36,104.33,233.6,Single-ply,SBD,M
Boys,51.71,9,Rafael Rodriguez,Levelland,50.17,79.38,63.5,86.18,229.06,Single-ply,SBD,M
Boys,51.71,10,Derrick Siebman,Childress,48.85,74.84,58.97,79.38,213.19,Single-ply,SBD,M
Boys,51.71,11,Carlos Bravo,Olton,46.77,72.57,49.9,83.91,206.38,Single-ply,SBD,M
Boys,51.71,DQ,Wesley Payton,Lamesa,48.53,90.72,,,,Single-ply,SBD,M
Boys,51.71,DQ,Mark Lopez,Abernathy,51.71,,,,,Single-ply,SBD,M
Boys,55.79,1,Rocky Currie,Wellman-Union,55.61,133.81,88.45,165.56,387.82,Single-ply,SBD,M
Boys,59.87,2,Ken Crawford,Childress,56.02,142.88,86.18,154.22,383.29,Single-ply,SBD,M
Boys,55.79,3,Jamie Longoria,Levelland,55.79,124.74,83.91,165.56,374.21,Single-ply,SBD,M
Boys,59.87,4,Johnny Gonzales,Lubbock Monterey,55.84,117.93,68.04,127.01,312.98,Single-ply,SBD,M
Boys,55.79,5,Brian Gomez,Lubbock Monterey,55.25,102.06,74.84,122.47,299.37,Single-ply,SBD,M
Boys,55.79,6,Frankie Mendoza,Abernathy,53.16,95.25,72.57,129.27,297.1,Single-ply,SBD,M
Boys,55.79,7,Elijah Saldana,Lubbock Monterey,53.75,106.59,70.31,120.2,297.1,Single-ply,SBD,M
Boys,55.79,8,Levi Mills,Levelland,55.34,102.06,70.31,124.74,297.1,Single-ply,SBD,M
Boys,55.79,9,David Denton,Wolfforth Frenship,55.11,95.25,61.23,120.2,276.69,Single-ply,SBD,M
Boys,55.79,10,Cesar Medrano,Sudan,52.89,92.99,54.43,102.06,249.48,Single-ply,SBD,M
Boys,55.79,11,Jose Acevedo,Levelland,54.88,102.06,52.16,92.99,247.21,Single-ply,SBD,M
Boys,59.87,1,Angel Guerrero,Levelland,58.97,165.56,79.38,158.76,403.7,Single-ply,SBD,M
Boys,59.87,2,Alex Lopez #9,Abernathy,57.61,145.15,88.45,149.69,383.29,Single-ply,SBD,M
Boys,59.87,3,Guillermo Cazares,Slaton,59.6,136.08,79.38,163.29,378.75,Single-ply,SBD,M
Boys,59.87,4,Dimas Rodriguez,Plainview,59.65,131.54,92.99,133.81,358.34,Single-ply,SBD,M
Boys,59.87,5,Marcus Renteria,Lamesa,57.65,113.4,81.65,138.35,333.39,Single-ply,SBD,M
Boys,59.87,6,Damien Trevino,Muleshoe,58.33,124.74,68.04,127.01,319.78,Single-ply,SBD,M
Boys,59.87,7,Ryan Coon,Seminole,59.28,120.2,63.5,115.67,299.37,Single-ply,SBD,M
Boys,59.87,8,Jordan Magars,Childress,56.7,90.72,68.04,122.47,281.23,Single-ply,SBD,M
Boys,59.87,9,Eric Fira,Crosbyton,56.93,95.25,56.7,106.59,258.55,Single-ply,SBD,M
Boys,59.87,10,Jordan Emsoff,Abernathy,59.15,90.72,56.7,95.25,242.67,Single-ply,SBD,M
Boys,59.87,DQ,Caelon Gibson,Lamesa,58.29,92.99,,,,Single-ply,SBD,M
Boys,59.87,DQ,Coe Kubicek,Seminole,59.47,,,,,Single-ply,SBD,M
Boys,67.13,1,Dustin Smith,Levelland,67.13,208.65,113.4,174.63,496.68,Single-ply,SBD,M
Boys,67.13,2,Choeung Sei,Snyder,66.22,199.58,108.86,172.37,480.81,Single-ply,SBD,M
Boys,67.13,3,Aaron Khaleeq,Plainview,66.95,183.7,106.59,179.17,469.47,Single-ply,SBD,M
Boys,67.13,4,Brent Elmore,Whiteface,65.23,181.44,88.45,185.97,455.86,Single-ply,SBD,M
Boys,67.13,5,Davy Salazar,Childress,66.27,149.69,117.93,179.17,446.79,Single-ply,SBD,M
Boys,67.13,6,George Godinez,Sudan,62.69,158.76,79.38,192.78,430.91,Single-ply,SBD,M
Boys,67.13,7,Alfredo Sanchez,Muleshoe,64.05,145.15,86.18,176.9,408.23,Single-ply,SBD,M
Boys,67.13,8,Juan Esquivel,Slaton,66.22,149.69,74.84,183.7,408.23,Single-ply,SBD,M
Boys,67.13,9,Chris Muniz,Levelland,65.32,140.61,92.99,167.83,401.43,Single-ply,SBD,M
Boys,67.13,10,Jesse Gonzalez,Levelland,63.5,136.08,111.13,149.69,396.89,Single-ply,SBD,M
Boys,74.84,11,Cade Ackerman,Childress,67.31,138.35,92.99,158.76,390.09,Single-ply,SBD,M
Boys,67.13,12,Casey Sanders,Wolfforth Frenship,64.91,142.88,92.99,147.42,383.29,Single-ply,SBD,M
Boys,67.13,13,Kristian Guajardo,Lamesa,64.95,136.08,83.91,161.03,381.02,Single-ply,SBD,M
Boys,67.13,14,Eric Davis,Lubbock Monterey,64.91,149.69,83.91,145.15,378.75,Single-ply,SBD,M
Boys,67.13,15,Jj Casarez,Levelland,67.13,113.4,92.99,151.95,358.34,Single-ply,SBD,M
Boys,67.13,16,Chris Guzman,Crosbyton,64.41,120.2,77.11,133.81,331.12,Single-ply,SBD,M
Boys,67.13,17,Noah DiSalvo,Plainview,64.77,108.86,74.84,147.42,331.12,Single-ply,SBD,M
Boys,67.13,18,Jordan Sircable,Wolfforth Frenship,66.13,127.01,72.57,127.01,326.59,Single-ply,SBD,M
Boys,67.13,19,Matt Race,Levelland,65.77,111.13,72.57,138.35,322.05,Single-ply,SBD,M
Boys,67.13,20,Cody Dean,Post,66.04,95.25,102.06,113.4,310.71,Single-ply,SBD,M
Boys,67.13,21,Mitchell Luevas,Shallowater,66.45,95.25,92.99,117.93,306.17,Single-ply,SBD,M
Boys,67.13,22,Dillon Stevens,Wolfforth Frenship,65.18,115.67,70.31,117.93,303.91,Single-ply,SBD,M
Boys,67.13,23,Doug Ames,Sudan,64.23,124.74,63.5,111.13,299.37,Single-ply,SBD,M
Boys,67.13,24,Caden Dean,Post,62.73,113.4,61.23,113.4,288.03,Single-ply,SBD,M
Boys,67.13,25,Taylor Berry,Crosbyton,62.01,90.72,68.04,122.47,281.23,Single-ply,SBD,M
Boys,74.84,26,Julio Calderon,Crosbyton,67.22,99.79,52.16,124.74,276.69,Single-ply,SBD,M
Boys,67.13,DQ,Isaac Stern,Post,64.27,115.67,,,,Single-ply,SBD,M
Boys,74.84,DQ,Logan Smith #6,Wolfforth Frenship,67.36,113.4,52.16,,,Single-ply,SBD,M
Boys,67.13,DQ,DeQuante Jackson,Anton,67.13,,,,,Single-ply,SBD,M
Boys,74.84,1,Caleb Conner,Muleshoe,72.03,226.8,129.27,210.92,566.99,Single-ply,SBD,M
Boys,74.84,2,Justin Pichardo,Plainview,74.71,206.38,122.47,192.78,521.63,Single-ply,SBD,M
Boys,82.1,3,Chris Jackson #8,Crosbyton,75.07,195.04,113.4,213.19,521.63,Single-ply,SBD,M
Boys,74.84,4,Corey Richardson,Levelland,74.39,185.97,122.47,188.24,496.68,Single-ply,SBD,M
Boys,74.84,5,Alan Rivera,Plainview,72.17,195.04,108.86,185.97,489.88,Single-ply,SBD,M
Boys,74.84,6,Adam Gante,Slaton,73.62,158.76,108.86,195.04,462.66,Single-ply,SBD,M
Boys,74.84,7,Thomas Walker,Lubbock Monterey,70.9,163.29,99.79,176.9,439.98,Single-ply,SBD,M
Boys,74.84,8,Edward Jalomo,Olton,71.21,147.42,104.33,176.9,428.64,Single-ply,SBD,M
Boys,74.84,9,Brad Thompson,Lubbock Monterey,74.48,174.63,88.45,165.56,428.64,Single-ply,SBD,M
Boys,74.84,10,Tyler Adams,Childress,74.07,154.22,92.99,170.1,417.3,Single-ply,SBD,M
Boys,74.84,11,Thomas Foster,Crosbyton,71.26,167.83,77.11,163.29,408.23,Single-ply,SBD,M
Boys,74.84,12,Caleb Morales,Lamesa,71.94,154.22,92.99,158.76,405.97,Single-ply,SBD,M
Boys,74.84,13,Joseph Jaramillo,Lubbock Monterey,71.89,133.81,97.52,167.83,399.16,Single-ply,SBD,M
Boys,74.84,14,Gage Edwards,Muleshoe,73.21,145.15,88.45,165.56,399.16,Single-ply,SBD,M
Boys,74.84,15,Nick Gonzales,Wolfforth Frenship,72.03,147.42,104.33,145.15,396.89,Single-ply,SBD,M
Boys,74.84,16,Steven Durban,Muleshoe,70.85,158.76,74.84,161.03,394.63,Single-ply,SBD,M
Boys,74.84,17,Angel Martinez #9,Lubbock Monterey,68.4,129.27,88.45,156.49,374.21,Single-ply,SBD,M
Boys,74.84,18,Conner MacNair,Wolfforth Frenship,73.07,138.35,86.18,142.88,367.41,Single-ply,SBD,M
Boys,74.84,19,Nick Runkles,Levelland,74.84,136.08,79.38,147.42,362.87,Single-ply,SBD,M
Boys,74.84,20,Johnny Mata,Levelland,73.03,154.22,61.23,142.88,358.34,Single-ply,SBD,M
Boys,74.84,21,Semaj Cole,Seagraves,70.17,129.27,70.31,156.49,356.07,Single-ply,SBD,M
Boys,82.1,22,Justin Hassall,Childress,75.02,127.01,79.38,142.88,349.27,Single-ply,SBD,M
Boys,74.84,23,Hunter Novotny,Plainview,69.58,124.74,79.38,142.88,347,Single-ply,SBD,M
Boys,74.84,24,Justin Robinson,Wolfforth Frenship,69.72,136.08,81.65,124.74,342.46,Single-ply,SBD,M
Boys,74.84,25,Jury Moeller,Anton,70.49,113.4,77.11,136.08,326.59,Single-ply,SBD,M
Boys,74.84,26,William Rattan,Wolfforth Frenship,68.95,115.67,74.84,133.81,324.32,Single-ply,SBD,M
Boys,74.84,27,Aaron Rosas,Abernathy,72.39,140.61,65.77,117.93,324.32,Single-ply,SBD,M
Boys,74.84,28,Jory Flores,Shallowater,74.84,113.4,72.57,129.27,315.25,Single-ply,SBD,M
Boys,74.84,29,Tyler Covington,Lockney,69.22,104.33,74.84,133.81,312.98,Single-ply,SBD,M
Boys,74.84,30,Junior Triana,Muleshoe,70.99,102.06,79.38,131.54,312.98,Single-ply,SBD,M
Boys,74.84,DQ,Luke Sherman,Lockney,71.94,,,,,Single-ply,SBD,M
Boys,74.84,DQ,Seth Babb,Post,74.84,,,,,Single-ply,SBD,M
Boys,74.84,DQ,Emilio Sandoval,Olton,74.84,,,,,Single-ply,SBD,M
Boys,82.1,1,Hunter Henzler,Slaton,79.47,224.53,92.99,208.65,526.17,Single-ply,SBD,M
Boys,82.1,2,Ronnie Foshee,Slaton,78.06,192.78,97.52,204.12,494.42,Single-ply,SBD,M
Boys,82.1,3,Nick Rodriguez,Post,78.06,192.78,113.4,185.97,492.15,Single-ply,SBD,M
Boys,82.1,4,Frankie Rodriguez #2,Sudan,81.92,170.1,122.47,195.04,487.61,Single-ply,SBD,M
Boys,82.1,5,Shaq Thompson,Lockney,81.42,179.17,129.27,172.37,480.81,Single-ply,SBD,M
Boys,82.1,6,Denver Moriss,Childress,82.05,170.1,115.67,185.97,471.74,Single-ply,SBD,M
Boys,82.1,7,Kane Isaacks,Levelland,81.74,154.22,111.13,204.12,469.47,Single-ply,SBD,M
Boys,82.1,8,Dusty Ortiz,Lamesa,76.25,167.83,106.59,183.7,458.13,Single-ply,SBD,M
Boys,82.1,9,Ignacio Jimenez,Lamesa,77.11,149.69,104.33,167.83,421.84,Single-ply,SBD,M
Boys,82.1,10,Teddy Mitchell,Levelland,81.65,154.22,99.79,167.83,421.84,Single-ply,SBD,M
Boys,82.1,11,William Varela,Snyder,78.7,163.29,88.45,147.42,399.16,Single-ply,SBD,M
Boys,82.1,12,Jacob Drennan,Sudan,77.2,120.2,83.91,172.37,376.48,Single-ply,SBD,M
Boys,82.1,13,Andrew Lopez,Abernathy,81.28,127.01,86.18,140.61,353.8,Single-ply,SBD,M
Boys,82.1,14,Josh Whitley,Snyder,78.56,129.27,81.65,140.61,351.53,Single-ply,SBD,M
Boys,82.1,15,Eddie Campos,Levelland,81.65,136.08,83.91,124.74,344.73,Single-ply,SBD,M
Boys,82.1,16,Lonnie Ellifritz,Childress,76.34,122.47,79.38,113.4,315.25,Single-ply,SBD,M
Boys,82.1,17,Alfonso Rubio,Anton,75.7,102.06,72.57,124.74,299.37,Single-ply,SBD,M
Boys,82.1,18,Blake Cooper,Childress,80.47,99.79,58.97,113.4,272.16,Single-ply,SBD,M
Boys,82.1,DQ,Aaron Galarza,Levelland,81.65,,,,,Single-ply,SBD,M
Boys,82.1,DQ,M J Wynne,Post,82.1,,,,,Single-ply,SBD,M
Boys,89.81,1,Temperance Childers,Levelland,83.91,201.85,136.08,199.58,537.51,Single-ply,SBD,M
Boys,89.81,2,Javier Reyna,Olton,85.37,181.44,104.33,215.46,501.22,Single-ply,SBD,M
Boys,89.81,3,Richie Allen,Wellman-Union,83.05,181.44,104.33,206.38,492.15,Single-ply,SBD,M
Boys,89.81,4,Andrew Vidales,Levelland,88.9,181.44,124.74,170.1,476.27,Single-ply,SBD,M
Boys,89.81,5,Andrew Barbosa,Abernathy,87.72,181.44,102.06,183.7,467.2,Single-ply,SBD,M
Boys,89.81,6,Royce Strader,Muleshoe,83.73,170.1,111.13,151.95,433.18,Single-ply,SBD,M
Boys,89.81,7,John Taylor #3,Muleshoe,88.5,158.76,104.33,170.1,433.18,Single-ply,SBD,M
Boys,89.81,8,Andrew Mendez,Wolfforth Frenship,86.41,165.56,90.72,165.56,421.84,Single-ply,SBD,M
Boys,89.81,9,Austin Zundt,Crosbyton,87.59,176.9,79.38,163.29,419.57,Single-ply,SBD,M
Boys,89.81,10,Jordan Aguilar,Post,83.51,172.37,90.72,149.69,412.77,Single-ply,SBD,M
Boys,89.81,11,Eric Medrano,Wolfforth Frenship,86.77,151.95,102.06,142.88,396.89,Single-ply,SBD,M
Boys,89.81,12,Shane Smith,Levelland,88,136.08,99.79,158.76,394.63,Single-ply,SBD,M
Boys,89.81,13,Reese Web,Shallowater,85.87,142.88,79.38,167.83,390.09,Single-ply,SBD,M
Boys,89.81,14,Jeremy Zavala,Plainview,89.13,151.95,79.38,147.42,378.75,Single-ply,SBD,M
Boys,89.81,15,Marcos Mercado,Lockney,84.96,140.61,92.99,140.61,374.21,Single-ply,SBD,M
Boys,89.81,16,Xavier Herrea,Shallowater,86.5,131.54,77.11,145.15,353.8,Single-ply,SBD,M
Boys,89.81,DQ,Daniel Diaz,Wolfforth Frenship,87.77,,,,,Single-ply,SBD,M
Boys,99.79,1,Jacob Hinojos,Plainview,93.71,283.5,145.15,258.55,687.19,Single-ply,SBD,M
Boys,99.79,2,Frank Perez,Plainview,93.53,206.38,104.33,215.46,526.17,Single-ply,SBD,M
Boys,99.79,3,Santiago Fabela,Plainview,95.66,192.78,124.74,188.24,505.76,Single-ply,SBD,M
Boys,99.79,4,Josh Chapa,Plainview,95.57,192.78,136.08,174.63,503.49,Single-ply,SBD,M
Boys,99.79,5,Rj Gonzales,Abernathy,96.39,195.04,111.13,197.31,503.49,Single-ply,SBD,M
Boys,99.79,6,JR Rodriguez,Levelland,99.52,188.24,111.13,204.12,503.49,Single-ply,SBD,M
Boys,99.79,7,Roman Romero,Snyder,95.75,185.97,117.93,185.97,489.88,Single-ply,SBD,M
Boys,99.79,8,Joe Tony Duran,Lamesa,92.49,158.76,127.01,190.51,476.27,Single-ply,SBD,M
Boys,99.79,9,Matt Cruz,Abernathy,93.44,185.97,97.52,192.78,476.27,Single-ply,SBD,M
Boys,99.79,10,David Cantu,Levelland,95.25,181.44,113.4,181.44,476.27,Single-ply,SBD,M
Boys,99.79,11,Jordan Tippens,Snyder,98.2,174.63,115.67,181.44,471.74,Single-ply,SBD,M
Boys,99.79,12,Danny Montelongo,Plainview,94.94,174.63,106.59,172.37,453.59,Single-ply,SBD,M
Boys,109.77,13,Sergio Vidales,Levelland,99.88,176.9,106.59,170.1,453.59,Single-ply,SBD,M
Boys,99.79,14,Ariel Hernandez #1,Plainview,93.35,165.56,113.4,170.1,449.06,Single-ply,SBD,M
Boys,99.79,15,Breck Gross,Childress,92.9,154.22,97.52,158.76,410.5,Single-ply,SBD,M
Boys,99.79,16,Chris Garza #4,Snyder,93.85,149.69,104.33,156.49,410.5,Single-ply,SBD,M
Boys,99.79,17,Ryan Johnson,Muleshoe,91.4,142.88,95.25,156.49,394.63,Single-ply,SBD,M
Boys,109.77,18,Austin Wills,Wolfforth Frenship,100.02,136.08,81.65,158.76,376.48,Single-ply,SBD,M
Boys,99.79,19,Santana Benitez,Abernathy,97.84,122.47,63.5,154.22,340.19,Single-ply,SBD,M
Boys,99.79,20,O'Shae Grant,Wolfforth Frenship,98.97,127.01,56.7,138.35,322.05,Single-ply,SBD,M
Boys,99.79,21,Jessie Soniga,Shallowater,99.52,104.33,68.04,127.01,299.37,Single-ply,SBD,M
Boys,99.79,22,Jimbo Bentley,Childress,96.48,140.61,99.79,,240.4,Single-ply,SB,M
Boys,99.79,DQ,Bryce Wheeler,Levelland,99.79,,,,,Single-ply,SB,M
Boys,99.79,DQ,Paul Martinez,Post,99.79,,,,,Single-ply,SB,M
Boys,99.79,DQ,Matt Foster,Wolfforth Frenship,99.79,,,,,Single-ply,SB,M
Boys,109.77,1,Daniel Allen,Seminole,101.6,267.62,163.29,226.8,657.71,Single-ply,SBD,M
Boys,109.77,2,Jose Flores #6,Seminole,107.23,219.99,149.69,219.99,589.67,Single-ply,SBD,M
Boys,109.77,3,Patrick Martinez,Slaton,108.91,213.19,136.08,233.6,582.87,Single-ply,SBD,M
Boys,109.77,4,Wesley Adams,Lubbock Monterey,104.05,226.8,122.47,217.72,566.99,Single-ply,SBD,M
Boys,109.77,5,Joe Menjares,Post,102.47,192.78,138.35,226.8,557.92,Single-ply,SBD,M
Boys,109.77,6,Ramiro Rodriguez,Lubbock Monterey,104.83,226.8,136.08,195.04,557.92,Single-ply,SBD,M
Boys,109.77,7,Jerry Nino,Levelland,102.06,226.8,140.61,188.24,555.65,Single-ply,SBD,M
Boys,109.77,8,Angelo Samarippa,Plainview,102.42,199.58,163.29,192.78,555.65,Single-ply,SBD,M
Boys,109.77,9,Taylon Garrett,Anton,106.73,231.33,122.47,199.58,553.38,Single-ply,SBD,M
Boys,109.77,10,Zach Subealdea,Plainview,102.78,210.92,124.74,195.04,530.7,Single-ply,SBD,M
Boys,109.77,11,Marcos Hinojos,Plainview,108.09,208.65,122.47,192.78,523.9,Single-ply,SBD,M
Boys,109.77,12,Dale Diaz,Post,106.37,210.92,113.4,185.97,510.29,Single-ply,SBD,M
Boys,109.77,13,Eddie Luna,Levelland,108.86,172.37,122.47,210.92,505.76,Single-ply,SBD,M
Boys,109.77,14,Pilar Campos,Muleshoe,102.78,204.12,108.86,185.97,498.95,Single-ply,SBD,M
Boys,109.77,15,Cj Casas,Snyder,109.63,190.51,106.59,183.7,480.81,Single-ply,SBD,M
Boys,109.77,16,Steven Leyendecker,Plainview,109.5,195.04,99.79,183.7,478.54,Single-ply,SBD,M
Boys,109.77,17,Emiliano Renteria,Lamesa,104.87,165.56,99.79,188.24,453.59,Single-ply,SBD,M
Boys,109.77,18,Saul Salazar,Childress,108.45,158.76,115.67,167.83,442.25,Single-ply,SBD,M
Boys,109.77,19,Jorge Flores,Lamesa,100.29,167.83,86.18,163.29,417.3,Single-ply,SBD,M
Boys,109.77,20,Logan Hackler,Childress,104.33,136.08,90.72,108.86,335.66,Single-ply,SBD,M
Boys,109.77,DQ,Patrick Hebison,Lubbock Monterey,100.88,111.13,,,,Single-ply,SBD,M
Boys,109.77,DQ,Josh Rodruguez,Post,100.43,204.12,,,,Single-ply,SBD,M
Boys,109.77,DQ,Colton Carey,Wolfforth Frenship,109.77,,,,,Single-ply,SBD,M
Boys,109.77,DQ,John Vanover,Wolfforth Frenship,109.77,,,,,Single-ply,SBD,M
Boys,124.74,1,Michael Garcia,Plainview,111.22,249.48,142.88,226.8,619.15,Single-ply,SBD,M
Boys,124.74,2,Walker Kemp,Lockney,114.35,208.65,185.97,224.53,619.15,Single-ply,SBD,M
Boys,124.74,3,Diego Caballero,Lubbock Monterey,120.66,256.28,147.42,204.12,607.81,Single-ply,SBD,M
Boys,124.74,4,Zach Bentancourt,Slaton,116.8,226.8,149.69,213.19,589.67,Single-ply,SBD,M
Boys,124.74,5,Camron McDaniel,Slaton,115.98,204.12,138.35,226.8,569.26,Single-ply,SBD,M
Boys,124.74,6,Ruben Villegas,Childress,111.36,197.31,131.54,213.19,542.04,Single-ply,SBD,M
Boys,124.74,7,Eric Martinez,Olton,116.8,219.99,122.47,195.04,537.51,Single-ply,SBD,M
Boys,124.74,8,Rayce Savage,Wolfforth Frenship,111.9,226.8,113.4,181.44,521.63,Single-ply,SBD,M
Boys,124.74,9,Tanner Thomason,Plains,117.93,190.51,97.52,222.26,510.29,Single-ply,SBD,M
Boys,124.74,10,Joey Maldonado,Anton,112.85,181.44,104.33,185.97,471.74,Single-ply,SBD,M
Boys,124.74,11,Santos Rodriguez,Lamesa,114.44,165.56,117.93,181.44,464.93,Single-ply,SBD,M
Boys,124.74,12,Derek Washington,Levelland,124.74,181.44,120.2,158.76,460.4,Single-ply,SBD,M
Boys,124.74,13,Gabriel García,Plainview,121.65,190.51,79.38,179.17,449.06,Single-ply,SBD,M
Boys,124.74,14,Gunner Burklow,Lamesa,111.54,167.83,102.06,170.1,439.98,Single-ply,SBD,M
Boys,124.74,15,Alonso Hernandez,Olton,121.02,176.9,104.33,158.76,439.98,Single-ply,SBD,M
Boys,124.74,16,Nath Stinson,Shallowater,116.98,163.29,81.65,183.7,428.64,Single-ply,SBD,M
Boys,124.74,17,Steven Manahan,Levelland,119.29,163.29,102.06,151.95,417.3,Single-ply,SBD,M
Boys,124.74,18,Anthony Martinez #15,Wolfforth Frenship,111.58,136.08,95.25,156.49,387.82,Single-ply,SBD,M
Boys,124.74,19,Taylor York,Wolfforth Frenship,119.66,136.08,86.18,140.61,362.87,Single-ply,SBD,M
Boys,124.74,DQ,Chris Leghton,Snyder,124.74,,,,,Single-ply,SBD,M
Boys,124.74+,1,Alexander Moreno,Crosbyton,174,240.4,158.76,238.14,637.3,Single-ply,SBD,M
Boys,124.74+,2,Al Valderas,Levelland,147.42,276.69,149.69,204.12,630.49,Single-ply,SBD,M
Boys,124.74+,3,Dylan Early,Snyder,135.53,226.8,142.88,229.06,598.74,Single-ply,SBD,M
Boys,124.74+,4,Clay Pena,Muleshoe,147.6,272.16,115.67,190.51,578.33,Single-ply,SBD,M
Boys,124.74+,5,Sergio Montejano,Muleshoe,131.95,208.65,122.47,204.12,535.24,Single-ply,SBD,M
Boys,124.74+,6,Larson Crume,Wolfforth Frenship,133.36,172.37,95.25,158.76,426.38,Single-ply,SBD,M
Boys,124.74+,7,Batai Grisonno,Shallowater,137.89,104.33,68.04,163.29,335.66,Single-ply,SBD,M
Boys,124.74+,8,Rj Silva,Crosbyton,128,120.2,68.04,136.08,324.32,Single-ply,SBD,M
