Division,WeightClassKg,Place,Name,Team,BodyweightKg,Best3SquatKg,Best3BenchKg,Best3DeadliftKg,TotalKg,Equipment,Event,Sex
Boys,51.71,1,Mike Brown #13,Lancaster,45.99,74.84,40.82,77.11,192.78,Single-ply,SBD,M
Boys,55.79,2,Dakota Middleton,Dallas White,51.8,70.31,45.36,63.5,179.17,Single-ply,SBD,M
Boys,55.79,1,Michael Robason,Frisco Wakeland,54.43,165.56,68.04,138.35,371.95,Single-ply,SBD,M
Boys,55.79,2,Dillan Cromeens,Nevada Community,55.43,145.15,74.84,140.61,360.61,Single-ply,SBD,M
Boys,55.79,3,Savon Logan,Carrollton Creekview,55.66,138.35,77.11,138.35,353.8,Single-ply,SBD,M
Boys,59.87,4,Andrew Wilson,Frisco Wakeland,55.88,124.74,72.57,129.27,326.59,Single-ply,SBD,M
Boys,55.79,5,Roberto Parra,Carrollton Creekview,52.34,102.06,52.16,117.93,272.16,Single-ply,SBD,M
Boys,55.79,6,D'Andre Cprtez,Dallas Spruce,53.89,79.38,56.7,90.72,226.8,Single-ply,SBD,M
Boys,59.87,1,Kareem Williams,Carrollton Ranchview,58.11,213.19,106.59,188.24,508.02,Single-ply,SBD,M
Boys,59.87,2,Chris Alcantar,Carrollton Creekview,58.51,138.35,90.72,163.29,392.36,Single-ply,SBD,M
Boys,67.13,3,Brandon Lewellan,Frisco Wakeland,60.01,145.15,65.77,145.15,356.07,Single-ply,SBD,M
Boys,59.87,4,Ryan Allo,Carrollton Creekview,59.87,138.35,88.45,124.74,351.53,Single-ply,SBD,M
Boys,59.87,5,Nathan Scoggins,Prosper,57.15,92.99,61.23,117.93,272.16,Single-ply,SBD,M
Boys,67.13,6,Christian Harriman,Dallas Highland Park,60.01,70.31,47.63,63.5,181.44,Single-ply,SBD,M
Boys,59.87,DQ,Grayson Kulin,Frisco Heritage,59.65,88.45,,,,Single-ply,SBD,M
Boys,67.13,1,Joe Szymanski,Northwest Nelson,64.55,170.1,92.99,149.69,412.77,Single-ply,SBD,M
Boys,67.13,2,Arhman Mathis,Carrollton Ranchview,66.41,151.95,86.18,138.35,376.48,Single-ply,SBD,M
Boys,67.13,3,Jonathan Johnson,Dallas Spruce,62.28,133.81,92.99,142.88,369.68,Single-ply,SBD,M
Boys,67.13,4,Chris Jackson #10,Prosper,65.5,115.67,88.45,140.61,344.73,Single-ply,SBD,M
Boys,67.13,5,Erick Alvarez,Carrollton Creekview,62.51,113.4,70.31,142.88,326.59,Single-ply,SBD,M
Boys,67.13,6,Chris Zapata,Carrollton Turner,65.05,108.86,68.04,149.69,326.59,Single-ply,SBD,M
Boys,67.13,7,Yevin Rushing,Dallas White,65.05,99.79,77.11,142.88,319.78,Single-ply,SBD,M
Boys,67.13,8,Blake Weaver,Frisco Heritage,64.18,92.99,63.5,111.13,267.62,Single-ply,SBD,M
Boys,67.13,DQ,Brady Adams,Frisco Wakeland,66.22,167.83,,,,Single-ply,SBD,M
Boys,74.84,1,De'Amonte Miles,Dallas Spruce,73.07,167.83,108.86,190.51,467.2,Single-ply,SBD,M
Boys,82.1,2,Dalton Walls,Frisco Wakeland,75.02,174.63,99.79,174.63,449.06,Single-ply,SBD,M
Boys,74.84,3,Cody Maupin,Nevada Community,74.16,172.37,106.59,165.56,444.52,Single-ply,SBD,M
Boys,74.84,4,Brennen Fletcher,Nevada Community,74.34,161.03,104.33,179.17,444.52,Single-ply,SBD,M
Boys,74.84,5,Corey Rogers,Nevada Community,69.85,151.95,99.79,172.37,424.11,Single-ply,SBD,M
Boys,74.84,6,Collin Eager,Northwest Nelson,69.35,156.49,102.06,161.03,419.57,Single-ply,SBD,M
Boys,74.84,7,Selven Rosa,Dallas White,71.89,158.76,86.18,158.76,403.7,Single-ply,SBD,M
Boys,74.84,8,Alec Ramos,Dallas White,71.67,142.88,102.06,147.42,392.36,Single-ply,SBD,M
Boys,82.1,9,Malcolm Frederick,Carrollton Creekview,75.07,154.22,90.72,142.88,387.82,Single-ply,SBD,M
Boys,74.84,10,Trent Dillard,Prosper,73.44,142.88,88.45,154.22,385.55,Single-ply,SBD,M
Boys,74.84,11,Paul Lacy,Lancaster,68.67,140.61,88.45,151.95,381.02,Single-ply,SBD,M
Boys,74.84,12,Nic Hintz,Frisco Heritage,74.62,140.61,90.72,147.42,378.75,Single-ply,SBD,M
Boys,74.84,13,Antony Smith,Carrollton Ranchview,70.4,151.95,88.45,133.81,374.21,Single-ply,SBD,M
Boys,74.84,14,Wade Woodard,Prosper,74.21,136.08,106.59,129.27,371.95,Single-ply,SBD,M
Boys,82.1,15,Brady Peterson,Prosper,74.93,124.74,83.91,151.95,360.61,Single-ply,SBD,M
Boys,74.84,16,Eric Rosales,Carrollton Turner,73.3,127.01,72.57,154.22,353.8,Single-ply,SBD,M
Boys,74.84,17,Hayden Pierce,Frisco Heritage,73.48,129.27,81.65,136.08,347,Single-ply,SBD,M
Boys,74.84,18,Reed Williams,Frisco Heritage,70.13,131.54,65.77,147.42,344.73,Single-ply,SBD,M
Boys,74.84,19,Al Dismuke,Lancaster,67.81,133.81,70.31,124.74,328.85,Single-ply,SBD,M
Boys,82.1,20,Ryan Favella,Dallas White,74.98,97.52,77.11,136.08,310.71,Single-ply,SBD,M
Boys,74.84,21,Chester Lee,Frisco Heritage,70.62,113.4,61.23,113.4,288.03,Single-ply,SBD,M
Boys,74.84,22,Michael Carpin,Frisco Heritage,72.21,95.25,65.77,108.86,269.89,Single-ply,SBD,M
Boys,74.84,23,Jake LoGrasso,Frisco Heritage,70.72,83.91,65.77,113.4,263.08,Single-ply,SBD,M
Boys,74.84,24,Jacon Ontiveros,Dallas White,67.86,102.06,58.97,86.18,247.21,Single-ply,SBD,M
Boys,74.84,25,Bryan Forst,Frisco Heritage,70.72,83.91,52.16,104.33,240.4,Single-ply,SBD,M
Boys,74.84,DQ,Juan Rodriguez,Carrollton Creekview,74.75,161.03,,,,Single-ply,SBD,M
Boys,82.1,1,Collin Charles,Frisco Heritage,79.79,219.99,142.88,242.67,605.55,Single-ply,SBD,M
Boys,82.1,2,Alex Marr,Frisco Wakeland,78.88,179.17,115.67,179.17,474,Single-ply,SBD,M
Boys,82.1,3,Asad Irfan,Carrollton Creekview,81.51,172.37,113.4,183.7,469.47,Single-ply,SBD,M
Boys,82.1,4,Matt Jones #5,Northwest Nelson,81.24,183.7,113.4,167.83,464.93,Single-ply,SBD,M
Boys,82.1,5,David Portillo,Carrollton Turner,80.97,170.1,106.59,185.97,462.66,Single-ply,SBD,M
Boys,82.1,6,Malik Johnson,Carrollton Ranchview,82.01,183.7,81.65,197.31,462.66,Single-ply,SBD,M
Boys,82.1,7,Rodger Williams,Richardson Lake Highlands,80.06,188.24,102.06,165.56,455.86,Single-ply,SBD,M
Boys,82.1,8,Aaron Johnson,Lancaster,81.01,170.1,102.06,181.44,453.59,Single-ply,SBD,M
Boys,82.1,9,Patrick Cooper,Dallas Spruce,81.69,154.22,111.13,167.83,433.18,Single-ply,SBD,M
Boys,82.1,10,Cole Feigl,Dallas Highland Park,75.98,158.76,95.25,165.56,419.57,Single-ply,SBD,M
Boys,82.1,11,Jordan Ortiz,Northwest Nelson,77.7,165.56,88.45,158.76,412.77,Single-ply,SBD,M
Boys,82.1,12,Marquise Track,Richardson Lake Highlands,82.1,145.15,97.52,170.1,412.77,Single-ply,SBD,M
Boys,82.1,13,Robert Merryfield,Frisco Heritage,77.52,149.69,86.18,172.37,408.23,Single-ply,SBD,M
Boys,82.1,14,Alex Vasquez,Carrollton Creekview,77.25,142.88,92.99,142.88,378.75,Single-ply,SBD,M
Boys,82.1,15,Neal Botteron,Frisco Heritage,75.21,115.67,106.59,142.88,365.14,Single-ply,SBD,M
Boys,82.1,16,Price Peters,Dallas Highland Park,77.56,124.74,79.38,154.22,358.34,Single-ply,SBD,M
Boys,82.1,17,Jacob Gray,Frisco Heritage,80.24,122.47,77.11,136.08,335.66,Single-ply,SBD,M
Boys,82.1,18,Jeremiah Luke,Frisco Heritage,76.79,106.59,63.5,117.93,288.03,Single-ply,SBD,M
Boys,82.1,19,Holt Gandy,Dallas Highland Park,77.79,92.99,61.23,127.01,281.23,Single-ply,SBD,M
Boys,82.1,20,Bo Ropp,Dallas Highland Park,75.84,81.65,49.9,104.33,235.87,Single-ply,SBD,M
Boys,89.81,1,Denzel Lewis,Lancaster,88.13,208.65,102.06,219.99,530.7,Single-ply,SBD,M
Boys,89.81,2,Lance Honeycutt,Northwest Nelson,87,210.92,115.67,188.24,514.83,Single-ply,SBD,M
Boys,99.79,3,Nick Sepper,Frisco Wakeland,89.99,204.12,115.67,185.97,505.76,Single-ply,SBD,M
Boys,89.81,4,Josh Garcias,Carrollton Creekview,88.45,183.7,120.2,188.24,492.15,Single-ply,SBD,M
Boys,99.79,5,Adrian Williams,Carrollton Creekview,90.04,163.29,124.74,190.51,478.54,Single-ply,SBD,M
Boys,89.81,6,Peter Gaston,Lancaster,86.73,179.17,88.45,206.38,474,Single-ply,SBD,M
Boys,89.81,7,Chris Henricks,Frisco Wakeland,83.32,176.9,104.33,190.51,471.74,Single-ply,SBD,M
Boys,89.81,8,Blake Daniels,Richardson Lake Highlands,85.5,161.03,127.01,181.44,469.47,Single-ply,SBD,M
Boys,89.81,9,Carlos Guzman,Prosper,83.6,174.63,106.59,165.56,446.79,Single-ply,SBD,M
Boys,89.81,10,Andrew Wainscott,Northwest Nelson,85.23,154.22,99.79,149.69,403.7,Single-ply,SBD,M
Boys,89.81,11,Brooks Oden,Dallas Highland Park,86.23,145.15,99.79,151.95,396.89,Single-ply,SBD,M
Boys,99.79,12,Matthew Riggs,Dallas Highland Park,89.9,136.08,97.52,154.22,387.82,Single-ply,SBD,M
Boys,89.81,13,Mark Jolas,Dallas Highland Park,89.31,113.4,61.23,136.08,310.71,Single-ply,SBD,M
Boys,89.81,14,Lee Longino,Dallas Highland Park,87.09,113.4,63.5,124.74,301.64,Single-ply,SBD,M
Boys,89.81,15,Payton Phillips,Dallas Highland Park,84.46,113.4,56.7,124.74,294.84,Single-ply,SBD,M
Boys,89.81,DQ,Mitch Balderas,Dallas White,82.69,,,,,Single-ply,SBD,M
Boys,89.81,DQ,Reggie Marshall,Richardson Lake Highlands,83.78,115.67,,,,Single-ply,SBD,M
Boys,99.79,1,Tyler Carver,Frisco Wakeland,97.93,226.8,149.69,206.38,582.87,Single-ply,SBD,M
Boys,99.79,2,Gage Shorter,Dallas Highland Park,94.08,204.12,149.69,204.12,557.92,Single-ply,SBD,M
Boys,99.79,3,Ben Laurent,Richardson Lake Highlands,95.62,204.12,124.74,208.65,537.51,Single-ply,SBD,M
Boys,99.79,4,Jonathan Garza,Richardson Lake Highlands,99.29,226.8,163.29,142.88,532.97,Single-ply,SBD,M
Boys,99.79,5,Nic Salinaro,Dallas Highland Park,94.98,190.51,113.4,217.72,521.63,Single-ply,SBD,M
Boys,99.79,6,Andrew Dotson,Northwest Nelson,94.44,195.04,99.79,215.46,510.29,Single-ply,SBD,M
Boys,99.79,7,Dakota Lincoln,Frisco Wakeland,95.71,181.44,115.67,167.83,464.93,Single-ply,SBD,M
Boys,99.79,8,Caz Orr,Dallas Highland Park,91.4,167.83,113.4,172.37,453.59,Single-ply,SBD,M
Boys,99.79,9,Andrew Clyde,Dallas Highland Park,93.94,138.35,113.4,165.56,417.3,Single-ply,SBD,M
Boys,99.79,10,Fernando Perez,Carrollton Turner,97.98,188.24,79.38,145.15,412.77,Single-ply,SBD,M
Boys,99.79,11,Luis Triano,Carrollton Turner,98.84,158.76,79.38,174.63,412.77,Single-ply,SBD,M
Boys,99.79,12,Jonathan Johnson,Richardson Lake Highlands,92.85,142.88,104.33,156.49,403.7,Single-ply,SBD,M
Boys,99.79,13,Craig White,Lancaster,96.66,142.88,95.25,163.29,401.43,Single-ply,SBD,M
Boys,99.79,14,Alex Greer,Lancaster,94.85,147.42,88.45,145.15,381.02,Single-ply,SBD,M
Boys,99.79,15,Brian Taylor,Lancaster,99.7,111.13,61.23,136.08,308.44,Single-ply,SBD,M
Boys,99.79,16,Alan Garcia,Dallas White,95.21,83.91,58.97,97.52,240.4,Single-ply,SBD,M
Boys,99.79,DQ,Jack Landen,Dallas Highland Park,91.31,113.4,70.31,138.35,,Single-ply,SBD,M
Boys,99.79,DQ,Will Wigginton,Dallas Highland Park,92.99,,,,,Single-ply,SBD,M
Boys,99.79,DQ,Chris Stevens #3,Dallas White,91.67,104.33,61.23,,,Single-ply,SBD,M
Boys,99.79,DQ,Chris Maxey,Carrollton Creekview,96.75,199.58,,,,Single-ply,SBD,M
Boys,109.77,1,Nigel Spencer,Northwest Nelson,100.88,210.92,108.86,204.12,523.9,Single-ply,SBD,M
Boys,109.77,2,Kevin Salas,Prosper,101.56,190.51,147.42,185.97,523.9,Single-ply,SBD,M
Boys,109.77,3,Darius Jones,Lancaster,105.78,192.78,104.33,217.72,514.83,Single-ply,SBD,M
Boys,109.77,4,James Weimer,Nevada Community,105.82,206.38,99.79,183.7,489.88,Single-ply,SBD,M
Boys,109.77,5,Dequan Washington,Carrollton Ranchview,107.05,190.51,113.4,179.17,483.08,Single-ply,SBD,M
Boys,109.77,6,Ahmon Mayes,Prosper,108.36,181.44,106.59,185.97,474,Single-ply,SBD,M
Boys,109.77,7,Jacob Sarracino,Dallas Highland Park,100.61,161.03,124.74,181.44,467.2,Single-ply,SBD,M
Boys,124.74,8,Charlie McKenzie,Dallas Highland Park,109.86,165.56,120.2,181.44,467.2,Single-ply,SBD,M
Boys,109.77,9,Bennett Campbell,Dallas Highland Park,108.86,170.1,102.06,170.1,442.25,Single-ply,SBD,M
Boys,109.77,10,Brandon James,Dallas White,102.83,165.56,113.4,156.49,435.45,Single-ply,SBD,M
Boys,109.77,11,Brandon Fleischmann,Northwest Nelson,103.46,142.88,108.86,158.76,410.5,Single-ply,SBD,M
Boys,109.77,12,Jonathan Delvalle,Carrollton Turner,104.24,154.22,79.38,140.61,374.21,Single-ply,SBD,M
Boys,109.77,13,David Fridae,Carrollton Turner,109.68,149.69,68.04,154.22,371.95,Single-ply,SBD,M
Boys,109.77,14,Clayton Woods,Dallas Highland Park,105.37,136.08,83.91,95.25,315.25,Single-ply,SBD,M
Boys,124.74,DQ,David Garza,Carrollton Creekview,109.91,,,,,Single-ply,SBD,M
Boys,109.77,DQ,Wayne Taylor,Richardson Lake Highlands,104.1,,,,,Single-ply,SBD,M
Boys,124.74,1,Ethan Beasley,Dallas Highland Park,117.84,215.46,120.2,204.12,539.77,Single-ply,SBD,M
Boys,124.74,2,Fritz Hull,Prosper,112.35,208.65,127.01,199.58,535.24,Single-ply,SBD,M
Boys,124.74,3,Dominic Cabrera,Frisco Wakeland,123.97,226.8,115.67,185.97,528.44,Single-ply,SBD,M
Boys,124.74,4,Nick Gee,Prosper,117.12,170.1,117.93,170.1,458.13,Single-ply,SBD,M
Boys,124.74,5,Jeff Forst,Frisco Heritage,110.72,172.37,88.45,181.44,442.25,Single-ply,SBD,M
Boys,124.74,6,Serafin Garcia,Carrollton Turner,116.12,163.29,77.11,163.29,403.7,Single-ply,SBD,M
Boys,124.74+,1,Matt Hawkins,Nevada Community,137.57,267.62,140.61,242.67,650.91,Single-ply,SBD,M
Boys,124.74+,2,Markell Garner,Lancaster,142.34,249.48,127.01,165.56,542.04,Single-ply,SBD,M
Boys,124.74+,3,Brent Caughron,Carrollton Creekview,138.98,195.04,136.08,204.12,535.24,Single-ply,SBD,M
Boys,124.74+,4,Horace Williams,Dallas White,154.63,197.31,131.54,181.44,510.29,Single-ply,SBD,M
Boys,124.74+,5,Ryan Turner,Carrollton Ranchview,135.08,197.31,115.67,183.7,496.68,Single-ply,SBD,M
Boys,124.74+,DQ,Jerry Kha,Carrollton Creekview,141.66,183.7,,,,Single-ply,SBD,M
Boys,,NS,Deven Barnes,Carrollton Creekview,,,,,,Single-ply,SBD,M
Boys,,NS,Kahlil Edwards,Carrollton Ranchview,,,,,,Single-ply,SBD,M
Boys,,NS,Aaron Mazyck,Carrollton Ranchview,,,,,,Single-ply,SBD,M
Boys,,NS,Tyler Weaver,Carrollton Ranchview,,,,,,Single-ply,SBD,M
Boys,,NS,Julian Abdallah,Carrollton Ranchview,,,,,,Single-ply,SBD,M
Boys,,NS,Josh Leachman,Dallas Highland Park,,,,,,Single-ply,SBD,M
Boys,,NS,Trey Crumbley,Dallas Highland Park,,,,,,Single-ply,SBD,M
Boys,,NS,Ben Webster,Dallas Highland Park,,,,,,Single-ply,SBD,M
Boys,,NS,Hilton Kennington,Dallas Highland Park,,,,,,Single-ply,SBD,M
Boys,,NS,James Robertson #4,Dallas Highland Park,,,,,,Single-ply,SBD,M
Boys,,NS,Corey Barron,Nevada Community,,,,,,Single-ply,SBD,M
Boys,,NS,Rj Carranza,Nevada Community,,,,,,Single-ply,SBD,M
Boys,,NS,Luis Lopez #2,Prosper,,,,,,Single-ply,SBD,M
Boys,,NS,Drew DeHaven,Northwest Nelson,,,,,,Single-ply,SBD,M
Boys,,NS,Kris Johnson #1,Dallas Spruce,,,,,,Single-ply,SBD,M
Boys,,NS,Trevor Turner,Dallas Spruce,,,,,,Single-ply,SBD,M
Boys,,NS,Morgan Hubbard,Richardson Lake Highlands,,,,,,Single-ply,SBD,M
Boys,,NS,Marvin Owens,Northwest Nelson,,,,,,Single-ply,SBD,M
