Division,WeightClassKg,Place,Name,Team,BodyweightKg,Best3SquatKg,Best3BenchKg,Best3DeadliftKg,TotalKg,Equipment,Event,Sex
Boys,51.71,1,Esteban Urquieta,Corpus Christi Tuloso-Midway,51.35,170.1,68.04,183.7,421.84,Single-ply,SBD,M
Boys,51.71,2,Michael Benavides,Corpus Christi Tuloso-Midway,48.81,86.18,52.16,108.86,247.21,Single-ply,SBD,M
Boys,51.71,3,Cory Moore,Corpus Christi Calallen,49.17,63.5,40.82,90.72,195.04,Single-ply,SBD,M
Boys,55.79,1,Isaiah Alaniz,Corpus Christi Tuloso-Midway,55.16,129.27,81.65,117.93,328.85,Single-ply,SBD,M
Boys,55.79,DQ,D'Orian Steamer,Freeport Brazosport,51.8,83.91,,,,Single-ply,SBD,M
Boys,55.79,DQ,Gabriel Herrera,Mathis,54.98,,,,,Single-ply,SBD,M
Boys,59.87,1,Lucas Lara,Mathis,59.24,161.03,106.59,195.04,462.66,Single-ply,SBD,M
Boys,59.87,2,Joe Alvarez,Beeville Jones,59.51,149.69,92.99,179.17,421.84,Single-ply,SBD,M
Boys,59.87,3,Juan Vasquez #1,Corpus Christi Calallen,58.69,165.56,77.11,163.29,405.97,Single-ply,SBD,M
Boys,59.87,4,Bryan Lucio,Beeville Jones,59.69,147.42,83.91,174.63,405.97,Single-ply,SBD,M
Boys,59.87,5,Austin Gonzalez,Robstown,59.33,147.42,92.99,145.15,385.55,Single-ply,SBD,M
Boys,59.87,6,Zechariah Segovia,Beeville Jones,59.51,138.35,83.91,145.15,367.41,Single-ply,SBD,M
Boys,59.87,7,Elijah Ybarra,Mathis,59.87,113.4,83.91,147.42,344.73,Single-ply,SBD,M
Boys,59.87,8,Andrew Medina,Corpus Christi Calallen,57.52,120.2,72.57,136.08,328.85,Single-ply,SBD,M
Boys,59.87,9,Francisco Castro,Freeport Brazosport,59.78,102.06,72.57,136.08,310.71,Single-ply,SBD,M
Boys,67.13,1,Cristian Alvarado,Corpus Christi Calallen,66.09,206.38,117.93,195.04,519.36,Single-ply,SBD,M
Boys,67.13,2,Jaysen Orozco,Corpus Christi Calallen,66.41,190.51,124.74,201.85,517.1,Single-ply,SBD,M
Boys,67.13,3,Gabriel Quinones,Gregory-Portland,65.32,195.04,113.4,195.04,503.49,Single-ply,SBD,M
Boys,67.13,4,Felix Del Rio,Robstown,66.41,158.76,102.06,167.83,428.64,Single-ply,SBD,M
Boys,67.13,5,John Roballi,Robstown,66.04,163.29,92.99,170.1,426.38,Single-ply,SBD,M
Boys,67.13,6,Eric Silva,Robstown,64.41,158.76,106.59,151.95,417.3,Single-ply,SBD,M
Boys,67.13,7,Juan Mendoza #2,Freeport Brazosport,64.5,147.42,99.79,170.1,417.3,Single-ply,SBD,M
Boys,67.13,8,Ramiro DeLeon,Mathis,67.04,158.76,88.45,158.76,405.97,Single-ply,SBD,M
Boys,67.13,9,Joshua Dutiel,Beeville Jones,65.05,133.81,92.99,163.29,390.09,Single-ply,SBD,M
Boys,67.13,10,Tyler Cowley,Corpus Christi Calallen,62.14,133.81,81.65,158.76,374.21,Single-ply,SBD,M
Boys,67.13,11,Skyler Sowers,Mathis,63.32,129.27,77.11,147.42,353.8,Single-ply,SBD,M
Boys,67.13,12,Austin Contreras,Corpus Christi Tuloso-Midway,63.23,113.4,68.04,161.03,342.46,Single-ply,SBD,M
Boys,67.13,13,Jordan Gonzales,Gregory-Portland,60.51,113.4,49.9,127.01,290.3,Single-ply,SBD,M
Boys,67.13,DQ,Andrew Garcia,Mathis,67.04,183.7,,,,Single-ply,SBD,M
Boys,74.84,1,Joe Sauceda,Gregory-Portland,74.03,204.12,104.33,172.37,480.81,Single-ply,SBD,M
Boys,74.84,2,Eric Lara,Beeville Jones,71.94,181.44,104.33,188.24,474,Single-ply,SBD,M
Boys,74.84,3,Caleb Graddick,Freeport Brazosport,74.66,163.29,104.33,199.58,467.2,Single-ply,SBD,M
Boys,74.84,4,Zachary Rodriguez,Three Rivers,71.4,170.1,99.79,181.44,451.32,Single-ply,SBD,M
Boys,74.84,5,Chiso Nwamkpa,Corpus Christi Tuloso-Midway,70.4,154.22,113.4,181.44,449.06,Single-ply,SBD,M
Boys,74.84,6,Philip Sullivan,Corpus Christi Tuloso-Midway,71.12,161.03,83.91,158.76,403.7,Single-ply,SBD,M
Boys,74.84,7,James Romero,Odem,74.39,156.49,95.25,142.88,394.63,Single-ply,SBD,M
Boys,74.84,DQ,Trey Hernandez,Beeville Jones,69.76,,,,,Single-ply,SBD,M
Boys,74.84,DQ,Oscar Lopez,Agua Dulce,74.84,195.04,,,,Single-ply,SBD,M
Boys,82.1,1,Joel Garza,Corpus Christi Calallen,75.57,231.33,133.81,238.14,603.28,Single-ply,SBD,M
Boys,82.1,2,Damian Hinojosa,Corpus Christi Calallen,81.37,192.78,133.81,208.65,535.24,Single-ply,SBD,M
Boys,82.1,3,Adrian Morin,Odem,81.01,181.44,111.13,170.1,462.66,Single-ply,SBD,M
Boys,82.1,4,Lucas Lopez,Odem,81.65,170.1,102.06,190.51,462.66,Single-ply,SBD,M
Boys,82.1,5,Gabriel Rivera,Robstown,76.57,174.63,102.06,176.9,453.59,Single-ply,SBD,M
Boys,82.1,6,Cody Byars,Corpus Christi Calallen,76.57,117.93,63.5,158.76,340.19,Single-ply,SBD,M
Boys,82.1,DQ,Enrique Espinoza,Mathis,79.83,,,,,Single-ply,SBD,M
Boys,89.81,1,Dante Vasquez,Corpus Christi Tuloso-Midway,88.81,233.6,138.35,204.12,576.06,Single-ply,SBD,M
Boys,89.81,2,Tevin Moreno,Odem,86.91,233.6,124.74,213.19,571.53,Single-ply,SBD,M
Boys,89.81,3,Orlando Gonzalez,Odem,86.45,215.46,133.81,213.19,562.45,Single-ply,SBD,M
Boys,89.81,4,Robert Dorsch,Corpus Christi Calallen,88.72,179.17,99.79,199.58,478.54,Single-ply,SBD,M
Boys,89.81,5,Michael Barajas,Mathis,89.63,195.04,111.13,170.1,476.27,Single-ply,SBD,M
Boys,89.81,6,Landon Garza,Odem,84.28,154.22,102.06,149.69,405.97,Single-ply,SBD,M
Boys,89.81,7,Alex Diaz #3,Three Rivers,82.74,154.22,86.18,145.15,385.55,Single-ply,SBD,M
Boys,89.81,8,Nicolas Gutierrez,Mathis,88.72,142.88,90.72,136.08,369.68,Single-ply,SBD,M
Boys,89.81,9,Joey Gamez,Odem,86.36,102.06,88.45,129.27,319.78,Single-ply,SBD,M
Boys,89.81,DQ,Brody Raines,Gregory-Portland,89.81,,,,,Single-ply,SBD,M
Boys,89.81,DQ,Jesse Hernandez,Robstown,84.28,,,,,Single-ply,SBD,M
Boys,99.79,1,Federico Ruiz Jr,Corpus Christi Calallen,99.34,288.03,170.1,290.3,748.43,Single-ply,SBD,M
Boys,99.79,2,Victor Mendez,Gregory-Portland,95.25,226.8,124.74,231.33,582.87,Single-ply,SBD,M
Boys,99.79,3,Tyler Gassaway,Gregory-Portland,94.8,215.46,142.88,215.46,573.79,Single-ply,SBD,M
Boys,99.79,4,Ross Delgado,Gregory-Portland,96.07,238.14,124.74,199.58,562.45,Single-ply,SBD,M
Boys,99.79,5,Ryan Rasburry,Mathis,93.62,226.8,113.4,192.78,532.97,Single-ply,SBD,M
Boys,99.79,6,Alejandro Ortega,Corpus Christi Calallen,91.72,172.37,127.01,197.31,496.68,Single-ply,SBD,M
Boys,99.79,7,Andrew Vasquez,Corpus Christi Calallen,96.8,149.69,97.52,149.69,396.89,Single-ply,SBD,M
Boys,99.79,8,Phillip Conner,Gregory-Portland,97.79,145.15,92.99,156.49,394.63,Single-ply,SBD,M
Boys,99.79,9,Rylan Griffin,Corpus Christi Calallen,99.79,133.81,106.59,154.22,394.63,Single-ply,SBD,M
Boys,99.79,10,Gage Gomez,Gregory-Portland,97.07,138.35,92.99,158.76,390.09,Single-ply,SBD,M
Boys,99.79,DQ,Joe Montoya,Beeville Jones,93.44,174.63,95.25,,,Single-ply,SBD,M
Boys,109.77,1,Austin Kennemer,Agua Dulce,102.06,240.4,156.49,233.6,630.49,Single-ply,SBD,M
Boys,109.77,2,Sebastian Opal,Gregory-Portland,102.87,215.46,131.54,206.38,553.38,Single-ply,SBD,M
Boys,109.77,3,Julian Beltran,Corpus Christi Calallen,109.68,217.72,122.47,199.58,539.77,Single-ply,SBD,M
Boys,109.77,4,Seth Colsa,Corpus Christi Calallen,103.51,188.24,108.86,172.37,469.47,Single-ply,SBD,M
Boys,109.77,5,Michael Poling,Gregory-Portland,103.33,158.76,108.86,176.9,444.52,Single-ply,SBD,M
Boys,109.77,6,Steven Pena,Robstown,105.32,174.63,115.67,145.15,435.45,Single-ply,SBD,M
Boys,109.77,7,Aaron Hernandez,Robstown,101.15,117.93,102.06,142.88,362.87,Single-ply,SBD,M
Boys,109.77,DQ,Brandon Rodriguez #2,Robstown,106.96,,102.06,,,Single-ply,SBD,M
Boys,109.77,DQ,John Espinoza,Odem,102.69,,,,,Single-ply,SBD,M
Boys,109.77,DQ,Leo Soliz,Corpus Christi Tuloso-Midway,106.23,215.46,,,,Single-ply,SBD,M
Boys,124.74,1,Luis Garcia #5,Odem,122.74,260.82,163.29,231.33,655.44,Single-ply,SBD,M
Boys,124.74,2,Louie Sanchez,Three Rivers,124.65,263.08,158.76,224.53,646.37,Single-ply,SBD,M
Boys,124.74,3,Jermayne Miller,Beeville Jones,121.11,244.94,136.08,249.48,630.49,Single-ply,SBD,M
Boys,124.74,4,Gilbert Cruz,Odem,119.39,170.1,154.22,199.58,523.9,Single-ply,SBD,M
Boys,124.74,5,Julian Gomez,Odem,111.49,199.58,138.35,183.7,521.63,Single-ply,SBD,M
Boys,124.74,6,Trey Vaiz,Robstown,110.4,183.7,129.27,197.31,510.29,Single-ply,SBD,M
Boys,124.74,7,Blake Karpenski,Corpus Christi Calallen,116.75,197.31,97.52,206.38,501.22,Single-ply,SBD,M
Boys,124.74,8,Demitri Castro,Corpus Christi Calallen,119.02,170.1,106.59,185.97,462.66,Single-ply,SBD,M
Boys,124.74,DQ,Luis Rodriguez,Freeport Brazosport,122.92,197.31,120.2,,,Single-ply,SBD,M
Boys,124.74+,1,Daniel Martinez #9,Beeville Jones,141.16,254.01,181.44,233.6,669.05,Single-ply,SBD,M
Boys,124.74+,2,Jesus Martinez,Robstown,148.23,170.1,120.2,170.1,460.4,Single-ply,SBD,M
Boys,124.74+,DQ,Christian Guevara,Freeport Brazosport,129,,,,,Single-ply,SBD,M
Boys,124.74+,DQ,Jon Rodriguez,Agua Dulce,132.9,256.28,149.69,,,Single-ply,SBD,M
