Division,WeightClassKg,Place,Name,Team,BodyweightKg,Best3SquatKg,Best3BenchKg,Best3DeadliftKg,TotalKg,Equipment,Event,Sex,BirthDate
Boys,55.79,1,Zaniel Florez,Kermit,53.98,158.76,79.38,165.56,403.7,Single-ply,SBD,M,
Boys,55.79,2,Caison Burrus,Fort Stockton,55.79,149.69,70.31,158.76,378.75,Single-ply,SBD,M,
Boys,55.79,3,Jorge Delgado,Andrews,52.71,117.93,61.23,136.08,315.25,Single-ply,SBD,M,
Boys,55.79,4,Ryan Ramirez,Monahans,53.98,111.13,56.7,127.01,294.84,Single-ply,SBD,M,
Boys,55.79,5,Daniel Renteria,Fort Stockton,55.07,99.79,63.5,102.06,265.35,Single-ply,SBD,M,
Boys,55.79,6,Jose Vasquez Cruz,Andrews,53.52,111.13,,,111.13,Single-ply,S,M,
Boys,59.87,1,Kendrick Porras,Fort Stockton,59.87,154.22,83.91,192.78,430.91,Single-ply,SBD,M,
Boys,59.87,2,Darian Renteria,Fort Stockton,57.97,117.93,61.23,108.86,288.03,Single-ply,SBD,M,
Boys,59.87,3,Nathan Wessels,Monahans,56.43,95.25,52.16,106.59,254.01,Single-ply,SBD,M,
Boys,67.13,1,Matthew Rosas,McCamey,65.41,167.83,90.72,183.7,442.25,Single-ply,SBD,M,
Boys,67.13,2,Daniel Montano,Andrews,63.59,142.88,86.18,172.37,401.43,Single-ply,SBD,M,
Boys,67.13,3,Xavier Urias,McCamey,65.32,136.08,90.72,136.08,362.87,Single-ply,SBD,M,
Boys,67.13,DQ,Keagan Roberson,Monahans,62.32,,,,,Single-ply,SBD,M,
Boys,74.84,1,Lucas Esparza,Andrews,70.22,204.12,111.13,222.26,537.51,Single-ply,SBD,M,
Boys,74.84,2,David Olivas,Andrews,73.75,174.63,102.06,185.97,462.66,Single-ply,SBD,M,
Boys,74.84,3,George Wagner,Andrews,73.3,174.63,99.79,185.97,460.4,Single-ply,SBD,M,
Boys,74.84,4,Jacob Gutierrez,Andrews,69.58,172.37,88.45,174.63,435.45,Single-ply,SBD,M,
Boys,74.84,5,Jesus Villegas,Kermit,68.13,158.76,92.99,167.83,419.57,Single-ply,SBD,M,
Boys,74.84,6,Diego Renteria,Fort Stockton,69.85,156.49,99.79,151.95,408.23,Single-ply,SBD,M,
Boys,74.84,7,Jose Mota,McCamey,74.12,138.35,70.31,142.88,351.53,Single-ply,SBD,M,
Boys,74.84,8,Noah Powell,Monahans,71.67,122.47,81.65,140.61,344.73,Single-ply,SBD,M,
Boys,74.84,9,Gadiel Rubio,Monahans,67.86,113.4,77.11,120.2,310.71,Single-ply,SBD,M,
Boys,74.84,10,Gaviel Burrola,Kermit,67.22,102.06,61.23,127.01,290.3,Single-ply,SBD,M,
Boys,82.1,1,Jaydrien Ramirez,Fort Stockton,80.47,224.53,136.08,195.04,555.65,Single-ply,SBD,M,
Boys,82.1,2,Alex Natera,Alpine,80.83,188.24,122.47,195.04,505.76,Single-ply,SBD,M,
Boys,82.1,3,Ernan Carrasco,Andrews,79.65,179.17,102.06,188.24,469.47,Single-ply,SBD,M,
Boys,82.1,4,Syreal Biaza,McCamey,75.48,181.44,104.33,161.03,446.79,Single-ply,SBD,M,
Boys,82.1,5,Robert Vasquez,Alpine,82.1,129.27,65.77,158.76,353.8,Single-ply,SBD,M,
Boys,82.1,DQ,Ricardo Tarango,Alpine,78.2,,,,,Single-ply,SBD,M,
Boys,89.81,1,Justin Sanchez,Fort Stockton,87.36,154.22,140.61,192.78,487.61,Single-ply,SBD,M,
Boys,89.81,2,Joel Munguia,Kermit,87.36,167.83,86.18,165.56,419.57,Single-ply,SBD,M,
Boys,89.81,3,Tristan Smith,Alpine,89.36,122.47,74.84,158.76,356.07,Single-ply,SBD,M,
Boys,99.79,1,Petronillo Bustamante,Andrews,90.63,229.06,131.54,219.99,580.6,Single-ply,SBD,M,
Boys,99.79,2,Cameron Saldivar,Andrews,98.25,181.44,113.4,170.1,464.93,Single-ply,SBD,M,
Boys,99.79,3,Damian Herrera,Monahans,97.34,142.88,117.93,181.44,442.25,Single-ply,SBD,M,
Boys,109.77,1,Mikial Burrola,Kermit,101.06,231.33,151.95,208.65,591.94,Single-ply,SBD,M,
Boys,109.77,2,Adrian Salcido,Andrews,108.32,185.97,133.81,188.24,508.02,Single-ply,SBD,M,
Boys,109.77,3,Cash Caswell,Andrews,108.5,179.17,108.86,204.12,492.15,Single-ply,SBD,M,
Boys,109.77,4,Alec Aranda,Alpine,106.78,74.84,56.7,117.93,249.48,Single-ply,SBD,M,
Boys,109.77,DQ,Jacob Payne,Monahans,109.59,192.78,104.33,,,Single-ply,SBD,M,
Boys,124.74,1,Jayson Pagan,McCamey,117.39,256.28,145.15,219.99,621.42,Single-ply,SBD,M,
Boys,124.74,2,Cade Bayer,Fort Stockton,111.95,183.7,115.67,179.17,478.54,Single-ply,SBD,M,
Boys,124.74,3,Moises Rodriguez,Monahans,113.4,170.1,108.86,190.51,469.47,Single-ply,SBD,M,
Boys,124.74,4,Eliseo Bonilla,Kermit,110.31,167.83,113.4,174.63,455.86,Single-ply,SBD,M,
Boys,139.71,1,Luis Mendoza,Fort Stockton,135.35,215.46,136.08,165.56,517.1,Single-ply,SBD,M,
Boys,139.71,2,Ernesto Martinez,Alpine,137.89,102.06,70.31,99.79,272.16,Single-ply,SBD,M,
Boys,,NS,Marco Martínez,Alpine,,,,,,Single-ply,SBD,M,
Boys,,NS,Martin Stone,McCamey,,,,,,Single-ply,SBD,M,
Boys,,NS,Samarius Cooley,Monahans,,,,,,Single-ply,SBD,M,
