Place,Name,State,WeightClassKg,BodyweightKg,BirthDate,Age,Squat1Kg,Squat2Kg,Squat3Kg,Best3SquatKg,Bench1Kg,Bench2Kg,Bench3Kg,Best3BenchKg,Deadlift1Kg,Deadlift2Kg,Deadlift3Kg,Best3DeadliftKg,TotalKg,Bench4Kg,Deadlift4Kg,Event,Equipment,Sex,Division,Tested
1,Holli Carden,FL,52,51.9,,17,75,82.5,-87.5,82.5,55,60,62.5,62.5,105,112.5,-117.5,112.5,257.5,63.5,,SBD,Raw,F,Juniors 16-17,Yes
1,Tatum Strichik,AL,82.5,81.9,,24,57.5,65,70,70,40,-45,-45,40,75,85,92.5,92.5,202.5,,,SBD,Raw,F,Open,Yes
1,Avery Culver,AL,44,43.2,,35,55,60,-65,60,32.5,35,-37.5,35,75,85,92.5,92.5,187.5,,,SBD,Raw,F,Open,Yes
1,Kristin Brown,AL,56,55,,32,97.5,-102.5,-102.5,97.5,60,65,68,68,107.5,117.5,122.5,122.5,288,,,SBD,Raw,F,Open,Yes
1,Haleigh Luker,FL,75,72.5,,24,127.5,137.5,-140,137.5,-62.5,62.5,72.5,72.5,132.5,145,155,155,365,,,SBD,Raw,F,Open,Yes
2,Brittany Plaisance,LA,75,71.4,,30,100,107.5,-120,107.5,50,55,-60,55,130,132.5,137.5,137.5,300,,,SBD,Raw,F,Open,Yes
3,Hilary Welton,AL,75,74.9,,29,-100,-100,100,100,62.5,-65,65,65,130,-135,,130,295,,,SBD,Raw,F,Open,Yes
4,Mckenzi Brown,AL,75,73.6,,25,80,-90,90,90,45,50,-52.5,50,102.5,107.5,-110,107.5,247.5,,,SBD,Raw,F,Open,Yes
1,Kimberlea Hood,AL,82.5,81.8,,31,90,100,110,110,62.5,67.5,-70,67.5,110,125,132.5,132.5,310,,,SBD,Raw,F,Open,Yes
2,Tatum Strichik,AL,82.5,81.9,,24,57.5,65,70,70,40,-45,-45,40,75,85,92.5,92.5,202.5,,,SBD,Raw,F,Open,Yes
1,Kathryn Ford,AL,90+,98.3,,26,127.5,140,147.5,147.5,70,75,82.5,82.5,127.5,142.5,157.5,157.5,387.5,,,SBD,Raw,F,Open,Yes
2,Ashley Morey,GA,90+,118.7,,32,92.5,105,-110,105,65,67.5,70,70,102.5,110,120,120,295,,,SBD,Raw,F,Open,Yes
1,Avery Culver,AL,44,43.2,,35,55,60,-65,60,32.5,35,-37.5,35,75,85,92.5,92.5,187.5,,,SBD,Raw,F,Submasters 35-39,Yes
1,Kimberly Butler #1,TN,90+,112.5,,37,110,115,120,120,77.5,82.5,-87.5,82.5,140,152.5,162.5,162.5,365,,,SBD,Raw,F,Submasters 35-39,Yes
1,Elijah Staggs-Laughrey,AL,56,55.1,,15,55,-60,70,70,40,-52.5,-52.5,40,75,77.5,82.5,82.5,192.5,,,SBD,Raw,M,Juniors 13-15,Yes
1,Kelly Jalkh,AL,67.5,65.4,,18,135,142.5,152.5,152.5,95,102.5,110,110,172.5,187.5,200,200,462.5,115,,SBD,Raw,M,Juniors 18-19,Yes
1,Tyler Robles,AL,75,74.3,,16,177.5,185,-192.5,185,110,115,-122.5,115,220,235,-245,235,535,,,SBD,Raw,M,Juniors 16-17,Yes
1,Patrick Sengsiri,AL,82.5,80,,17,145,157.5,167.5,167.5,95,-100,105,105,192.5,205,215,215,487.5,,,SBD,Raw,M,Juniors 16-17,Yes
1,Jacob McGinty,AL,82.5,78.3,,21,170,-182.5,-182.5,170,97.5,102.5,107.5,107.5,180,-190,190,190,467.5,,,SBD,Raw,M,Juniors 20-23,Yes
1,Dalton Atchison,AL,90,85.1,,19,-215,215,-220,215,132.5,137.5,,137.5,222.5,230,235,235,587.5,,,SBD,Raw,M,Juniors 18-19,Yes
1,Chris Holsonback,AL,100,98.4,,16,192.5,200,210,210,97.5,105,-110,105,240,255,-265,255,570,,,SBD,Raw,M,Juniors 16-17,Yes
1,Zach Norton,AL,100,93.4,,22,130,140,147.5,147.5,77.5,85,90,90,145,155,175,175,412.5,,,SBD,Raw,M,Juniors 20-23,Yes
1,Michael Albertson,AL,110,107.5,,17,197.5,207.5,217.5,217.5,122.5,132.5,-142.5,132.5,245,265,-282.5,265,615,,,SBD,Raw,M,Juniors 16-17,Yes
1,Dalton Brooks,AL,110,107.7,,20,230,240,247.5,247.5,150,155,,155,237.5,250,260,260,662.5,,,SBD,Raw,M,Juniors 20-23,Yes
DQ,Patrick Smith,AL,125,112.6,,23,152.5,165,-177.5,165,-115,-115,-115,,182.5,195,-205,195,,,,SBD,Raw,M,Juniors 20-23,Yes
1,Tyler Robles,AL,75,74.3,,16,177.5,185,-192.5,185,110,115,-122.5,115,220,235,-245,235,535,,,SBD,Raw,M,Open,Yes
2,Zach Williams,AL,75,75,,28,175,180,182.5,182.5,135,142.5,-147.5,142.5,180,187.5,192.5,192.5,517.5,,,SBD,Raw,M,Open,Yes
1,Mitchell Hughes,AL,82.5,81.8,,31,202.5,215,227.5,227.5,145,157.5,165,165,250,262.5,-272.5,262.5,655,,,SBD,Raw,M,Open,Yes
2,Ryan Schwarzman,AL,82.5,76.9,,31,200,-210,-210,200,125,132.5,-137.5,132.5,245,257.5,-265,257.5,590,,,SBD,Raw,M,Open,Yes
3,Patrick Sengsiri,AL,82.5,80,,17,145,157.5,167.5,167.5,95,-100,105,105,192.5,205,215,215,487.5,,,SBD,Raw,M,Open,Yes
4,Jacob McGinty,AL,82.5,78.3,,21,170,-182.5,-182.5,170,97.5,102.5,107.5,107.5,180,-190,190,190,467.5,,,SBD,Raw,M,Open,Yes
5,Kenneth Williams #2,AL,82.5,80.1,,60,102.5,113,122.5,122.5,95,105,110.5,110.5,112.5,120,127.5,127.5,360.5,,,SBD,Raw,M,Open,Yes
1,Jawon Garrison,AL,90,84.3,,32,295,-305,305,305,200,220,,220,290,310,-325,310,835,,,SBD,Raw,M,Open,Yes
2,Dakota Hamm,AL,90,89.8,,28,192.5,200,212.5,212.5,-140,-147.5,147.5,147.5,225,240,247.5,247.5,607.5,,,SBD,Raw,M,Open,Yes
3,Dalton Atchison,AL,90,85.1,,19,-215,215,-220,215,132.5,137.5,,137.5,222.5,230,235,235,587.5,,,SBD,Raw,M,Open,Yes
4,Michael Sheridan,AL,90,89.3,,28,172.5,185,187.5,187.5,122.5,132.5,-137.5,132.5,217.5,235,,235,555,,,SBD,Raw,M,Open,Yes
1,Anthony Byrd,AL,100,99.6,,24,235,245,-265,245,152.5,160,167.5,167.5,255,275,-295,275,687.5,,,SBD,Raw,M,Open,Yes
2,Joshua Burch,AL,100,95.9,,33,230,-240,240,240,147.5,155,-160,155,250,260,-272.5,260,655,,,SBD,Raw,M,Open,Yes
3,Shawn Boshell,AL,100,97.2,,28,205,-217.5,220,220,145,152.5,-155,152.5,230,-242.5,242.5,242.5,615,,,SBD,Raw,M,Open,Yes
4,Chris Holsonback,AL,100,98.4,,16,192.5,200,210,210,97.5,105,-110,105,240,255,-265,255,570,,,SBD,Raw,M,Open,Yes
1,Peyton Floyd,AL,110,108,,27,172.5,180,182.5,182.5,117.5,125,,125,192.5,205,217.5,217.5,525,,,SBD,Raw,M,Open,Yes
2,Joseph Crowder,AL,110,105.6,,30,-157.5,165,177.5,177.5,105,115,-117.5,115,170,182.5,-192.5,182.5,475,,,SBD,Raw,M,Open,Yes
1,Alex Sorenson,AL,125,122.5,,26,205,220,230,230,112.5,125,132.5,132.5,205,220,227.5,227.5,590,,,SBD,Raw,M,Open,Yes
1,Benjamin Kissinger,AL,140,137.1,,29,235,-260,285,285,175,-190,-190,175,235,270,-290,270,730,,,SBD,Raw,M,Open,Yes
1,Trey Roberson,AL,140+,150.6,,24,325,-340,342.5,342.5,235,242.5,250,250,320,327.5,,327.5,920,,,SBD,Raw,M,Open,Yes
DQ,Randy Angle,AL,100,98.4,,35,-215,215,220,220,-147.5,-147.5,-147.5,,65,100,,100,,,142.5,SBD,Raw,M,Submasters 35-39,Yes
1,Kenneth Williams #2,AL,82.5,80.1,,60,102.5,113,122.5,122.5,95,105,110.5,110.5,112.5,120,127.5,127.5,360.5,,,SBD,Raw,M,Masters 60-64,Yes
1,Dwayne Richardson,AL,125,113.2,,58,-182.5,217.5,237.5,237.5,160,167.5,170,170,217.5,225,237.5,237.5,645,,,SBD,Raw,M,Masters 55-59,Yes
1,Robert Walker,AL,140,127.5,,51,117.5,122.5,-137.5,122.5,100,110,-120,110,165,170,177.5,177.5,410,,,SBD,Raw,M,Masters 50-54,Yes
1,Scott Carter,FL,75,72.6,,16,-175,-175,175,175,-115,-115,115,115,200,215,-220,215,505,,,SBD,Wraps,M,Juniors 16-17,Yes
1,Mikal Warren,AL,125,119,,19,275,-282.5,-282.5,275,135,142.5,150,150,265,277.5,285,285,710,,,SBD,Wraps,M,Juniors 18-19,Yes
1,Lance Pickett,AL,125,123.2,,23,255,-275,-275,255,150,162.5,172.5,172.5,227.5,-245,245,245,672.5,,,SBD,Wraps,M,Juniors 20-23,Yes
1,Marrius Garth,AL,125,119.7,,46,250,262.5,272.5,272.5,150,162.5,168,168,275,287.5,300,300,740.5,,,SBD,Wraps,M,Open,Yes
DQ,Jacob Doll,AL,140+,167.6,,27,190,-195,-195,190,-125,-135,-135,,205,-212.5,212.5,212.5,,,,SBD,Wraps,M,Open,Yes
1,Ronny Poag,AL,82.5,80.3,,62,-125,125,127.5,127.5,115,117.5,120,120,155,165,170,170,417.5,,,SBD,Wraps,M,Masters 60-64,Yes
1,Marrius Garth,AL,125,119.7,,46,250,262.5,272.5,272.5,150,162.5,168,168,275,287.5,300,300,740.5,,,SBD,Wraps,M,Masters 45-49,Yes
1,Kimberly Butler #1,TN,90+,112.5,,37,,,,,77.5,82.5,-87.5,82.5,,,,,82.5,,,B,Raw,F,Submasters 35-39,Yes
1,Austin Owens,AL,100,96.6,,25,,,,,137.5,147.5,160,160,,,,,160,,,B,Raw,M,Open,Yes
1,Joshua Smith,MS,110,109.4,,39,,,,,145,155,160,160,,,,,160,,,B,Raw,M,Open,Yes
1,Joshua Smith,MS,110,109.4,,39,,,,,145,155,160,160,,,,,160,,,B,Raw,M,Submasters 35-39,Yes
1,Eric Nelson #1,AL,100,98.2,,58,,,,,155,-160,-160,155,,,,,155,,,B,Raw,M,Masters 55-59,Yes
1,Kimberly Butler #1,TN,90+,112.5,,37,,,,,,,,,140,152.5,162.5,162.5,162.5,,,D,Raw,F,Submasters 35-39,Yes
1,Bob Walters,TN,82.5,79.2,,57,,,,,,,,,-185,185,-208,185,185,,,D,Raw,M,Open,Yes
DQ,Austin Owens,AL,100,96.6,,25,,,,,,,,,,,,,,,,D,Raw,M,Open,Yes
1,Bob Walters,TN,82.5,79.2,,57,,,,,,,,,-185,185,-208,185,185,,,D,Raw,M,Masters 55-59,Yes
1,Eric Nelson #1,AL,100,98.2,,58,,,,,,,,,162.5,177.5,-182.5,177.5,177.5,,,D,Raw,M,Masters 55-59,Yes
DQ,Joshua Smith,MS,110,109.4,,39,,,,,145,155,160,160,,,,,,,,BD,Raw,M,Open,Yes
DQ,Joshua Smith,MS,110,109.4,,39,,,,,145,155,160,160,,,,,,,,BD,Raw,M,Submasters 35-39,Yes
