Division,WeightClassKg,Place,Name,Team,BodyweightKg,Best3SquatKg,Best3BenchKg,Best3DeadliftKg,TotalKg,Equipment,Event,Sex
Boys,51.71,1,Echo Jones,Strawn,50.94,149.69,68.04,190.51,408.23,Single-ply,SBD,M
Boys,51.71,2,Jason Nguyen,Oakridge School,50.71,161.03,74.84,170.1,405.97,Single-ply,SBD,M
Boys,55.79,3,Mario Giron,Pilot Point,51.89,140.61,92.99,151.95,385.55,Single-ply,SBD,M
Boys,51.71,4,Sahir Alibhai,Oakridge School,48.85,99.79,68.04,117.93,285.76,Single-ply,SBD,M
Boys,51.71,5,Kyle Reed,Wichita Falls City View,48.81,111.13,47.63,115.67,274.42,Single-ply,SBD,M
Boys,55.79,6,Zachary Tucker,Perrin-Whitt,51.89,106.59,56.7,111.13,274.42,Single-ply,SBD,M
Boys,51.71,7,Seth McGehee,Bells,49.49,86.18,49.9,122.47,258.55,Single-ply,SBD,M
Boys,51.71,8,Dylan McElroy,Honey Grove,49.8,102.06,40.82,113.4,256.28,Single-ply,SBD,M
Boys,51.71,9,Chance Anderson,Leonard,50.85,97.52,47.63,102.06,247.21,Single-ply,SBD,M
Boys,55.79,10,Joseph Lewis,Bells,51.8,83.91,52.16,106.59,242.67,Single-ply,SBD,M
Boys,55.79,11,Jake Morris,Bowie,51.75,83.91,54.43,102.06,240.4,Single-ply,SBD,M
Boys,51.71,NS,Morgan Rhew,Sunnyvale,,,,,,Single-ply,SBD,M
Boys,55.79,1,Jordan Whiteside,Peaster,55.75,138.35,111.13,163.29,412.77,Single-ply,SBD,M
Boys,55.79,2,Louis Gonzales,Wichita Falls City View,55.2,138.35,79.38,158.76,376.48,Single-ply,SBD,M
Boys,55.79,3,Zack Allen #1,Ponder,55.16,147.42,77.11,142.88,367.41,Single-ply,SBD,M
Boys,55.79,4,Alex Rushing,Whitewright,53.57,127.01,77.11,133.81,337.93,Single-ply,SBD,M
Boys,59.87,5,Darius Jones,Dallas Life Oak Cliff,56.02,120.2,61.23,136.08,317.51,Single-ply,SBD,M
Boys,59.87,5,Darius Jones,Dallas Life Oak Cliff,56.02,120.2,61.23,136.08,317.51,Single-ply,SBD,M
Boys,55.79,6,Juan Mares,Bowie,53.61,117.93,72.57,124.74,315.25,Single-ply,SBD,M
Boys,55.79,7,Trayce Barber,Boyd,55.25,108.86,79.38,113.4,301.64,Single-ply,SBD,M
Boys,59.87,8,Jacob Cunliffe,Bells,56.02,97.52,65.77,113.4,276.69,Single-ply,SBD,M
Boys,55.79,NS,Jacob Grubisa,Farmersville,,,,,,Single-ply,SBD,M
Boys,55.79,NS,Michael Ducharme,Nocona Prairie Valley,,,,,,Single-ply,SBD,M
Boys,55.79,NS,Michael Slack,Whitewright,,,,,,Single-ply,SBD,M
Boys,59.87,1,Cristian Martinez,Bowie,58.83,176.9,99.79,192.78,469.47,Single-ply,SBD,M
Boys,67.13,2,J. Paul Axtell,Olney,59.96,167.83,97.52,170.1,435.45,Single-ply,SBD,M
Boys,59.87,3,Andrew Magedson,Leonard,59.47,156.49,92.99,165.56,415.04,Single-ply,SBD,M
Boys,59.87,4,Jared Holmes #2,Perrin-Whitt,59.06,149.69,83.91,176.9,410.5,Single-ply,SBD,M
Boys,59.87,5,Fernando Salas,Farmersville,59.6,158.76,83.91,163.29,405.97,Single-ply,SBD,M
Boys,67.13,6,Alex Montoya,Blue Ridge,59.92,151.95,81.65,167.83,401.43,Single-ply,SBD,M
Boys,59.87,7,Jj Brian,Leonard,59.74,158.76,83.91,156.49,399.16,Single-ply,SBD,M
Boys,59.87,8,Chris Bowling,Blue Ridge,59.33,147.42,92.99,154.22,394.63,Single-ply,SBD,M
Boys,59.87,9,David Colmenero,Pilot Point,59.47,154.22,72.57,,226.8,Single-ply,SB,M
Boys,59.87,NS,Kalyb Conner,Paradise,,,,,,Single-ply,SB,M
Boys,67.13,1,Abraham Landaverde,Bowie,66.63,199.58,122.47,195.04,517.1,Single-ply,SBD,M
Boys,67.13,2,Jayton Trammell,Santo,65.86,201.85,90.72,197.31,489.88,Single-ply,SBD,M
Boys,67.13,3,Darian Sotomi,Paradise,66.59,192.78,104.33,192.78,489.88,Single-ply,SBD,M
Boys,67.13,4,Tinnin Smith,Jacksboro,64.86,172.37,124.74,185.97,483.08,Single-ply,SBD,M
Boys,67.13,5,DeAndre Jones,Dallas Life Oak Cliff,64,161.03,102.06,195.04,458.13,Single-ply,SBD,M
Boys,67.13,5,DeAndre Jones,Dallas Life Oak Cliff,64,161.03,102.06,195.04,458.13,Single-ply,SBD,M
Boys,67.13,6,Wyat Burrows,Olney,64.95,165.56,79.38,195.04,439.98,Single-ply,SBD,M
Boys,67.13,7,Christian Contreras #2,Leonard,62.46,167.83,104.33,140.61,412.77,Single-ply,SBD,M
Boys,67.13,8,Ryan Slagle,Pottsboro,65.68,158.76,90.72,149.69,399.16,Single-ply,SBD,M
Boys,67.13,9,Nick Matthews,Dallas Life Oak Cliff,66.72,142.88,77.11,172.37,392.36,Single-ply,SBD,M
Boys,67.13,9,Nick Matthews,Dallas Life Oak Cliff,66.72,142.88,77.11,172.37,392.36,Single-ply,SBD,M
Boys,67.13,10,Raymond Bhikhai,Pilot Point,62.69,149.69,79.38,158.76,387.82,Single-ply,SBD,M
Boys,67.13,11,Adrian Astello,Santo,66.36,142.88,83.91,149.69,376.48,Single-ply,SBD,M
Boys,74.84,1,Tanner Johnson,Whitesboro,74.07,244.94,113.4,249.48,607.81,Single-ply,SBD,M
Boys,74.84,2,Joaquin Lopez,Howe,74.84,226.8,142.88,219.99,589.67,Single-ply,SBD,M
Boys,74.84,3,Hoss McElroy,Honey Grove,72.44,199.58,102.06,197.31,498.95,Single-ply,SBD,M
Boys,74.84,4,Jonathan Ennin,Sunnyvale,71.99,181.44,97.52,217.72,496.68,Single-ply,SBD,M
Boys,74.84,5,Blake Echols,Oakridge School,71.99,172.37,115.67,201.85,489.88,Single-ply,SBD,M
Boys,74.84,6,Bodi Gilbert,Electra,74.12,172.37,124.74,185.97,483.08,Single-ply,SBD,M
Boys,74.84,7,Tristan Coglon,Bells,70.62,174.63,102.06,185.97,462.66,Single-ply,SBD,M
Boys,74.84,8,Grayson Cobb,Paradise,70.99,181.44,95.25,183.7,460.4,Single-ply,SBD,M
Boys,82.1,9,Isaiah Charles,Wichita Falls City View,75.02,161.03,102.06,181.44,444.52,Single-ply,SBD,M
Boys,74.84,DQ,Garrett Johnson,Ponder,73.35,190.51,88.45,,,Single-ply,SBD,M
Boys,82.1,1,Chance Alexander,Oakridge School,79.79,244.94,124.74,251.74,621.42,Single-ply,SBD,M
Boys,82.1,2,Garrett Ferguson,Sunnyvale,80.2,217.72,129.27,229.06,576.06,Single-ply,SBD,M
Boys,82.1,3,Chase Mackey,Gordon,81.28,215.46,120.2,235.87,571.53,Single-ply,SBD,M
Boys,82.1,4,Danny Ho,Wichita Falls City View,75.48,219.99,127.01,222.26,569.26,Single-ply,SBD,M
Boys,82.1,5,Cody Coldwell,Sunnyvale,76.93,233.6,120.2,213.19,566.99,Single-ply,SBD,M
Boys,82.1,6,Jacob Whited,Ponder,81.51,208.65,115.67,199.58,523.9,Single-ply,SBD,M
Boys,82.1,7,Magnum Sampson,Ponder,79.88,226.8,113.4,181.44,521.63,Single-ply,SBD,M
Boys,89.81,8,Athens Gochis,Pilot Point,82.19,199.58,104.33,215.46,519.36,Single-ply,SBD,M
Boys,89.81,9,Brandon Murphey,Whitesboro,82.24,208.65,106.59,188.24,503.49,Single-ply,SBD,M
Boys,82.1,NS,Chase Coffman,Gordon,,,,,,Single-ply,SBD,M
Boys,82.1,DQ,Jake Haker,Van Alstyne,78.97,,,,,Single-ply,SBD,M
Boys,89.81,1,John Groff,Pilot Point,89.45,294.84,165.56,240.4,700.8,Single-ply,SBD,M
Boys,89.81,2,Chris de la Cruz,Pottsboro,89.4,217.72,140.61,213.19,571.53,Single-ply,SBD,M
Boys,89.81,3,Reed Latham,Henrietta,85.46,197.31,149.69,213.19,560.19,Single-ply,SBD,M
Boys,89.81,4,Austin Bennett,Ponder,85.05,231.33,117.93,206.38,555.65,Single-ply,SBD,M
Boys,89.81,5,Ben Dankesreiter,Ponder,88.36,235.87,115.67,199.58,551.11,Single-ply,SBD,M
Boys,89.81,6,Triston Matthews,Howe,89.45,224.53,102.06,195.04,521.63,Single-ply,SBD,M
Boys,89.81,7,Dalton Hess,Muenster,89.13,208.65,113.4,192.78,514.83,Single-ply,SBD,M
Boys,99.79,8,Spencer Garcia,Wichita Falls City View,89.9,190.51,106.59,210.92,508.02,Single-ply,SBD,M
Boys,89.81,9,Zeke Trejo,Pilot Point,89.72,195.04,104.33,206.38,505.76,Single-ply,SBD,M
Boys,89.81,10,Taylor Hood,Chico,85.87,185.97,120.2,154.22,460.4,Single-ply,SBD,M
Boys,99.79,1,Drew McVicker,Olney,95.71,263.08,156.49,217.72,637.3,Single-ply,SBD,M
Boys,99.79,2,Andrew Rodriguez,Wichita Falls City View,97.02,238.14,151.95,219.99,610.08,Single-ply,SBD,M
Boys,99.79,3,Jai Shepard,Electra,93.44,244.94,129.27,217.72,591.94,Single-ply,SBD,M
Boys,99.79,4,Andrew Borsch,Ponder,98.61,197.31,145.15,199.58,542.04,Single-ply,SBD,M
Boys,99.79,5,Mitch Fruth,Ponder,93.67,219.99,113.4,199.58,532.97,Single-ply,SBD,M
Boys,99.79,6,Noor Wafayee,Oakridge School,98.38,197.31,127.01,208.65,532.97,Single-ply,SBD,M
Boys,99.79,7,Ramon Guerra,Wichita Falls City View,98.61,215.46,113.4,204.12,532.97,Single-ply,SBD,M
Boys,99.79,DQ,Jon Guerra,Olney,95.62,215.46,129.27,,,Single-ply,SBD,M
Boys,99.79,DQ,Cameron Starnes,Chico,92.62,249.48,120.2,,,Single-ply,SBD,M
Boys,99.79,DQ,Rey Lomas,Valley View,99.56,238.14,131.54,,,Single-ply,SBD,M
Boys,109.77,1,Ronnie Killen,Wichita Falls City View,106.73,274.42,124.74,267.62,666.78,Single-ply,SBD,M
Boys,109.77,2,Saul Landaverde,Bowie,106.82,254.01,136.08,226.8,616.89,Single-ply,SBD,M
Boys,109.77,3,Ethan Lawson,Sadler S & S Cons,109.63,222.26,156.49,215.46,594.21,Single-ply,SBD,M
Boys,109.77,4,Cason Riley,Leonard,103.83,233.6,145.15,206.38,585.13,Single-ply,SBD,M
Boys,109.77,5,Matthew Bramer,Van Alstyne,107.86,244.94,133.81,199.58,578.33,Single-ply,SBD,M
Boys,109.77,6,Deric Conner,Paradise,107.37,231.33,154.22,190.51,576.06,Single-ply,SBD,M
Boys,109.77,7,Kent Haskett,Whitewright,109.13,213.19,127.01,208.65,548.85,Single-ply,SBD,M
Boys,109.77,DQ,Austin Coker,Santo,104.51,244.94,140.61,,,Single-ply,SBD,M
Boys,109.77,DQ,Allen Mullis,Ponder,108,260.82,,,,Single-ply,SBD,M
Boys,109.77,DQ,Justin Wagner,Ponder,109.23,,,,,Single-ply,SBD,M
Boys,124.74,1,Thomas Waite,Ponder,124.06,294.84,174.63,215.46,684.92,Single-ply,SBD,M
Boys,124.74,2,Connor Strocher,Pottsboro,117.84,260.82,154.22,240.4,655.44,Single-ply,SBD,M
Boys,124.74,3,Tristan Robinson,Whitesboro,112.76,244.94,151.95,231.33,628.23,Single-ply,SBD,M
Boys,124.74,4,David Correa,Bowie,117.84,263.08,138.35,217.72,619.15,Single-ply,SBD,M
Boys,124.74,5,Ryan Folk,Van Alstyne,115.8,242.67,147.42,226.8,616.89,Single-ply,SBD,M
Boys,124.74,6,Marcus Lopez,Strawn,110.13,226.8,145.15,204.12,576.06,Single-ply,SBD,M
Boys,124.74,7,Kayl Powers,Collinsville,113.4,204.12,122.47,238.14,564.72,Single-ply,SBD,M
Boys,124.74,8,Jiovanny Rubio,Sunnyvale,123.06,217.72,122.47,206.38,546.58,Single-ply,SBD,M
Boys,124.74,DQ,Tanner Edwards,Paradise,114.44,249.48,158.76,,,Single-ply,SBD,M
Boys,124.74,DQ,Carlos Giron,Pilot Point,123.38,240.4,,,,Single-ply,SBD,M
Boys,124.74+,1,Wade Cookston,Sunnyvale,137.94,308.44,181.44,260.82,750.7,Single-ply,SBD,M
Boys,124.74+,2,Kasey Misenheimer,Whitesboro,131.86,267.62,158.76,247.21,673.58,Single-ply,SBD,M
Boys,124.74+,3,Will Brogdon,Van Alstyne,136.17,278.96,149.69,244.94,673.58,Single-ply,SBD,M
Boys,124.74+,4,Dawson Medler,Pottsboro,131.04,272.16,161.03,199.58,632.76,Single-ply,SBD,M
Boys,124.74+,5,Ryan Ford,Wichita Falls City View,140.93,242.67,138.35,215.46,596.47,Single-ply,SBD,M
Boys,124.74+,6,Michael Pruiett,Leonard,131.86,231.33,127.01,199.58,557.92,Single-ply,SBD,M
Boys,124.74+,7,Max Gafford,Blue Ridge,158.12,213.19,138.35,206.38,557.92,Single-ply,SBD,M
Boys,124.74+,8,Connor Pelzel,Lindsay,132.18,204.12,113.4,215.46,532.97,Single-ply,SBD,M
Boys,124.74+,DQ,Francisco Estrada,Pilot Point,128.87,224.53,120.2,,,Single-ply,SBD,M
Boys,124.74+,DQ,Jacob Poole,Ponder,138.44,,,,,Single-ply,SBD,M
