Division,WeightClassKg,Place,Name,Team,BodyweightKg,Best3SquatKg,Best3BenchKg,Best3DeadliftKg,TotalKg,Equipment,Event,Sex
Boys,51.71,1,Diego Gallegos,Alvin,51.71,142.88,95.25,165.56,403.7,Single-ply,SBD,M
Boys,51.71,2,Raymond Garza,Clute Brazoswood,50.98,124.74,65.77,129.27,319.78,Single-ply,SBD,M
Boys,51.71,3,Steve Melgar,Hitchcock,42.82,124.74,56.7,129.27,310.71,Single-ply,SBD,M
Boys,51.71,4,Dylan McMullen,Splendora,50.35,95.25,65.77,108.86,269.89,Single-ply,SBD,M
Boys,51.71,5,David Owens,La Marque,50.35,104.33,52.16,108.86,265.35,Single-ply,SBD,M
Boys,51.71,6,Raul Diaz,Alvin,45,88.45,47.63,90.72,226.8,Single-ply,SBD,M
Boys,51.71,7,Luke Longoria,Bay City,46.27,61.23,38.56,70.31,170.1,Single-ply,SBD,M
Boys,51.71,DQ,Alec Vercher,Conroe Oak Ridge,50.98,,,,,Single-ply,SBD,M
Boys,55.79,1,Jesus Rios,Palacios,53.34,158.76,113.4,195.04,467.2,Single-ply,SBD,M
Boys,55.79,2,Blake Gamez,La Porte,54.88,158.76,92.99,183.7,435.45,Single-ply,SBD,M
Boys,55.79,3,Carlos Salazar,Manvel,55.79,145.15,88.45,161.03,394.63,Single-ply,SBD,M
Boys,55.79,4,Jonathan Cardenas,Freeport Brazosport,52.71,151.95,77.11,154.22,383.29,Single-ply,SBD,M
Boys,55.79,5,Jaycob Warchesik,Manvel,54.16,124.74,74.84,156.49,356.07,Single-ply,SBD,M
Boys,55.79,6,Jordan Trevino,Bay City,52.8,127.01,70.31,145.15,342.46,Single-ply,SBD,M
Boys,55.79,7,Wyatt Dudley,Santa Fe,53.93,92.99,40.82,102.06,235.87,Single-ply,SBD,M
Boys,55.79,DQ,Christian Price,Texas City,55.25,102.06,61.23,,,Single-ply,SBD,M
Boys,59.87,1,Chien Phan,Dickinson,59.56,195.04,102.06,183.7,480.81,Single-ply,SBD,M
Boys,59.87,2,Tyler Le,Palacios,59.87,154.22,79.38,172.37,405.97,Single-ply,SBD,M
Boys,59.87,3,Ryan Collette,Huffman Hargrave,59.87,136.08,99.79,165.56,401.43,Single-ply,SBD,M
Boys,59.87,4,Matthew Longoria,Alvin,59.51,120.2,106.59,142.88,369.68,Single-ply,SBD,M
Boys,59.87,5,Tommy Phan,Dickinson,59.51,124.74,74.84,154.22,353.8,Single-ply,SBD,M
Boys,59.87,6,Lane Goodwin,Splendora,58.97,129.27,72.57,122.47,324.32,Single-ply,SBD,M
Boys,59.87,7,Christian Flores,Alvin,56.97,113.4,65.77,117.93,297.1,Single-ply,SBD,M
Boys,59.87,8,Devin West,Clute Brazoswood,56.43,113.4,54.43,120.2,288.03,Single-ply,SBD,M
Boys,59.87,9,Zane Havel,Bay City,56.34,115.67,43.09,111.13,269.89,Single-ply,SBD,M
Boys,59.87,10,Nguyen Tommy,Galveston Ball,59.15,81.65,56.7,124.74,263.08,Single-ply,SBD,M
Boys,59.87,11,Taylor Kemp #2,La Marque,59.42,92.99,61.23,102.06,256.28,Single-ply,SBD,M
Boys,67.13,1,Jim Tran,Dickinson,65.32,195.04,120.2,199.58,514.83,Single-ply,SBD,M
Boys,67.13,2,Gin Ivey,Conroe Oak Ridge,62.6,147.42,95.25,179.17,421.84,Single-ply,SBD,M
Boys,67.13,3,Tyvarian Lane,Stafford,62.51,149.69,106.59,161.03,417.3,Single-ply,SBD,M
Boys,67.13,4,Jose Estupinan,Beaumont Ozen,67.13,158.76,83.91,170.1,412.77,Single-ply,SBD,M
Boys,67.13,5,Keith Chesson,Manvel,64.41,151.95,92.99,158.76,403.7,Single-ply,SBD,M
Boys,67.13,6,Caleb Jackson,Huffman Hargrave,64.86,133.81,92.99,161.03,387.82,Single-ply,SBD,M
Boys,67.13,7,Jermaine Ellis,Freeport Brazosport,62.78,142.88,77.11,158.76,378.75,Single-ply,SBD,M
Boys,67.13,8,Jonathan Pesina,Bay City,63.96,131.54,86.18,158.76,376.48,Single-ply,SBD,M
Boys,67.13,9,Santiago Hernandez,Texas City,60.87,127.01,92.99,136.08,356.07,Single-ply,SBD,M
Boys,67.13,10,Marcus Coronado,Alvin,66.04,122.47,70.31,154.22,347,Single-ply,SBD,M
Boys,67.13,11,Ricky Hampton,Hitchcock,66.13,142.88,56.7,145.15,344.73,Single-ply,SBD,M
Boys,67.13,12,Torres Victor,Galveston Ball,60.96,113.4,77.11,142.88,333.39,Single-ply,SBD,M
Boys,67.13,13,Daniel Cantu,Clute Brazoswood,64.5,117.93,65.77,133.81,317.51,Single-ply,SBD,M
Boys,67.13,14,Mayberry Domink,Galveston Ball,65.86,102.06,70.31,142.88,315.25,Single-ply,SBD,M
Boys,67.13,15,Clay Frick,Sweeny,60.42,124.74,61.23,122.47,308.44,Single-ply,SBD,M
Boys,67.13,16,Russell Pickney,La Marque,60.83,92.99,74.84,117.93,285.76,Single-ply,SBD,M
Boys,67.13,17,Nathan Gruber,Huffman Hargrave,62.41,97.52,65.77,104.33,267.62,Single-ply,SBD,M
Boys,67.13,18,Brandon Davis,Clute Brazoswood,66.32,102.06,52.16,106.59,260.82,Single-ply,SBD,M
Boys,67.13,19,John Eccles,Huffman Hargrave,66.59,88.45,68.04,90.72,247.21,Single-ply,SBD,M
Boys,67.13,DQ,Zach Mutchler,Alvin,66.77,215.46,,,,Single-ply,SBD,M
Boys,67.13,DQ,Michael Grossman,Santa Fe,62.51,133.81,,136.08,,Single-ply,SBD,M
Boys,74.84,1,Jared Hernandez,Texas City,73.3,197.31,124.74,213.19,535.24,Single-ply,SBD,M
Boys,74.84,2,Lawrence Smith,Bay City,74.03,215.46,99.79,183.7,498.95,Single-ply,SBD,M
Boys,74.84,3,Dawson Nobriga,Channelview,72.67,172.37,117.93,174.63,464.93,Single-ply,SBD,M
Boys,74.84,4,Zack Nieto,Freeport Brazosport,74.48,165.56,108.86,183.7,458.13,Single-ply,SBD,M
Boys,74.84,5,Randy Williams,Hitchcock,73.39,181.44,97.52,176.9,455.86,Single-ply,SBD,M
Boys,74.84,6,Cristian Ramirez,Channelview,71.12,138.35,102.06,179.17,419.57,Single-ply,SBD,M
Boys,74.84,7,Jordan Martinez,Alvin,71.76,136.08,88.45,183.7,408.23,Single-ply,SBD,M
Boys,74.84,8,Kaylen Manzi,Huffman Hargrave,71.3,133.81,88.45,147.42,369.68,Single-ply,SBD,M
Boys,74.84,9,Devin Kelly,Huffman Hargrave,71.85,142.88,79.38,138.35,360.61,Single-ply,SBD,M
Boys,74.84,10,Christopher Hogan,Alvin,68.49,113.4,81.65,156.49,351.53,Single-ply,SBD,M
Boys,74.84,11,Tristan Trigo,Alvin,68.86,113.4,79.38,156.49,349.27,Single-ply,SBD,M
Boys,74.84,12,Cole Cruz,Conroe Oak Ridge,74.39,115.67,88.45,136.08,340.19,Single-ply,SBD,M
Boys,74.84,13,Keandre Owens,La Marque,68.13,124.74,79.38,131.54,335.66,Single-ply,SBD,M
Boys,74.84,14,Savian Hancock,Huffman Hargrave,69.4,113.4,61.23,133.81,308.44,Single-ply,SBD,M
Boys,74.84,15,Christopher Gonzales,Manvel,69.49,90.72,81.65,111.13,283.5,Single-ply,SBD,M
Boys,74.84,DQ,Beaux Ramos,Texas City,72.57,161.03,,161.03,,Single-ply,SBD,M
Boys,74.84,DQ,Jimmie Moore,Conroe Oak Ridge,74.48,204.12,,,,Single-ply,SBD,M
Boys,82.1,1,Cournelious Vaughans,Dickinson,79.38,244.94,151.95,233.6,630.49,Single-ply,SBD,M
Boys,82.1,2,Josh Troupe,La Porte,80.56,197.31,142.88,208.65,548.85,Single-ply,SBD,M
Boys,82.1,3,Raymond Castillo,Manvel,80.38,210.92,131.54,201.85,544.31,Single-ply,SBD,M
Boys,82.1,4,Kris Narcisse,Beaumont Ozen,82.1,206.38,136.08,195.04,537.51,Single-ply,SBD,M
Boys,82.1,5,Seth Alvarez,Palacios,78.47,213.19,106.59,206.38,526.17,Single-ply,SBD,M
Boys,82.1,6,Sterling Winzor,Beaumont Ozen,81.83,183.7,122.47,215.46,521.63,Single-ply,SBD,M
Boys,82.1,7,Richard Kieffer,La Porte,78.65,174.63,113.4,206.38,494.42,Single-ply,SBD,M
Boys,82.1,8,Demontre Tuggle,Channelview,75.93,195.04,102.06,188.24,485.34,Single-ply,SBD,M
Boys,82.1,9,Michael Morris #2,Splendora,78.47,183.7,108.86,192.78,485.34,Single-ply,SBD,M
Boys,82.1,10,Dalton Reichardt,Friendswood Clear Brook,77.47,181.44,95.25,192.78,469.47,Single-ply,SBD,M
Boys,82.1,11,Dylon Sefcik,Sweeny,75.57,172.37,99.79,185.97,458.13,Single-ply,SBD,M
Boys,82.1,12,Phi Do,Dickinson,80.6,163.29,92.99,192.78,449.06,Single-ply,SBD,M
Boys,82.1,13,Morgan Segovia,Palacios,76.02,172.37,97.52,174.63,444.52,Single-ply,SBD,M
Boys,82.1,14,Dane Rendon,Hitchcock,80.38,158.76,95.25,183.7,437.72,Single-ply,SBD,M
Boys,82.1,15,Luis Perez,Santa Fe,81.1,158.76,106.59,145.15,410.5,Single-ply,SBD,M
Boys,82.1,16,Jaden Bishop,La Marque,79.29,156.49,92.99,158.76,408.23,Single-ply,SBD,M
Boys,82.1,17,McCollum Tristan,Galveston Ball,75.52,165.56,88.45,142.88,396.89,Single-ply,SBD,M
Boys,82.1,18,Jacob Barrera,Alvin,79.92,151.95,90.72,147.42,390.09,Single-ply,SBD,M
Boys,82.1,19,Noah Abbott,Santa Fe,80.38,151.95,79.38,151.95,383.29,Single-ply,SBD,M
Boys,82.1,20,Alfredo Arenas,Manvel,76.75,136.08,79.38,165.56,381.02,Single-ply,SBD,M
Boys,82.1,21,Nance Seth,Galveston Ball,79.29,136.08,92.99,142.88,371.95,Single-ply,SBD,M
Boys,82.1,22,Digeo Vela,Dickinson,80.2,133.81,92.99,140.61,367.41,Single-ply,SBD,M
Boys,82.1,23,Jaylin Walker,La Marque,75.84,111.13,72.57,117.93,301.64,Single-ply,SBD,M
Boys,82.1,24,Justin Stein,Alvin,79.47,97.52,61.23,129.27,288.03,Single-ply,SBD,M
Boys,82.1,25,Dalton Hill,Manvel,81.92,102.06,45.36,108.86,256.28,Single-ply,SBD,M
Boys,82.1,26,Eduardo Maury,Beaumont Ozen,82.1,43.09,56.7,117.93,217.72,Single-ply,SBD,M
Boys,82.1,DQ,Marcus Mathews,La Marque,80.65,,115.67,,,Single-ply,SBD,M
Boys,82.1,DQ,Zach Snowden,Alvin,81.28,97.52,,,,Single-ply,SBD,M
Boys,82.1,DQ,Brandon Caldera,Pasadena Memorial,76.11,158.76,99.79,,,Single-ply,SBD,M
Boys,82.1,DQ,Gavin Hunt,Pasadena Memorial,81.01,131.54,77.11,,,Single-ply,SBD,M
Boys,82.1,DQ,Anival Villatoro,Pasadena Memorial,81.92,172.37,90.72,,,Single-ply,SBD,M
Boys,89.81,1,Dylan Bates,Conroe Oak Ridge,86,229.06,145.15,226.8,601.01,Single-ply,SBD,M
Boys,89.81,2,Grant Stuard,Conroe Oak Ridge,86.82,206.38,145.15,208.65,560.19,Single-ply,SBD,M
Boys,89.81,3,Charles Hester,Stafford,88.18,190.51,140.61,226.8,557.92,Single-ply,SBD,M
Boys,89.81,4,Demontre Bell,Texas City,85.91,199.58,108.86,240.4,548.85,Single-ply,SBD,M
Boys,89.81,5,Dominic Garcia,Palacios,85.37,195.04,115.67,226.8,537.51,Single-ply,SBD,M
Boys,89.81,6,Eric Hembling,Clute Brazoswood,89.81,197.31,111.13,226.8,535.24,Single-ply,SBD,M
Boys,89.81,7,Jorge Carli,Bay City,84.19,201.85,108.86,190.51,501.22,Single-ply,SBD,M
Boys,89.81,8,Brennan Young,Conroe Oak Ridge,86.18,188.24,97.52,190.51,476.27,Single-ply,SBD,M
Boys,89.81,9,Adam Nguyen,Palacios,85.09,176.9,97.52,195.04,469.47,Single-ply,SBD,M
Boys,89.81,10,Cristian Reza,Beaumont Ozen,85.28,176.9,106.59,174.63,458.13,Single-ply,SBD,M
Boys,89.81,11,Octavio Galicia,Dickinson,84.46,161.03,102.06,190.51,453.59,Single-ply,SBD,M
Boys,89.81,12,Evan Green,Sweeny,87.82,167.83,95.25,181.44,444.52,Single-ply,SBD,M
Boys,89.81,13,Isaac Guinn,Friendswood Clear Brook,86.45,185.97,97.52,158.76,442.25,Single-ply,SBD,M
Boys,89.81,14,Zachary Hejtmancik,Conroe Oak Ridge,89.72,161.03,90.72,181.44,433.18,Single-ply,SBD,M
Boys,89.81,15,Noah Young #2,Huffman Hargrave,85.09,149.69,104.33,167.83,421.84,Single-ply,SBD,M
Boys,89.81,16,Danny Chapman,Alvin,83.01,136.08,99.79,181.44,417.3,Single-ply,SBD,M
Boys,89.81,17,Kenneth Savanah,Stafford,84.28,136.08,92.99,154.22,383.29,Single-ply,SBD,M
Boys,89.81,18,Ethan George,Stafford,86.36,142.88,86.18,151.95,381.02,Single-ply,SBD,M
Boys,89.81,19,Brady Byrd,Sweeny,85.82,127.01,74.84,161.03,362.87,Single-ply,SBD,M
Boys,89.81,20,Joey Hardcastle,Santa Fe,89.18,117.93,88.45,149.69,356.07,Single-ply,SBD,M
Boys,89.81,21,Anthony Gonzalez,Hitchcock,87.91,129.27,79.38,142.88,351.53,Single-ply,SBD,M
Boys,89.81,22,Jason Navarro,Huffman Hargrave,87.45,131.54,74.84,133.81,340.19,Single-ply,SBD,M
Boys,89.81,23,Gage Slaughter,Santa Fe,88.09,120.2,61.23,147.42,328.85,Single-ply,SBD,M
Boys,89.81,24,Ben Arnold,Huffman Hargrave,82.92,117.93,72.57,113.4,303.91,Single-ply,SBD,M
Boys,89.81,25,DeAndre Kindred,Conroe Oak Ridge,82.83,104.33,54.43,102.06,260.82,Single-ply,SBD,M
Boys,89.81,DQ,Cody Vosburg,Dickinson,88.99,,61.23,142.88,,Single-ply,SBD,M
Boys,89.81,DQ,Reese Thompson,La Porte,89.81,,,,,Single-ply,SBD,M
Boys,89.81,DQ,Noah Browder,La Porte,87.36,142.88,92.99,,,Single-ply,SBD,M
Boys,89.81,DQ,Caesar Juarez,Pasadena Memorial,86.91,149.69,99.79,,,Single-ply,SBD,M
Boys,99.79,1,Richy Ortiz,Bay City,98.88,231.33,172.37,249.48,653.17,Single-ply,SBD,M
Boys,99.79,2,Brant Kobersky,Alvin,97.7,233.6,145.15,210.92,589.67,Single-ply,SBD,M
Boys,99.79,3,Tristan Anderson,Dickinson,99.06,217.72,122.47,249.48,589.67,Single-ply,SBD,M
Boys,99.79,4,Adrian Ruiz,Bay City,95.44,217.72,181.44,183.7,582.87,Single-ply,SBD,M
Boys,99.79,5,Gavin Franklin,Conroe Oak Ridge,97.52,204.12,142.88,215.46,562.45,Single-ply,SBD,M
Boys,99.79,6,Trevor Anderson,Dickinson,92.26,204.12,111.13,226.8,542.04,Single-ply,SBD,M
Boys,99.79,7,Jose Duarte,Alvin,97.98,201.85,133.81,192.78,528.44,Single-ply,SBD,M
Boys,99.79,8,Hunter Thiem,Hitchcock,94.8,195.04,136.08,185.97,517.1,Single-ply,SBD,M
Boys,99.79,9,Fabian Luna,Pasadena Memorial,92.08,190.51,108.86,213.19,512.56,Single-ply,SBD,M
Boys,99.79,10,Danny Marquez,Freeport Brazosport,95.07,183.7,138.35,188.24,510.29,Single-ply,SBD,M
Boys,99.79,11,James Mower,Friendswood Clear Brook,98.7,183.7,113.4,192.78,489.88,Single-ply,SBD,M
Boys,99.79,12,Brent Smith,Hitchcock,95.44,190.51,102.06,195.04,487.61,Single-ply,SBD,M
Boys,99.79,13,Tyler Ray,Santa Fe,94.35,179.17,104.33,179.17,462.66,Single-ply,SBD,M
Boys,99.79,14,Michael Taylor #2,Splendora,98.43,165.56,111.13,183.7,460.4,Single-ply,SBD,M
Boys,99.79,15,Irving Perez,Manvel,93.8,181.44,106.59,165.56,453.59,Single-ply,SBD,M
Boys,99.79,16,Elfonso Muniz-Vargas,Clute Brazoswood,99.61,156.49,120.2,174.63,451.32,Single-ply,SBD,M
Boys,99.79,17,Marcello Acosta,Clute Brazoswood,90.72,165.56,113.4,170.1,449.06,Single-ply,SBD,M
Boys,99.79,18,Daniel Parr,Dickinson,99.79,195.04,90.72,158.76,444.52,Single-ply,SBD,M
Boys,99.79,19,Luis Perez,Santa Fe,99.34,165.56,104.33,170.1,439.98,Single-ply,SBD,M
Boys,99.79,20,Joshua Hall,Pasadena Memorial,97.07,172.37,92.99,170.1,435.45,Single-ply,SBD,M
Boys,99.79,21,John Gutierrez,Hitchcock,90.63,165.56,106.59,149.69,421.84,Single-ply,SBD,M
Boys,99.79,22,JT Greer,Dickinson,98.52,158.76,108.86,154.22,421.84,Single-ply,SBD,M
Boys,99.79,23,Claude Conner,Beaumont Ozen,92.99,158.76,106.59,142.88,408.23,Single-ply,SBD,M
Boys,99.79,24,Seath Hearen,Dickinson,91.72,167.83,86.18,151.95,405.97,Single-ply,SBD,M
Boys,99.79,25,Ellis Muldrow,Dickinson,91.81,158.76,79.38,167.83,405.97,Single-ply,SBD,M
Boys,99.79,26,Sam Romero,Sweeny,94.35,136.08,104.33,158.76,399.16,Single-ply,SBD,M
Boys,99.79,27,Parker Dean,Sweeny,97.7,142.88,74.84,156.49,374.21,Single-ply,SBD,M
Boys,99.79,28,Jamaal Edwards,Beaumont Ozen,99.25,136.08,90.72,127.01,353.8,Single-ply,SBD,M
Boys,99.79,29,Dean Michael,Galveston Ball,98.79,124.74,81.65,133.81,340.19,Single-ply,SBD,M
Boys,99.79,30,Trevon Black,La Marque,96.62,106.59,65.77,111.13,283.5,Single-ply,SBD,M
Boys,99.79,31,Allen Haynes,La Marque,96.89,83.91,70.31,104.33,258.55,Single-ply,SBD,M
Boys,99.79,32,Corrizalez Alejandro,Galveston Ball,96.71,104.33,54.43,97.52,256.28,Single-ply,SBD,M
Boys,99.79,DQ,Terrell Bernard,La Porte,91.63,183.7,129.27,,,Single-ply,SBD,M
Boys,99.79,DQ,Jose Rodriguez #6,Dickinson,93.62,170.1,,154.22,,Single-ply,SBD,M
Boys,109.77,1,Kaylond North,Dickinson,109.59,317.51,204.12,285.76,807.39,Single-ply,SBD,M
Boys,109.77,2,Diundre Washington,Beaumont Ozen,109.77,254.01,170.1,219.99,644.1,Single-ply,SBD,M
Boys,109.77,3,Jared Reedy,Dickinson,109.59,260.82,154.22,226.8,641.83,Single-ply,SBD,M
Boys,109.77,4,Xavian Hampton,Hitchcock,104.42,272.16,120.2,242.67,635.03,Single-ply,SBD,M
Boys,109.77,5,Prince Flye,Bay City,108.23,229.06,149.69,226.8,605.55,Single-ply,SBD,M
Boys,109.77,6,Kevin Nguyen #9,Friendswood Clear Brook,105.23,226.8,142.88,219.99,589.67,Single-ply,SBD,M
Boys,109.77,7,Contrell Green,Conroe Oak Ridge,106.5,204.12,124.74,208.65,537.51,Single-ply,SBD,M
Boys,109.77,8,Elton Woodard,Stafford,103.87,204.12,136.08,181.44,521.63,Single-ply,SBD,M
Boys,109.77,9,Gil Bernal,Channelview,100.79,199.58,117.93,188.24,505.76,Single-ply,SBD,M
Boys,109.77,10,David Williams #4,Stafford,103.56,188.24,122.47,183.7,494.42,Single-ply,SBD,M
Boys,109.77,11,Fidel Rodriguez,Bay City,103.96,185.97,113.4,192.78,492.15,Single-ply,SBD,M
Boys,109.77,12,Donovan Rocha,Splendora,109.32,201.85,102.06,183.7,487.61,Single-ply,SBD,M
Boys,109.77,13,Roberto Varvelo,Channelview,105.32,197.31,97.52,188.24,483.08,Single-ply,SBD,M
Boys,109.77,14,Brett Hull,Pasadena Memorial,102.6,183.7,92.99,195.04,471.74,Single-ply,SBD,M
Boys,109.77,15,Dominique Brazil,Palacios,103.78,170.1,102.06,197.31,469.47,Single-ply,SBD,M
Boys,109.77,16,Jared Mancuso,Hitchcock,105.14,174.63,102.06,190.51,467.2,Single-ply,SBD,M
Boys,109.77,17,Arthur Harmon,Beaumont Ozen,109.13,181.44,102.06,176.9,460.4,Single-ply,SBD,M
Boys,109.77,18,Tyler Danford,Clute Brazoswood,107.05,183.7,83.91,185.97,453.59,Single-ply,SBD,M
Boys,109.77,19,Armando Alaniz Jr,Dickinson,107.05,172.37,113.4,165.56,451.32,Single-ply,SBD,M
Boys,109.77,20,Eric Taylor,Beaumont Ozen,103.33,165.56,95.25,142.88,403.7,Single-ply,SBD,M
Boys,109.77,21,Barcenas Cruz,Huffman Hargrave,109.41,129.27,92.99,163.29,385.55,Single-ply,SBD,M
Boys,109.77,22,Hershel Wafer,La Marque,106.14,117.93,70.31,136.08,324.32,Single-ply,SBD,M
Boys,109.77,23,Ryan Ferguson,Sweeny,106.23,120.2,74.84,127.01,322.05,Single-ply,SBD,M
Boys,109.77,DQ,Izaah Washington,La Porte,106.96,181.44,136.08,,,Single-ply,SBD,M
Boys,124.74,1,Anietie Etuk,Dickinson,122.92,290.3,172.37,294.84,757.5,Single-ply,SBD,M
Boys,124.74,2,Victor Guevara,Freeport Brazosport,120.56,292.57,176.9,244.94,714.41,Single-ply,SBD,M
Boys,124.74,3,Kyler Gentry,Santa Fe,122.02,249.48,147.42,231.33,628.23,Single-ply,SBD,M
Boys,124.74,4,Dante Hayes,Texas City,122.47,249.48,124.74,249.48,623.69,Single-ply,SBD,M
Boys,124.74,5,Colby Thomas,Manvel,120.75,215.46,158.76,226.8,601.01,Single-ply,SBD,M
Boys,124.74,6,D'Vonte Mills,Pasadena Memorial,111.95,210.92,136.08,235.87,582.87,Single-ply,SBD,M
Boys,124.74,7,Alex Nguyen,Palacios,115.03,217.72,149.69,183.7,551.11,Single-ply,SBD,M
Boys,124.74,8,Luke MacLennan,Bay City,112.4,206.38,138.35,199.58,544.31,Single-ply,SBD,M
Boys,124.74,9,Antonio Williams,Freeport Brazosport,116.12,204.12,117.93,215.46,537.51,Single-ply,SBD,M
Boys,124.74,10,Cameron Townsend,Friendswood Clear Brook,114.03,199.58,124.74,181.44,505.76,Single-ply,SBD,M
Boys,124.74,11,Joseph Mayfield,Stafford,111.49,181.44,145.15,172.37,498.95,Single-ply,SBD,M
Boys,124.74,12,Andy Cassity,Friendswood Clear Brook,119.39,188.24,92.99,204.12,485.34,Single-ply,SBD,M
Boys,124.74,13,CJ Bench,Clute Brazoswood,121.11,206.38,115.67,161.03,483.08,Single-ply,SBD,M
Boys,124.74,14,Victor Esquivel,Clute Brazoswood,122.83,188.24,122.47,172.37,483.08,Single-ply,SBD,M
Boys,124.74,15,Frank Vargas,Manvel,111.4,161.03,120.2,165.56,446.79,Single-ply,SBD,M
Boys,124.74,16,Eric Reid,Stafford,122.2,149.69,129.27,163.29,442.25,Single-ply,SBD,M
Boys,124.74,17,Joel Otero,Dickinson,113.26,161.03,108.86,170.1,439.98,Single-ply,SBD,M
Boys,124.74,18,Jerome Harmon,Beaumont Ozen,118.84,170.1,92.99,176.9,439.98,Single-ply,SBD,M
Boys,124.74,DQ,Gustavo Cruz,Hitchcock,124.74,,,,,Single-ply,SBD,M
Boys,124.74,DQ,Gilberto Chavez,Freeport Brazosport,121.83,183.7,,167.83,,Single-ply,SBD,M
Boys,124.74,DQ,Cameron Helms,Alvin,117.12,249.48,,,,Single-ply,SBD,M
Boys,124.74,DQ,Robert Torres,Texas City,111.04,183.7,,183.7,,Single-ply,SBD,M
Boys,124.74+,1,Chance Harmanson,Dickinson,125.19,317.51,199.58,265.35,782.45,Single-ply,SBD,M
Boys,124.74+,2,Marlon Ford,La Marque,161.48,249.48,111.13,249.48,610.08,Single-ply,SBD,M
Boys,124.74+,3,Peyton Opre,Alvin,128.82,215.46,151.95,240.4,607.81,Single-ply,SBD,M
Boys,124.74+,4,William Tinner,La Marque,147.33,229.06,151.95,226.8,607.81,Single-ply,SBD,M
Boys,124.74+,5,Logan Tonini,Manvel,145.15,215.46,165.56,215.46,596.47,Single-ply,SBD,M
Boys,124.74+,6,Bernard Childs,Channelview,146.51,240.4,117.93,204.12,562.45,Single-ply,SBD,M
Boys,124.74+,7,Moses Horn,Stafford,135.9,217.72,133.81,190.51,542.04,Single-ply,SBD,M
Boys,124.74+,8,Santos Lazos,Clute Brazoswood,125.65,210.92,117.93,204.12,532.97,Single-ply,SBD,M
Boys,124.74+,9,DeJante Granger,Beaumont Ozen,125.55,190.51,117.93,204.12,512.56,Single-ply,SBD,M
Boys,124.74+,10,Ambrows Moreland,Beaumont Ozen,145.15,190.51,111.13,204.12,505.76,Single-ply,SBD,M
Boys,124.74+,11,Kaleen Oatis,Dickinson,156.31,165.56,129.27,185.97,480.81,Single-ply,SBD,M
Boys,124.74+,12,Chris Box,Friendswood Clear Brook,143.47,183.7,99.79,188.24,471.74,Single-ply,SBD,M
Boys,124.74+,13,Lane Morris,Santa Fe,128.55,185.97,95.25,176.9,458.13,Single-ply,SBD,M
Boys,124.74+,14,Chandler Wasson,Sweeny,147.33,170.1,113.4,170.1,453.59,Single-ply,SBD,M
Boys,124.74+,15,Torrey Lastice,Dickinson,140.16,167.83,95.25,127.01,390.09,Single-ply,SBD,M
Boys,124.74+,DQ,Coy Combs,La Porte,126.82,233.6,129.27,,,Single-ply,SBD,M
Boys,124.74+,DQ,Bryan Hayes,La Porte,157.22,204.12,149.69,,,Single-ply,SBD,M
Boys,124.74+,DQ,Bayden Pethtel,Texas City,131.45,226.8,156.49,,,Single-ply,SBD,M
Boys,,NS,John Michael Wilson,Santa Fe,,,,,,Single-ply,SBD,M
