Division,WeightClassKg,Place,Name,Team,BodyweightKg,Best3SquatKg,Best3BenchKg,Best3DeadliftKg,TotalKg,Equipment,Event,Sex
Boys,51.71,1,Hector Jaramillo,Franklin,50.89,147.42,72.57,133.81,353.8,Single-ply,SBD,M
Boys,51.71,2,Martin Lopez,Maypearl,50.71,147.42,56.7,127.01,331.12,Single-ply,SBD,M
Boys,51.71,3,Raymond Sifuentes,Hearne,51.62,90.72,74.84,131.54,297.1,Single-ply,SBD,M
Boys,51.71,4,David Hernandez,Hearne,50.98,92.99,68.04,129.27,290.3,Single-ply,SBD,M
Boys,51.71,5,Juan Rodriguez,Hearne,50.08,97.52,36.29,117.93,251.74,Single-ply,SBD,M
Boys,51.71,6,Jeffery Wood,Valley Mills,42.73,95.25,47.63,88.45,231.33,Single-ply,SBD,M
Boys,51.71,7,Austin McKain,Valley Mills,43.09,86.18,34.02,90.72,210.92,Single-ply,SBD,M
Boys,51.71,DQ,Will Miller,Dawson,51.26,,,,,Single-ply,SBD,M
Boys,55.79,1,Jonathan Lira,Meridian,52.44,140.61,83.91,158.76,383.29,Single-ply,SBD,M
Boys,55.79,2,Jeremy Alaniz,Riesel,52.8,117.93,70.31,120.2,308.44,Single-ply,SBD,M
Boys,55.79,3,Braden Mitchell,Gatesville,55.16,102.06,56.7,113.4,272.16,Single-ply,SBD,M
Boys,59.87,4,Cornell Thompson,Hearne,55.97,86.18,58.97,122.47,267.62,Single-ply,SBD,M
Boys,55.79,5,Bobby Adams #2,Riesel,54.07,86.18,54.43,99.79,240.4,Single-ply,SBD,M
Boys,55.79,6,Jordan Whicker,Valley Mills,53.98,92.99,40.82,102.06,235.87,Single-ply,SBD,M
Boys,55.79,DQ,Sean Murphy,Bosqueville,55.43,79.38,,,,Single-ply,SBD,M
Boys,59.87,1,Luis Juarez,Bosqueville,58.24,172.37,106.59,195.04,474,Single-ply,SBD,M
Boys,67.13,2,Eduardo Jaimes,Riesel,59.96,167.83,68.04,154.22,390.09,Single-ply,SBD,M
Boys,59.87,3,Dalton Long,Dawson,58.33,145.15,79.38,163.29,387.82,Single-ply,SBD,M
Boys,59.87,4,Freddy Hernandez #1,Hearne,59.69,129.27,74.84,165.56,369.68,Single-ply,SBD,M
Boys,59.87,5,Colton Frazier,Riesel,59.06,108.86,70.31,120.2,299.37,Single-ply,SBD,M
Boys,67.13,1,Dylan Haralson,Axtell,65.68,231.33,90.72,222.26,544.31,Single-ply,SBD,M
Boys,67.13,2,Cody Brooks,Robinson,66.32,185.97,131.54,185.97,503.49,Single-ply,SBD,M
Boys,74.84,3,Lane Fikes,Robinson,67.31,179.17,95.25,213.19,487.61,Single-ply,SBD,M
Boys,67.13,4,Jesse Berry #1,Bremond,64.05,167.83,102.06,172.37,442.25,Single-ply,SBD,M
Boys,67.13,5,Gabe Cobos,Riesel,67.04,158.76,86.18,195.04,439.98,Single-ply,SBD,M
Boys,67.13,6,Travis Stone,Rogers,65.23,176.9,81.65,174.63,433.18,Single-ply,SBD,M
Boys,67.13,7,William Toliver,Hearne,65.95,142.88,95.25,176.9,415.04,Single-ply,SBD,M
Boys,67.13,8,Alex Smith #9,Bosqueville,63.68,147.42,70.31,138.35,356.07,Single-ply,SBD,M
Boys,67.13,9,Brandon Graham,Franklin,66.5,140.61,83.91,131.54,356.07,Single-ply,SBD,M
Boys,74.84,10,Lane DuBose,Dawson,67.31,122.47,77.11,131.54,331.12,Single-ply,SBD,M
Boys,67.13,11,Lucas Ramsey,Meridian,64.5,122.47,81.65,124.74,328.85,Single-ply,SBD,M
Boys,67.13,12,Esdras Najera,Hearne,62.23,111.13,74.84,140.61,326.59,Single-ply,SBD,M
Boys,67.13,13,Jimmy Donaldson,Hearne,61.96,92.99,72.57,142.88,308.44,Single-ply,SBD,M
Boys,67.13,14,Tanner Fleet,Axtell,62.69,124.74,68.04,113.4,306.17,Single-ply,SBD,M
Boys,67.13,15,Raymond Rogers,Riesel,63.96,115.67,58.97,77.11,251.74,Single-ply,SBD,M
Boys,67.13,16,Christian Trigleth,Riesel,63.68,90.72,40.82,90.72,222.26,Single-ply,SBD,M
Boys,67.13,DQ,Kolton Zahimiak,Gatesville,66.68,90.72,,,,Single-ply,SBD,M
Boys,67.13,DQ,Noah Contella,Waco Reicher Catholic,66.22,,,,,Single-ply,SBD,M
Boys,74.84,1,Blake Lehew,Maypearl,74.66,238.14,142.88,226.8,607.81,Single-ply,SBD,M
Boys,74.84,2,Chris Zavodny,Rogers,73.48,192.78,124.74,235.87,553.38,Single-ply,SBD,M
Boys,74.84,3,Michael Fitzhugh,Waco Reicher Catholic,73.75,204.12,117.93,199.58,521.63,Single-ply,SBD,M
Boys,74.84,4,Tristan Dudley,Rogers,74.48,195.04,129.27,195.04,519.36,Single-ply,SBD,M
Boys,74.84,5,Marco Castro,Waco Reicher Catholic,72.57,206.38,111.13,199.58,517.1,Single-ply,SBD,M
Boys,74.84,6,Hector Martinez,Rogers,74.21,165.56,142.88,183.7,492.15,Single-ply,SBD,M
Boys,74.84,7,Kyle Castilleja,Hearne,72.67,163.29,97.52,226.8,487.61,Single-ply,SBD,M
Boys,74.84,8,Allen Scott,Gatesville,73.12,185.97,113.4,188.24,487.61,Single-ply,SBD,M
Boys,74.84,9,Juan Villa,Robinson,74.48,181.44,120.2,181.44,483.08,Single-ply,SBD,M
Boys,74.84,10,Matt McQueen,Robinson,72.57,185.97,99.79,190.51,476.27,Single-ply,SBD,M
Boys,74.84,11,Braxton Stefka,Riesel,73.94,172.37,99.79,195.04,467.2,Single-ply,SBD,M
Boys,74.84,12,Edmond Marton,Axtell,73.12,181.44,95.25,181.44,458.13,Single-ply,SBD,M
Boys,74.84,13,Devyn Hebbe,Axtell,72.67,172.37,90.72,181.44,444.52,Single-ply,SBD,M
Boys,74.84,14,Dillon McBride,Axtell,71.03,147.42,108.86,158.76,415.04,Single-ply,SBD,M
Boys,74.84,15,Colton Reeves,Valley Mills,68.31,161.03,92.99,158.76,412.77,Single-ply,SBD,M
Boys,74.84,16,Joe Smith,Maypearl,74.12,149.69,90.72,167.83,408.23,Single-ply,SBD,M
Boys,74.84,17,Rodney Rogers,Franklin,71.49,149.69,95.25,138.35,383.29,Single-ply,SBD,M
Boys,74.84,18,Jose Rodriguez #3,Valley Mills,70.03,145.15,77.11,154.22,376.48,Single-ply,SBD,M
Boys,74.84,19,Anthony Zeig,Franklin,69.49,156.49,81.65,136.08,374.21,Single-ply,SBD,M
Boys,74.84,20,Michael Hallman,Gatesville,71.4,136.08,83.91,136.08,356.07,Single-ply,SBD,M
Boys,74.84,21,Dylan Worsham,Maypearl,72.12,113.4,79.38,136.08,328.85,Single-ply,SBD,M
Boys,74.84,22,Juan Mendoza #2,Hearne,71.76,106.59,65.77,151.95,324.32,Single-ply,SBD,M
Boys,74.84,23,Trey Endsley,Franklin,73.03,120.2,68.04,122.47,310.71,Single-ply,SBD,M
Boys,74.84,24,Colton Duncan,Gatesville,74.21,124.74,65.77,111.13,301.64,Single-ply,SBD,M
Boys,82.1,1,Damian Kozak,Bremond,78.93,244.94,165.56,254.01,664.51,Single-ply,SBD,M
Boys,82.1,2,Brazos Sepert,Maypearl,78.02,217.72,124.74,249.48,591.94,Single-ply,SBD,M
Boys,82.1,3,Alex O'Neill,Waco Reicher Catholic,81.37,215.46,136.08,240.4,591.94,Single-ply,SBD,M
Boys,82.1,4,Tom Lawless,Rogers,78.56,226.8,136.08,226.8,589.67,Single-ply,SBD,M
Boys,82.1,5,John Lawless,Rogers,80.92,215.46,136.08,226.8,578.33,Single-ply,SBD,M
Boys,82.1,6,Marco Vasquez,Riesel,82.1,204.12,140.61,185.97,530.7,Single-ply,SBD,M
Boys,82.1,7,Jeremy Ballard,Corsicana Mildred,75.93,181.44,106.59,190.51,478.54,Single-ply,SBD,M
Boys,82.1,8,Riley Allen,Robinson,81.92,176.9,117.93,172.37,467.2,Single-ply,SBD,M
Boys,89.81,9,Nick Moler,Gatesville,82.28,170.1,86.18,185.97,442.25,Single-ply,SBD,M
Boys,82.1,10,Cody Windham,Bremond,80.38,170.1,92.99,158.76,421.84,Single-ply,SBD,M
Boys,82.1,11,Ryan Baty,Riesel,77.56,158.76,86.18,154.22,399.16,Single-ply,SBD,M
Boys,82.1,12,Jason Marroquin,Axtell,80.01,149.69,77.11,165.56,392.36,Single-ply,SBD,M
Boys,82.1,13,Joseph Holland,Riesel,78.83,140.61,95.25,147.42,383.29,Single-ply,SBD,M
Boys,82.1,14,Fletcher Watts,Corsicana Mildred,80.01,136.08,90.72,149.69,376.48,Single-ply,SBD,M
Boys,82.1,15,Evan Franks,Gatesville,81.1,158.76,74.84,129.27,362.87,Single-ply,SBD,M
Boys,82.1,16,Phillip Berry,Gatesville,78.02,124.74,86.18,145.15,356.07,Single-ply,SBD,M
Boys,82.1,17,Clayton Swonke,Franklin,76.2,106.59,58.97,104.33,269.89,Single-ply,SBD,M
Boys,89.81,1,Omar Cardoso,Waco Reicher Catholic,89.81,254.01,122.47,258.55,635.03,Single-ply,SBD,M
Boys,89.81,2,MarcJavion McGrew,Hearne,88.9,226.8,129.27,242.67,598.74,Single-ply,SBD,M
Boys,89.81,3,Tanner Coone,Axtell,87.82,215.46,136.08,183.7,535.24,Single-ply,SBD,M
Boys,89.81,4,Victor Mendoza,Hearne,88,199.58,127.01,206.38,532.97,Single-ply,SBD,M
Boys,89.81,5,Brent Massey,Dawson,89.54,188.24,102.06,204.12,494.42,Single-ply,SBD,M
Boys,89.81,6,Keanu Fathal,Corsicana Mildred,87.72,195.04,108.86,181.44,485.34,Single-ply,SBD,M
Boys,89.81,7,Ty Cross,Robinson,86.36,163.29,97.52,192.78,453.59,Single-ply,SBD,M
Boys,89.81,8,Cody Finnegan,Riesel,86.82,190.51,104.33,147.42,442.25,Single-ply,SBD,M
Boys,89.81,9,Billy Shilling,Axtell,82.55,181.44,77.11,142.88,401.43,Single-ply,SBD,M
Boys,89.81,10,Justin Robbins,Italy,89.81,133.81,79.38,149.69,362.87,Single-ply,SBD,M
Boys,89.81,11,Emanuel Chavez,Valley Mills,83.01,124.74,58.97,124.74,308.44,Single-ply,SBD,M
Boys,99.79,1,Josef Fowler,Rogers,96.62,238.14,151.95,206.38,596.47,Single-ply,SBD,M
Boys,99.79,2,Joseph Reddick,Riesel,93.26,213.19,131.54,199.58,544.31,Single-ply,SBD,M
Boys,99.79,3,Joseph Huffman,Rogers,99.79,195.04,129.27,192.78,517.1,Single-ply,SBD,M
Boys,99.79,4,Matt McNew,Robinson,93.08,190.51,122.47,190.51,503.49,Single-ply,SBD,M
Boys,99.79,5,Christian Contreras #1,Hearne,97.07,176.9,111.13,181.44,469.47,Single-ply,SBD,M
Boys,99.79,6,Rogelio Medina,Maypearl,94.26,154.22,108.86,163.29,426.38,Single-ply,SBD,M
Boys,99.79,7,Brandon Taylor,Gatesville,94.26,165.56,83.91,158.76,408.23,Single-ply,SBD,M
Boys,99.79,8,Ryan Blackford,Valley Mills,94.98,136.08,74.84,149.69,360.61,Single-ply,SBD,M
Boys,99.79,9,Dylan Morgan,Riesel,96.25,140.61,77.11,131.54,349.27,Single-ply,SBD,M
Boys,99.79,10,Jose Chavez,Riesel,94.98,122.47,68.04,113.4,303.91,Single-ply,SBD,M
Boys,109.77,1,Danny Hanna,Corsicana Mildred,107.86,226.8,149.69,226.8,603.28,Single-ply,SBD,M
Boys,109.77,2,Tyler Thompson,Rogers,103.24,199.58,102.06,185.97,487.61,Single-ply,SBD,M
Boys,109.77,3,Jamie Saucedo,Bosqueville,103.06,190.51,102.06,170.1,462.66,Single-ply,SBD,M
Boys,109.77,4,Abram Villescaz,Waco Reicher Catholic,107.95,176.9,81.65,197.31,455.86,Single-ply,SBD,M
Boys,109.77,5,Diego Gutierrez,Robinson,102.51,174.63,102.06,176.9,453.59,Single-ply,SBD,M
Boys,109.77,6,Ethan Sedberry,Meridian,101.79,158.76,86.18,181.44,426.38,Single-ply,SBD,M
Boys,109.77,7,Cody Ewing,Valley Mills,100.52,156.49,92.99,142.88,392.36,Single-ply,SBD,M
Boys,109.77,8,Allen Phillips,Franklin,108.14,136.08,81.65,145.15,362.87,Single-ply,SBD,M
Boys,109.77,DQ,Josh Ashlock,Maypearl,106.32,219.99,142.88,,,Single-ply,SBD,M
Boys,124.74,1,Ej Waggy,Rogers,110.68,274.42,183.7,240.4,698.53,Single-ply,SBD,M
Boys,124.74,2,Trent Andrews,Bosqueville,124.56,288.03,140.61,254.01,682.66,Single-ply,SBD,M
Boys,124.74,3,Carlton Hollister,Riesel,122.56,204.12,145.15,190.51,539.77,Single-ply,SBD,M
Boys,124.74,4,Lucas Morales,Waco Reicher Catholic,124.65,183.7,113.4,217.72,514.83,Single-ply,SBD,M
Boys,124.74,5,Jordan Westbrook,Gatesville,115.3,204.12,131.54,174.63,510.29,Single-ply,SBD,M
Boys,124.74,6,Bobby Davis,Bosqueville,113.94,183.7,113.4,206.38,503.49,Single-ply,SBD,M
Boys,124.74,7,Andrew Netherland,Robinson,113.31,199.58,124.74,167.83,492.15,Single-ply,SBD,M
Boys,124.74,8,Taylor Hooten,Robinson,118.12,201.85,97.52,188.24,487.61,Single-ply,SBD,M
Boys,124.74,9,Tanner Smith,Robinson,124.01,188.24,117.93,181.44,487.61,Single-ply,SBD,M
Boys,124.74,10,Chris Bullington,Gatesville,115.3,174.63,99.79,167.83,442.25,Single-ply,SBD,M
Boys,124.74,DQ,Andrew French #2,Waco Reicher Catholic,115.94,,,,,Single-ply,SBD,M
Boys,124.74,DQ,Alex Balch,Valley Mills,113.94,170.1,90.72,,,Single-ply,SBD,M
Boys,124.74+,1,Michael Williams,Dawson,155.22,204.12,124.74,190.51,519.36,Single-ply,SBD,M
Boys,124.74+,2,Bryan Jutson,Hearne,127.82,147.42,99.79,183.7,430.91,Single-ply,SBD,M
Boys,124.74+,3,Alex Coronado,Valley Mills,140.98,158.76,99.79,170.1,428.64,Single-ply,SBD,M
