Division,WeightClassKg,Place,Name,Team,BodyweightKg,Best3SquatKg,Best3BenchKg,Best3DeadliftKg,TotalKg,Equipment,Event,Sex
Boys,51.71,1,Rudy Sanchez,Somerset,51.71,142.88,86.18,172.37,401.43,Single-ply,SBD,M
Boys,51.71,2,Brian Lazo,Crystal City,51.53,149.69,83.91,142.88,376.48,Single-ply,SBD,M
Boys,51.71,3,John Acosta,Crystal City,50.89,108.86,45.36,117.93,272.16,Single-ply,SBD,M
Boys,55.79,1,Jacob Forester,Center Point,55.79,136.08,74.84,142.88,353.8,Single-ply,SBD,M
Boys,55.79,2,Edward Fonseca,San Antonio Memorial,52.16,124.74,79.38,133.81,337.93,Single-ply,SBD,M
Boys,55.79,3,Orlando Mata,Crystal City,53.98,111.13,65.77,142.88,319.78,Single-ply,SBD,M
Boys,59.87,1,Kaleb Zertuche,Devine,59.51,165.56,97.52,190.51,453.59,Single-ply,SBD,M
Boys,59.87,2,Quen Syms,Lytle,59.42,151.95,88.45,172.37,412.77,Single-ply,SBD,M
Boys,59.87,3,Christian Tafoya,Crystal City,59.06,147.42,68.04,131.54,347,Single-ply,SBD,M
Boys,59.87,4,Rene Jimenez,San Antonio Memorial,59.87,136.08,72.57,136.08,344.73,Single-ply,SBD,M
Boys,59.87,5,Virgil Luna,Crystal City,59.78,113.4,68.04,151.95,333.39,Single-ply,SBD,M
Boys,67.13,1,Orlando Gutierrez,Crystal City,66.41,272.16,104.33,226.8,603.28,Single-ply,SBD,M
Boys,67.13,2,Julian Rico,Somerset,64.95,238.14,142.88,208.65,589.67,Single-ply,SBD,M
Boys,67.13,3,Mario Cabrera,Somerset,67.13,226.8,127.01,210.92,564.72,Single-ply,SBD,M
Boys,67.13,4,Deme Monreal,Devine,63.23,172.37,102.06,179.17,453.59,Single-ply,SBD,M
Boys,67.13,5,Angel Rodríguez #1,Crystal City,66.68,179.17,95.25,154.22,428.64,Single-ply,SBD,M
Boys,67.13,6,Cecil Olivarri,Lytle,65.77,133.81,63.5,138.35,335.66,Single-ply,SBD,M
Boys,67.13,7,Jeremiah Flores,Lytle,61.69,102.06,63.5,102.06,267.62,Single-ply,SBD,M
Boys,67.13,DQ,Maximus Perez,Lytle,65.32,158.76,,,,Single-ply,SBD,M
Boys,74.84,1,John Lomas,Crystal City,74.48,201.85,120.2,201.85,523.9,Single-ply,SBD,M
Boys,74.84,2,Rylan Wagner,Lytle,72.76,181.44,113.4,192.78,487.61,Single-ply,SBD,M
Boys,74.84,3,Juan Guzman,Crystal City,73.66,174.63,108.86,183.7,467.2,Single-ply,SBD,M
Boys,74.84,4,Martin Lopez,Crystal City,73.66,190.51,111.13,165.56,467.2,Single-ply,SBD,M
Boys,74.84,5,Devin Ornelas,Devine,74.21,136.08,108.86,161.03,405.97,Single-ply,SBD,M
Boys,74.84,DQ,Alan Hernandez #8,San Antonio Memorial,74.66,149.69,,,,Single-ply,SBD,M
Boys,82.1,1,Leif Griffen,San Antonio Southwest,79.11,258.55,124.74,242.67,625.96,Single-ply,SBD,M
Boys,82.1,2,Ralph Garrett,Lytle,80.74,240.4,158.76,226.8,625.96,Single-ply,SBD,M
Boys,82.1,3,Nathan Delgado,Crystal City,78.02,199.58,108.86,183.7,492.15,Single-ply,SBD,M
Boys,82.1,4,Martin Rios,Crystal City,75.3,183.7,102.06,183.7,469.47,Single-ply,SBD,M
Boys,82.1,5,Cameron Mata,Yoakum,82.1,172.37,88.45,183.7,444.52,Single-ply,SBD,M
Boys,82.1,6,Isaac Garcia,Crystal City,81.47,158.76,92.99,183.7,435.45,Single-ply,SBD,M
Boys,89.81,1,Michael Gonzalez,Somerset,89.72,288.03,161.03,226.8,675.85,Single-ply,SBD,M
Boys,89.81,2,Edward Kierstead,San Antonio Southwest,89.81,265.35,172.37,226.8,664.51,Single-ply,SBD,M
Boys,89.81,3,Elias Torres,Somerset,88.99,265.35,158.76,210.92,635.03,Single-ply,SBD,M
Boys,89.81,4,Joseph Perez,Lytle,84.73,265.35,133.81,215.46,614.62,Single-ply,SBD,M
Boys,89.81,5,Johnny Paredes,Lytle,83.64,210.92,97.52,197.31,505.76,Single-ply,SBD,M
Boys,89.81,6,Miguel Buenrostro,Yoakum,86.73,165.56,83.91,174.63,424.11,Single-ply,SBD,M
Boys,99.79,1,Joseph Bueno,Somerset,97.79,322.05,197.31,290.3,809.66,Single-ply,SBD,M
Boys,99.79,2,Edward Zaragoza,San Antonio Memorial,90.9,244.94,145.15,233.6,623.69,Single-ply,SBD,M
Boys,99.79,3,Nick Propst,San Antonio Southwest,98.61,235.87,158.76,215.46,610.08,Single-ply,SBD,M
Boys,99.79,4,Bryan Ledesma,Somerset,90.26,233.6,138.35,213.19,585.13,Single-ply,SBD,M
Boys,99.79,5,Homer Arredondo,Crystal City,93.98,163.29,83.91,158.76,405.97,Single-ply,SBD,M
Boys,109.77,1,Garret Carver,Devine,108.86,231.33,188.24,226.8,646.37,Single-ply,SBD,M
Boys,109.77,2,Angel Banderas,San Antonio Memorial,109.77,208.65,124.74,224.53,557.92,Single-ply,SBD,M
Boys,109.77,3,Omar Guiterrez,Yoakum,104.14,195.04,95.25,197.31,487.61,Single-ply,SBD,M
Boys,109.77,4,Ralph Guzman,San Antonio Memorial,102.15,147.42,92.99,158.76,399.16,Single-ply,SBD,M
Boys,124.74,1,Francisco Uhl,San Antonio Southwest,122.65,240.4,185.97,229.06,655.44,Single-ply,SBD,M
Boys,124.74,2,Jose Vasquez,San Antonio Memorial,124.74,258.55,131.54,190.51,580.6,Single-ply,SBD,M
Boys,124.74,3,Gayge Maldonado,Somerset,120.11,210.92,142.88,208.65,562.45,Single-ply,SBD,M
Boys,124.74,4,Diego Hernandez,Devine,110.22,217.72,131.54,172.37,521.63,Single-ply,SBD,M
Boys,124.74,5,Tim Gomrz,San Antonio Memorial,110.77,183.7,124.74,167.83,476.27,Single-ply,SBD,M
Boys,124.74,6,Bobby Rocha,Crystal City,119.57,174.63,92.99,158.76,426.38,Single-ply,SBD,M
Boys,124.74,7,Andrew Hernandez,Lytle,111.58,106.59,72.57,149.69,328.85,Single-ply,SBD,M
Boys,124.74,DQ,Alfonso Mata,Crystal City,117.66,,,,,Single-ply,SBD,M
Boys,124.74+,1,Sebastian Ramirez,Somerset,142.97,283.5,195.04,226.8,705.34,Single-ply,SBD,M
Boys,124.74+,2,Louis Rico,Somerset,133.27,244.94,190.51,197.31,632.76,Single-ply,SBD,M
Boys,124.74+,3,Jesus Borroel,San Antonio Memorial,133.17,249.48,136.08,233.6,619.15,Single-ply,SBD,M
Boys,124.74+,4,Arturo Lopez,San Antonio Southwest,134.26,240.4,149.69,224.53,614.62,Single-ply,SBD,M
Boys,124.74+,5,Roy Cantu,San Antonio Memorial,131.54,226.8,111.13,195.04,532.97,Single-ply,SBD,M
Boys,124.74+,6,Manuel Sanchez,Crystal City,130.63,183.7,88.45,192.78,464.93,Single-ply,SBD,M
Boys,124.74+,7,Roberto Castro,Crystal City,158.58,142.88,86.18,142.88,371.95,Single-ply,SBD,M
Boys,,NS,Domingo Reyes,Lytle,,,,,,Single-ply,SBD,M
Boys,,NS,Resendiz Ron,San Antonio Memorial,,,,,,Single-ply,SBD,M
Boys,,NS,Hayden Johnson,Center Point,,,,,,Single-ply,SBD,M
Boys,,NS,Daniel Ramos,Somerset,,,,,,Single-ply,SBD,M
Boys,,NS,Jose Flores #7,Somerset,,,,,,Single-ply,SBD,M
Boys,,NS,Brandon Aguilar,Somerset,,,,,,Single-ply,SBD,M
Boys,,NS,Brandon Basquez,Yoakum,,,,,,Single-ply,SBD,M
Boys,,NS,Alann Alvarado,Yoakum,,,,,,Single-ply,SBD,M
Boys,,NS,Joshua Deltoro,Lytle,,,,,,Single-ply,SBD,M
Junior Varsity,67.13,1,Sammy Bustamante,Center Point,66.68,170.1,102.06,170.1,442.25,Single-ply,SBD,M
Junior Varsity,74.84,1,Nathaniel Mena,Somerset,71.12,158.76,92.99,190.51,442.25,Single-ply,SBD,M
Junior Varsity,82.1,1,Geronimo Flores,Somerset,82.1,204.12,111.13,226.8,542.04,Single-ply,SBD,M
Junior Varsity,82.1,2,Evan Priest,Devine,80.1,174.63,86.18,167.83,428.64,Single-ply,SBD,M
Junior Varsity,82.1,3,Joseph Hernandez,Devine,76.84,156.49,86.18,170.1,412.77,Single-ply,SBD,M
Junior Varsity,82.1,4,Haiden Hass,Center Point,80.65,142.88,74.84,170.1,387.82,Single-ply,SBD,M
Junior Varsity,82.1,5,Alomar Ybarra,Somerset,82.1,147.42,61.23,154.22,362.87,Single-ply,SBD,M
Junior Varsity,82.1,6,Joseph Ramon,San Antonio Memorial,81.74,113.4,68.04,127.01,308.44,Single-ply,SBD,M
Junior Varsity,82.1,7,Gilbert Martinez,Crystal City,81.01,108.86,54.43,117.93,281.23,Single-ply,SBD,M
Junior Varsity,89.81,1,Abel Bustamante,Center Point,86.23,176.9,83.91,174.63,435.45,Single-ply,SBD,M
Junior Varsity,89.81,2,Jared Sandoval,San Antonio Memorial,83.46,122.47,83.91,127.01,333.39,Single-ply,SBD,M
Junior Varsity,89.81,3,Ace Mata,Crystal City,83.46,92.99,54.43,136.08,283.5,Single-ply,SBD,M
Junior Varsity,89.81,4,Ivan Wingard,San Antonio Memorial,89.09,90.72,61.23,115.67,267.62,Single-ply,SBD,M
Junior Varsity,99.79,1,Kevin Ceineceros,Center Point,96.89,183.7,95.25,167.83,446.79,Single-ply,SBD,M
Junior Varsity,109.77,1,Mark Flores,Somerset,109.32,174.63,127.01,172.37,474,Single-ply,SBD,M
Junior Varsity,109.77,DQ,Manuel Belmarez,San Antonio Memorial,107.68,158.76,95.25,,,Single-ply,SBD,M
Junior Varsity,124.74,1,Ivan Garcia,San Antonio Memorial,115.76,154.22,95.25,154.22,403.7,Single-ply,SBD,M
Junior Varsity,124.74+,1,Michael Perez,Somerset,126.1,142.88,117.93,158.76,419.57,Single-ply,SBD,M
Junior Varsity,124.74+,2,Adam Alvizo,Crystal City,127.82,43.09,58.97,65.77,167.83,Single-ply,SBD,M
Junior Varsity,,NS,Robert Lopez,San Antonio Memorial,,,,,,Single-ply,SBD,M
Freshmen,59.87,DQ,Benjamin Lugo,Somerset,59.87,106.59,,,,Single-ply,SBD,M
Freshmen,67.13,1,Koal Detmer,Somerset,63.5,102.06,52.16,102.06,256.28,Single-ply,SBD,M
Freshmen,74.84,1,Francisco Huerta,Yoakum,69.31,151.95,83.91,170.1,405.97,Single-ply,SBD,M
Freshmen,74.84,2,Austin Lyman,Center Point,73.66,124.74,68.04,136.08,328.85,Single-ply,SBD,M
Freshmen,82.1,1,Ryan Pena,San Antonio Southwest,75.66,183.7,117.93,188.24,489.88,Single-ply,SBD,M
Freshmen,82.1,2,Pedro Ortiz,Somerset,82.1,138.35,92.99,142.88,374.21,Single-ply,SBD,M
Freshmen,82.1,3,Kannon Ramirez,Devine,75.57,111.13,77.11,120.2,308.44,Single-ply,SBD,M
Freshmen,89.81,1,Aharon de los Santos,Yoakum,83.91,170.1,92.99,142.88,405.97,Single-ply,SBD,M
Freshmen,99.79,1,Clark Griffen,San Antonio Southwest,95.8,188.24,113.4,206.38,508.02,Single-ply,SBD,M
Freshmen,99.79,2,Jake Laque,Center Point,94.8,190.51,90.72,172.37,453.59,Single-ply,SBD,M
Freshmen,99.79,3,Jacob Delaney,Devine,99.79,124.74,79.38,122.47,326.59,Single-ply,SBD,M
Freshmen,99.79,4,Chase Denton,Somerset,95.25,113.4,68.04,129.27,310.71,Single-ply,SBD,M
Freshmen,99.79,5,Marcus Gomez,San Antonio Memorial,89.99,65.77,56.7,106.59,229.06,Single-ply,SBD,M
Freshmen,109.77,1,Isaiah Valdez,Somerset,104.69,183.7,145.15,185.97,514.83,Single-ply,SBD,M
Freshmen,109.77,2,Stephen Terrazas,Somerset,103.51,161.03,120.2,165.56,446.79,Single-ply,SBD,M
Freshmen,109.77,3,Juan Flores,Somerset,108.77,170.1,102.06,170.1,442.25,Single-ply,SBD,M
Freshmen,109.77,4,Mathew Mariscal,Yoakum,103.24,145.15,77.11,131.54,353.8,Single-ply,SBD,M
Freshmen,109.77,5,Rudy Rodroguez,Devine,108.5,131.54,83.91,127.01,342.46,Single-ply,SBD,M
Freshmen,,NS,Mauricio Pecina,Yoakum,,,,,,Single-ply,SBD,M
Freshmen,,NS,Anithan Jimenez,Yoakum,,,,,,Single-ply,SBD,M
Freshmen,,NS,Lance Bergman,Yoakum,,,,,,Single-ply,SBD,M
Freshmen,,NS,Nathaniel Ramos,Somerset,,,,,,Single-ply,SBD,M
Freshmen,,NS,Omar Martinez #1,Center Point,,,,,,Single-ply,SBD,M
