Division,WeightClassKg,Place,Name,Team,BodyweightKg,Best3SquatKg,Best3BenchKg,Best3DeadliftKg,TotalKg,Equipment,Event,Sex
Boys,51.71,1,Jaquay Brown,Milford,51.26,108.86,61.23,122.47,292.57,Single-ply,SBD,M
Boys,51.71,2,Antonio Ponce,Glen Rose,47.81,108.86,49.9,131.54,290.3,Single-ply,SBD,M
Boys,51.71,3,Colton Niemeier,Crawford,42.37,102.06,52.16,106.59,260.82,Single-ply,SBD,M
Boys,51.71,DQ,Cody Halcom,Glen Rose,44.09,79.38,,,,Single-ply,SBD,M
Boys,51.71,DQ,Justin Klaus,West,50.08,,,,,Single-ply,SBD,M
Boys,55.79,1,Baldomero Sanchez,Riesel,55.79,158.76,77.11,140.61,376.48,Single-ply,SBD,M
Boys,59.87,2,Jonathan Johnson,Copperas Cove,55.97,140.61,79.38,154.22,374.21,Single-ply,SBD,M
Boys,55.79,3,Travis Lacina,Crawford,53.07,117.93,70.31,129.27,317.51,Single-ply,SBD,M
Boys,55.79,DQ,Colby Esparza,Little River Academy,55.34,129.27,,,,Single-ply,SBD,M
Boys,59.87,1,Hunter Work,Robinson,59.15,167.83,113.4,174.63,455.86,Single-ply,SBD,M
Boys,67.13,2,Jesse Berry #1,Crawford,60.06,158.76,92.99,170.1,421.84,Single-ply,SBD,M
Boys,59.87,3,Dalton Long,Dawson,58.33,129.27,72.57,127.01,328.85,Single-ply,SBD,M
Boys,59.87,DQ,Carlin Linnabery,Glen Rose,58.51,124.74,,,,Single-ply,SBD,M
Boys,59.87,DQ,Manuel Rodriguez #4,Robinson,58.42,,,,,Single-ply,SBD,M
Boys,59.87,DQ,Keith Langford,Riesel,59.33,,,,,Single-ply,SBD,M
Boys,59.87,DQ,Jordon Smith,Valley Mills,58.69,,,,,Single-ply,SBD,M
Boys,67.13,DQ,Roy Ward,Waco Reicher Catholic,60.06,,,,,Single-ply,SBD,M
Boys,67.13,1,Jesus Jaimes,Riesel,65.68,231.33,140.61,226.8,598.74,Single-ply,SBD,M
Boys,67.13,2,Lane Fikes,Robinson,67.04,172.37,102.06,204.12,478.54,Single-ply,SBD,M
Boys,67.13,3,Stephen Mitchell,Robinson,67.04,181.44,97.52,197.31,476.27,Single-ply,SBD,M
Boys,67.13,4,Dylan Haralson,Axtell,65.86,190.51,90.72,179.17,460.4,Single-ply,SBD,M
Boys,67.13,5,Justin Mondrik,Little River Academy,61.23,133.81,77.11,154.22,365.14,Single-ply,SBD,M
Boys,67.13,6,Brady Baker,Riesel,66.95,145.15,83.91,136.08,365.14,Single-ply,SBD,M
Boys,67.13,DQ,Jordan Wright,Meridian,65.23,192.78,,,,Single-ply,SBD,M
Boys,67.13,DQ,Ian Valdez,Glen Rose,66.77,,,,,Single-ply,SBD,M
Boys,74.84,1,Zach Robinson #2,Salado,72.57,185.97,102.06,190.51,478.54,Single-ply,SBD,M
Boys,74.84,2,Braxon Stefka,Axtell,74.3,201.85,83.91,192.78,478.54,Single-ply,SBD,M
Boys,74.84,3,Josh Robinson,Salado,68.04,176.9,120.2,174.63,471.74,Single-ply,SBD,M
Boys,74.84,4,Brandon Berry,Gatesville,71.94,170.1,95.25,195.04,460.4,Single-ply,SBD,M
Boys,74.84,5,Josh Beasley,Glen Rose,71.21,181.44,102.06,172.37,455.86,Single-ply,SBD,M
Boys,82.1,DQ,Tavion Hall,Kerens,75.02,176.9,102.06,,,Single-ply,SBD,M
Boys,74.84,DQ,Cameron Terrell,Waco Connally,70.4,,,,,Single-ply,SBD,M
Boys,74.84,DQ,Josh Scherer,Little River Academy,73.84,,,,,Single-ply,SBD,M
Boys,74.84,DQ,Ramiro Fraire,West,73.39,188.24,108.86,,,Single-ply,SBD,M
Boys,89.81,1,Ben Mungia,Glen Rose,82.28,226.8,124.74,208.65,560.19,Single-ply,SBD,M
Boys,82.1,2,Karim Sarhani,Copperas Cove,80.74,199.58,115.67,201.85,517.1,Single-ply,SBD,M
Boys,82.1,3,Jarred Goedeke,Robinson,80.29,181.44,111.13,210.92,503.49,Single-ply,SBD,M
Boys,82.1,4,Zach Starkey,Kerens,80.2,172.37,122.47,195.04,489.88,Single-ply,SBD,M
Boys,82.1,5,Dustin McLearen,Gatesville,80.74,172.37,117.93,185.97,476.27,Single-ply,SBD,M
Boys,82.1,DQ,Blake Nash,Salado,78.11,,,,,Single-ply,SBD,M
Boys,89.81,1,Brody Jones,Crawford,88,242.67,149.69,213.19,605.55,Single-ply,SBD,M
Boys,89.81,2,Mikey Sellers,Salado,88,240.4,136.08,204.12,580.6,Single-ply,SBD,M
Boys,89.81,3,Tyler Martinez,Axtell,84.82,215.46,111.13,208.65,535.24,Single-ply,SBD,M
Boys,89.81,4,Michael Kline,Kerens,89.45,199.58,102.06,204.12,505.76,Single-ply,SBD,M
Boys,89.81,5,Luis Villafranco,Salado,85.73,204.12,102.06,181.44,487.61,Single-ply,SBD,M
Boys,99.79,1,Kevin Abercrombie,Little River Academy,99.25,249.48,136.08,226.8,612.35,Single-ply,SBD,M
Boys,99.79,2,Joseph Reddick,Riesel,95.8,226.8,136.08,208.65,571.53,Single-ply,SBD,M
Boys,99.79,3,Nick Maddox,Waco Reicher Catholic,98.88,201.85,124.74,219.99,546.58,Single-ply,SBD,M
Boys,99.79,4,Collin McMillan,Little River Academy,96.48,190.51,122.47,231.33,544.31,Single-ply,SBD,M
Boys,99.79,5,Jeremy Grant,Dawson,96.25,199.58,108.86,174.63,483.08,Single-ply,SBD,M
Boys,99.79,6,Jacob Michalk,Riesel,99.16,161.03,106.59,156.49,424.11,Single-ply,SBD,M
Boys,99.79,DQ,Matt Gerik,West,94.71,210.92,120.2,,,Single-ply,SBD,M
Boys,99.79,DQ,Heath Nicholson,Glen Rose,96.8,204.12,,,,Single-ply,SBD,M
Boys,99.79,DQ,Ace Navarrete,Glen Rose,92.26,,,,,Single-ply,SBD,M
Boys,109.77,1,Riley Hubert,McGregor,102.24,294.84,127.01,238.14,659.98,Single-ply,SBD,M
Boys,109.77,2,Billy Golding,Salado,109.04,272.16,149.69,238.14,659.98,Single-ply,SBD,M
Boys,109.77,3,Dan Goldman,Salado,108.95,258.55,136.08,226.8,621.42,Single-ply,SBD,M
Boys,109.77,4,Jodey Hedges,Salado,109.68,233.6,95.25,170.1,498.95,Single-ply,SBD,M
Boys,109.77,DQ,Brent Marona,Copperas Cove,100.06,238.14,,,,Single-ply,SBD,M
Boys,124.74,1,Andy McNew,Robinson,118.66,238.14,145.15,219.99,603.28,Single-ply,SBD,M
Boys,124.74,2,Ray Jones,Copperas Cove,110.04,235.87,145.15,219.99,601.01,Single-ply,SBD,M
Boys,124.74,3,Alexix Olvera,McGregor,119.2,247.21,124.74,208.65,580.6,Single-ply,SBD,M
Boys,124.74,4,Kyle Golden,Dawson,114.21,217.72,136.08,192.78,546.58,Single-ply,SBD,M
Boys,124.74,5,Chris Hobbs,Kerens,114.67,199.58,108.86,204.12,512.56,Single-ply,SBD,M
Boys,124.74,6,Logan Willenborg,West,110.13,208.65,104.33,190.51,503.49,Single-ply,SBD,M
Boys,124.74,DQ,Zac Perez,Glen Rose,124.74,294.84,,,,Single-ply,SBD,M
Boys,124.74+,1,Shane Murphy,Robinson,159.12,285.76,181.44,244.94,712.14,Single-ply,SBD,M
Boys,124.74+,2,Alan Singleton,Milford,192.96,267.62,147.42,222.26,637.3,Single-ply,SBD,M
Boys,124.74+,3,Grayson Eaton,Little River Academy,152.95,233.6,138.35,215.46,587.4,Single-ply,SBD,M
Boys,124.74+,4,Ethan Still,Kerens,188.42,240.4,117.93,190.51,548.85,Single-ply,SBD,M
Boys,124.74+,5,Michael Williams,Dawson,138.62,219.99,106.59,208.65,535.24,Single-ply,SBD,M
Boys,124.74+,6,Jacob Jimmerson,Salado,127.55,192.78,92.99,170.1,455.86,Single-ply,SBD,M
Boys,,NS,Marcus Mendoza,Salado,,,,,,Single-ply,SBD,M
Boys,,NS,George Pedroza,Little River Academy,,,,,,Single-ply,SBD,M
Boys,,NS,Cyle Hickey,Crawford,,,,,,Single-ply,SBD,M
